<?xml version="1.0" encoding="UTF-8" standalone="no"?>
<svg
   height="60"
   width="24"
   viewBox="0 0 24 60"
   id="svg2"
   version="1.1"
   xmlns="http://www.w3.org/2000/svg"
   xmlns:svg="http://www.w3.org/2000/svg"
   xmlns:rdf="http://www.w3.org/1999/02/22-rdf-syntax-ns#"
   xmlns:cc="http://creativecommons.org/ns#"
   xmlns:dc="http://purl.org/dc/elements/1.1/">
  <defs
     id="defs8" />
  <metadata
     id="metadata4">
    <rdf:RDF>
      <cc:Work
         rdf:about="">
        <dc:format>image/svg+xml</dc:format>
        <dc:type
           rdf:resource="http://purl.org/dc/dcmitype/StillImage" />
      </cc:Work>
    </rdf:RDF>
  </metadata>
  <g
     id="layer1"
     style="display:none">
    <g
       id="g4509"
       style="display:none">
      <rect
         style="display:inline;fill:#000000;fill-opacity:1;fill-rule:evenodd;stroke:none;stroke-width:3.67423;stroke-linecap:round"
         id="rect2345"
         width="3"
         height="3"
         x="10.5"
         y="-60"
         transform="scale(1,-1)" />
      <path
         style="display:inline;fill:none;fill-opacity:1;fill-rule:evenodd;stroke:#000000;stroke-width:1;stroke-linecap:butt;stroke-dasharray:none;stroke-opacity:1"
         d="m 5,20 v 6 c 0,2 7,6 7,8 v 23"
         id="path2347" />
    </g>
    <g
       style="display:none"
       id="g4575">
      <rect
         style="display:inline;fill:#000000;fill-opacity:1;fill-rule:evenodd;stroke:none;stroke-width:3.67423;stroke-linecap:round"
         id="rect2351"
         width="3"
         height="3"
         x="10.5"
         y="-60"
         transform="scale(1,-1)" />
      <path
         style="display:inline;fill:none;fill-opacity:1;fill-rule:evenodd;stroke:#000000;stroke-width:1;stroke-linecap:butt;stroke-dasharray:none;stroke-opacity:1"
         d="m 19,20 v 6 c 0,2 -7,6 -7,8 v 23"
         id="path2353" />
    </g>
    <g
       id="layer5"
       style="display:none">
      <path
         style="display:inline;fill:none;fill-rule:evenodd;stroke:#000000;stroke-width:3;stroke-linecap:butt;stroke-linejoin:miter;stroke-miterlimit:4;stroke-dasharray:none;stroke-opacity:1"
         d="M 5,20 V 60"
         id="path9922" />
    </g>
    <g
       id="layer6"
       style="display:none">
      <path
         style="display:inline;fill:none;fill-rule:evenodd;stroke:#000000;stroke-width:3;stroke-linecap:butt;stroke-linejoin:miter;stroke-miterlimit:4;stroke-dasharray:none;stroke-opacity:1"
         d="M 12,20 V 60"
         id="path3221-3" />
    </g>
    <g
       id="layer7"
       style="display:none">
      <path
         style="display:inline;fill:none;fill-rule:evenodd;stroke:#000000;stroke-width:3;stroke-linecap:butt;stroke-linejoin:miter;stroke-miterlimit:4;stroke-dasharray:none;stroke-opacity:1"
         d="M 19,20 V 60"
         id="path9925" />
    </g>
    <g
       id="layer4"
       style="display:none">
      <path
         style="display:inline;fill:none;fill-opacity:1;fill-rule:evenodd;stroke:#000000;stroke-width:3;stroke-linecap:butt;stroke-dasharray:none;stroke-opacity:1"
         d="M 5,60 V 24 c 0,0 0,-4 4.5,-4 h 5 c 4.5,0 4.5,4 4.5,4 v 36"
         id="path2453" />
    </g>
    <g
       id="g3456"
       style="display:inline">
      <path
         id="path11279"
         d="m 12,20 v 10 c 0,2.999742 7,5 7,8 v 22"
         style="display:inline;fill:none;fill-rule:evenodd;stroke:#000000;stroke-width:3;stroke-linecap:butt;stroke-linejoin:miter;stroke-miterlimit:4;stroke-dasharray:none;stroke-opacity:1" />
    </g>
    <g
       style="display:inline"
       id="g3340">
      <path
         id="path11279-3"
         d="m 12,20 v 10 c 0,2.999742 -7,5 -7,8 v 22"
         style="display:inline;fill:none;fill-rule:evenodd;stroke:#000000;stroke-width:3;stroke-linecap:butt;stroke-linejoin:miter;stroke-miterlimit:4;stroke-dasharray:none;stroke-opacity:1" />
    </g>
  </g>
  <g
     id="layer2"
     style="display:none">
    <g
       id="layer8"
       style="display:none">
      <path
         style="display:inline;fill:none;fill-rule:evenodd;stroke:#000000;stroke-width:3;stroke-linecap:butt;stroke-linejoin:miter;stroke-miterlimit:4;stroke-dasharray:none;stroke-opacity:1"
         d="M 5,20 V 0"
         id="path9919" />
    </g>
    <g
       id="layer9"
       style="display:inline">
      <path
         style="display:inline;fill:none;fill-rule:evenodd;stroke:#000000;stroke-width:3;stroke-linecap:butt;stroke-linejoin:miter;stroke-miterlimit:4;stroke-dasharray:none;stroke-opacity:1"
         d="M 12,20 V 0"
         id="path9915" />
    </g>
    <g
       style="display:none"
       id="g3331">
      <rect
         style="fill:#000000;fill-opacity:1;fill-rule:evenodd;stroke:none;stroke-width:3.67423;stroke-linecap:round"
         id="rect377"
         width="3"
         height="3"
         x="10.5"
         y="0" />
      <path
         style="fill:none;fill-opacity:1;fill-rule:evenodd;stroke:#000000;stroke-width:1;stroke-linecap:butt;stroke-dasharray:none;stroke-opacity:1"
         d="M 12,20 V 3"
         id="path2088" />
    </g>
    <g
       id="layer10"
       style="display:none">
      <path
         style="display:inline;fill:none;fill-rule:evenodd;stroke:#000000;stroke-width:3;stroke-linecap:butt;stroke-linejoin:miter;stroke-miterlimit:4;stroke-dasharray:none;stroke-opacity:1"
         d="M 19,20 V 0"
         id="path3221-6" />
    </g>
    <g
       id="layer3"
       style="display:none">
      <path
         style="fill:none;fill-opacity:1;fill-rule:evenodd;stroke:#000000;stroke-width:3;stroke-linecap:butt;stroke-dasharray:none;stroke-opacity:1"
         d="m 5,0 v 16 c 0,0 0,4 4.5,4 h 5 C 19,20 19,16 19,16 V 0"
         id="path2451" />
    </g>
    <g
       id="g3244"
       style="display:none">
      <path
         id="path11095"
         d="M 12,20 V 12 C 12,9.0002582 19,5 19,2 V 0"
         style="display:inline;fill:none;fill-rule:evenodd;stroke:#000000;stroke-width:3;stroke-linecap:butt;stroke-linejoin:miter;stroke-miterlimit:4;stroke-dasharray:none;stroke-opacity:1" />
    </g>
    <g
       style="display:none"
       id="g3356">
      <rect
         style="display:inline;fill:#000000;fill-opacity:1;fill-rule:evenodd;stroke:none;stroke-width:3.67423;stroke-linecap:round"
         id="rect2151"
         width="3"
         height="3"
         x="10.5"
         y="0" />
      <path
         style="display:inline;fill:none;fill-opacity:1;fill-rule:evenodd;stroke:#000000;stroke-width:1;stroke-linecap:butt;stroke-dasharray:none;stroke-opacity:1"
         d="M 5,20 V 12 C 5,10 12,6 12,4 V 3"
         id="path2153" />
    </g>
    <g
       style="display:none"
       id="g3308">
      <path
         id="path3310"
         d="M 12,20 V 12 C 12,9.0002582 5,5 5,2 V 0"
         style="fill:none;fill-rule:evenodd;stroke:#000000;stroke-width:3;stroke-linecap:butt;stroke-linejoin:miter;stroke-miterlimit:4;stroke-dasharray:none;stroke-opacity:1" />
    </g>
  </g>
  <g
     id="layer11"
     style="display:inline">
    <g
       id="layer12"
       style="display:none">
      <circle
         cy="20"
         cx="12"
         id="path3223"
         style="fill:#000000;fill-opacity:1;stroke:none;stroke-width:17.5;stroke-linecap:round;stroke-linejoin:round;stroke-miterlimit:4;stroke-dasharray:none;stroke-dashoffset:0;stroke-opacity:1"
         r="5" />
    </g>
    <g
       id="layer13"
       style="display:inline">
      <path
         style="fill:#000000;fill-opacity:1;stroke:none;stroke-width:1.15737;stroke-linecap:round;stroke-linejoin:round;stroke-miterlimit:4;stroke-dasharray:none;stroke-dashoffset:0;stroke-opacity:1"
         id="circle3603"
         d="m -15,12 a 5,5 0 0 1 -2.5,4.330127 5,5 0 0 1 -5,0 A 5,5 0 0 1 -25,12 h 5 z"
         transform="rotate(-90)" />
      <path
         style="fill:none;fill-rule:evenodd;stroke:#000000;stroke-width:0.5;stroke-linecap:round;stroke-linejoin:miter;stroke-miterlimit:4;stroke-dasharray:none;stroke-opacity:1"
         d="m 9.5,16.211632 c 0,6.998543 0,6.998543 0,6.998543 L 8.2388798,21.025849"
         id="path3608" />
    </g>
    <g
       id="g3629"
       style="display:none">
      <path
         style="display:inline;fill:#000000;fill-opacity:1;stroke:none;stroke-width:1.15737;stroke-linecap:round;stroke-linejoin:round;stroke-miterlimit:4;stroke-dasharray:none;stroke-dashoffset:0;stroke-opacity:1"
         id="path9814"
         d="m -15,-12 a 5,5 0 0 1 -2.5,4.3301271 5,5 0 0 1 -5,-2e-7 A 5,5 0 0 1 -25,-12 h 5 z"
         transform="matrix(0,-1,-1,0,0,0)" />
      <path
         style="display:inline;fill:none;fill-rule:evenodd;stroke:#000000;stroke-width:1;stroke-linecap:round;stroke-linejoin:miter;stroke-miterlimit:4;stroke-dasharray:none;stroke-opacity:1"
         d="m 14.500001,23.788368 c 0,-6.998543 0,-6.998543 0,-6.998543 l 1.26112,2.184326"
         id="path9816" />
    </g>
  </g>
  <g
     style="display:inline"
     id="g3872">
    <g
       style="display:none"
       id="g3874">
      <circle
         cy="20"
         cx="5"
         id="circle9820"
         style="display:inline;fill:#000000;fill-opacity:1;stroke:none;stroke-width:17.5;stroke-linecap:round;stroke-linejoin:round;stroke-miterlimit:4;stroke-dasharray:none;stroke-dashoffset:0;stroke-opacity:1"
         r="5" />
    </g>
    <g
       style="display:none"
       id="g3878">
      <path
         style="display:inline;fill:#000000;fill-opacity:1;stroke:none;stroke-width:1.15737;stroke-linecap:round;stroke-linejoin:round;stroke-miterlimit:4;stroke-dasharray:none;stroke-dashoffset:0;stroke-opacity:1"
         id="path9909"
         d="m -15,4.999753 a 5,5 0 0 1 -2.5,4.3301271 5,5 0 0 1 -5,-2e-7 A 5,5 0 0 1 -25,4.999753 h 5 z"
         transform="rotate(-90)" />
      <path
         style="display:inline;fill:none;fill-rule:evenodd;stroke:#000000;stroke-width:0.423266;stroke-linecap:round;stroke-linejoin:miter;stroke-miterlimit:4;stroke-dasharray:none;stroke-opacity:1"
         d="m 2.4997532,16.211632 c 0,6.998543 0,6.998543 0,6.998543 L 1.238633,21.025849"
         id="path9911" />
    </g>
    <g
       style="display:none"
       id="g3884">
      <path
         style="display:inline;fill:#000000;fill-opacity:1;stroke:none;stroke-width:1.15737;stroke-linecap:round;stroke-linejoin:round;stroke-miterlimit:4;stroke-dasharray:none;stroke-dashoffset:0;stroke-opacity:1"
         id="path9895"
         d="m -15,-5 a 5,5 0 0 1 -2.5,4.33012706 5,5 0 0 1 -5,-1.2e-7 A 5,5 0 0 1 -25,-5 h 5 z"
         transform="matrix(0,-1,-1,0,0,0)" />
      <path
         style="display:inline;fill:none;fill-rule:evenodd;stroke:#000000;stroke-width:0.423266;stroke-linecap:round;stroke-linejoin:miter;stroke-miterlimit:4;stroke-dasharray:none;stroke-opacity:1"
         d="m 7.500001,23.788368 c 0,-6.998543 0,-6.998543 0,-6.998543 l 1.26112,2.184326"
         id="path9897" />
    </g>
  </g>
  <g
     id="g3791"
     style="display:inline">
    <g
       style="display:none"
       id="g3793">
      <circle
         cy="20"
         cx="19"
         id="circle9823"
         style="display:inline;fill:#000000;fill-opacity:1;stroke:none;stroke-width:17.5;stroke-linecap:round;stroke-linejoin:round;stroke-miterlimit:4;stroke-dasharray:none;stroke-dashoffset:0;stroke-opacity:1"
         r="5" />
    </g>
    <g
       style="display:none"
       id="g3797">
      <path
         style="display:inline;fill:#000000;fill-opacity:1;stroke:none;stroke-width:1.15737;stroke-linecap:round;stroke-linejoin:round;stroke-miterlimit:4;stroke-dasharray:none;stroke-dashoffset:0;stroke-opacity:1"
         id="path9887"
         d="m -15,19 a 5,5 0 0 1 -2.5,4.330127 5,5 0 0 1 -5,0 A 5,5 0 0 1 -25,19 h 5 z"
         transform="rotate(-90)" />
      <path
         style="display:inline;fill:none;fill-rule:evenodd;stroke:#000000;stroke-width:0.423266;stroke-linecap:round;stroke-linejoin:miter;stroke-miterlimit:4;stroke-dasharray:none;stroke-opacity:1"
         d="m 16.5,16.211632 c 0,6.998543 0,6.998543 0,6.998543 l -1.26112,-2.184326"
         id="path9889" />
    </g>
    <g
       style="display:none"
       id="g3803">
      <path
         style="display:inline;fill:#000000;fill-opacity:1;stroke:none;stroke-width:1.15737;stroke-linecap:round;stroke-linejoin:round;stroke-miterlimit:4;stroke-dasharray:none;stroke-dashoffset:0;stroke-opacity:1"
         id="path9903"
         d="m -15,-19 a 5,5 0 0 1 -2.5,4.330127 5,5 0 0 1 -5,0 A 5,5 0 0 1 -25,-19 h 5 z"
         transform="matrix(0,-1,-1,0,0,0)" />
      <path
         style="display:inline;fill:none;fill-rule:evenodd;stroke:#000000;stroke-width:0.423266;stroke-linecap:round;stroke-linejoin:miter;stroke-miterlimit:4;stroke-dasharray:none;stroke-opacity:1"
         d="m 21.500001,23.788368 c 0,-6.998543 0,-6.998543 0,-6.998543 l 1.26112,2.184326"
         id="path9905" />
    </g>
  </g>
</svg>
