idGare;idLigne;ordre;PDLFond;PDLPoint;vCreation;vMaj;vSuppression
Renfe01001;Renfe_Espana_U;0;0;0;165;0;0
Renfe01003;Renfe_Espana_U;0;0;0;165;0;0
Renfe01005;Renfe_Espana_U;0;0;0;165;0;0
Renfe01007;Renfe_Espana_U;0;0;0;165;0;0
Renfe01009;Renfe_Espana_U;0;0;0;165;0;0
Renfe02002;Renfe_Espana_U;0;0;0;165;0;0
Renfe02003;Renfe_Espana_U;0;0;0;165;0;0
Renfe02030;Renfe_Espana_U;0;0;0;165;0;0
Renfe03001;Renfe_Espana_U;0;0;0;165;0;0
Renfe03002;Renfe_Espana_U;0;0;0;165;0;0
Renfe03003;Renfe_Espana_U;0;0;0;165;0;0
Renfe03100;Renfe_Espana_U;0;0;0;165;0;0
Renfe03208;Renfe_Espana_U;0;0;0;165;0;0
Renfe03213;Renfe_Espana_U;0;0;0;165;0;0
Renfe03216;Renfe_Espana_U;0;0;0;165;0;0
Renfe03309;Renfe_Espana_U;0;0;0;165;0;0
Renfe03410;Renfe_Espana_U;0;0;0;165;0;0
Renfe03412;Renfe_Espana_U;0;0;0;165;0;0
Renfe04001;Renfe_Espana_U;0;0;0;165;0;0
Renfe04007;Renfe_Espana_U;0;0;0;165;0;0
Renfe04040;Renfe_Espana_U;0;0;0;165;0;0
Renfe04104;Renfe_Espana_U;0;0;0;165;0;0
Renfe04307;Renfe_Espana_U;0;0;0;165;0;0
Renfe05000;Renfe_Espana_U;0;0;0;165;0;0
Renfe05002;Renfe_Espana_U;0;0;0;165;0;0
Renfe05003;Renfe_Espana_U;0;0;0;165;0;0
Renfe05004;Renfe_Espana_U;0;0;0;165;0;0
Renfe05005;Renfe_Espana_U;0;0;0;165;0;0
Renfe05006;Renfe_Espana_U;0;0;0;165;0;0
Renfe05007;Renfe_Espana_U;0;0;0;165;0;0
Renfe05008;Renfe_Espana_U;0;0;0;165;0;0
Renfe05009;Renfe_Espana_U;0;0;0;165;0;0
Renfe05010;Renfe_Espana_U;0;0;0;165;0;0
Renfe05011;Renfe_Espana_U;0;0;0;165;0;0
Renfe05012;Renfe_Espana_U;0;0;0;165;0;0
Renfe05013;Renfe_Espana_U;0;0;0;165;0;0
Renfe05014;Renfe_Espana_U;0;0;0;165;0;0
Renfe05015;Renfe_Espana_U;0;0;0;165;0;0
Renfe05016;Renfe_Espana_U;0;0;0;165;0;0
Renfe05019;Renfe_Espana_U;0;0;0;165;0;0
Renfe05102;Renfe_Espana_U;0;0;0;165;0;0
Renfe05103;Renfe_Espana_U;0;0;0;165;0;0
Renfe05104;Renfe_Espana_U;0;0;0;165;0;0
Renfe05105;Renfe_Espana_U;0;0;0;165;0;0
Renfe05106;Renfe_Espana_U;0;0;0;165;0;0
Renfe05107;Renfe_Espana_U;0;0;0;165;0;0
Renfe05108;Renfe_Espana_U;0;0;0;165;0;0
Renfe05109;Renfe_Espana_U;0;0;0;165;0;0
Renfe05110;Renfe_Espana_U;0;0;0;165;0;0
Renfe05111;Renfe_Espana_U;0;0;0;165;0;0
Renfe05113;Renfe_Espana_U;0;0;0;165;0;0
Renfe05115;Renfe_Espana_U;0;0;0;165;0;0
Renfe05117;Renfe_Espana_U;0;0;0;165;0;0
Renfe05119;Renfe_Espana_U;0;0;0;165;0;0
Renfe05121;Renfe_Espana_U;0;0;0;165;0;0
Renfe05123;Renfe_Espana_U;0;0;0;165;0;0
Renfe05125;Renfe_Espana_U;0;0;0;165;0;0
Renfe05127;Renfe_Espana_U;0;0;0;165;0;0
Renfe05129;Renfe_Espana_U;0;0;0;165;0;0
Renfe05131;Renfe_Espana_U;0;0;0;165;0;0
Renfe05133;Renfe_Espana_U;0;0;0;165;0;0
Renfe05135;Renfe_Espana_U;0;0;0;165;0;0
Renfe05137;Renfe_Espana_U;0;0;0;165;0;0
Renfe05139;Renfe_Espana_U;0;0;0;165;0;0
Renfe05141;Renfe_Espana_U;0;0;0;165;0;0
Renfe05143;Renfe_Espana_U;0;0;0;165;0;0
Renfe05145;Renfe_Espana_U;0;0;0;165;0;0
Renfe05147;Renfe_Espana_U;0;0;0;165;0;0
Renfe05149;Renfe_Espana_U;0;0;0;165;0;0
Renfe05151;Renfe_Espana_U;0;0;0;165;0;0
Renfe05153;Renfe_Espana_U;0;0;0;165;0;0
Renfe05155;Renfe_Espana_U;0;0;0;165;0;0
Renfe05156;Renfe_Espana_U;0;0;0;165;0;0
Renfe05157;Renfe_Espana_U;0;0;0;165;0;0
Renfe05159;Renfe_Espana_U;0;0;0;165;0;0
Renfe05161;Renfe_Espana_U;0;0;0;165;0;0
Renfe05163;Renfe_Espana_U;0;0;0;165;0;0
Renfe05165;Renfe_Espana_U;0;0;0;165;0;0
Renfe05167;Renfe_Espana_U;0;0;0;165;0;0
Renfe05169;Renfe_Espana_U;0;0;0;165;0;0
Renfe05171;Renfe_Espana_U;0;0;0;165;0;0
Renfe05173;Renfe_Espana_U;0;0;0;165;0;0
Renfe05175;Renfe_Espana_U;0;0;0;165;0;0
Renfe05177;Renfe_Espana_U;0;0;0;165;0;0
Renfe05179;Renfe_Espana_U;0;0;0;165;0;0
Renfe05181;Renfe_Espana_U;0;0;0;165;0;0
Renfe05183;Renfe_Espana_U;0;0;0;165;0;0
Renfe05185;Renfe_Espana_U;0;0;0;165;0;0
Renfe05187;Renfe_Espana_U;0;0;0;165;0;0
Renfe05189;Renfe_Espana_U;0;0;0;165;0;0
Renfe05191;Renfe_Espana_U;0;0;0;165;0;0
Renfe05193;Renfe_Espana_U;0;0;0;165;0;0
Renfe05195;Renfe_Espana_U;0;0;0;165;0;0
Renfe05197;Renfe_Espana_U;0;0;0;165;0;0
Renfe05199;Renfe_Espana_U;0;0;0;165;0;0
Renfe05201;Renfe_Espana_U;0;0;0;165;0;0
Renfe05203;Renfe_Espana_U;0;0;0;165;0;0
Renfe05204;Renfe_Espana_U;0;0;0;165;0;0
Renfe05207;Renfe_Espana_U;0;0;0;165;0;0
Renfe05208;Renfe_Espana_U;0;0;0;165;0;0
Renfe05209;Renfe_Espana_U;0;0;0;165;0;0
Renfe05210;Renfe_Espana_U;0;0;0;165;0;0
Renfe05211;Renfe_Espana_U;0;0;0;165;0;0
Renfe05213;Renfe_Espana_U;0;0;0;165;0;0
Renfe05215;Renfe_Espana_U;0;0;0;165;0;0
Renfe05216;Renfe_Espana_U;0;0;0;165;0;0
Renfe05217;Renfe_Espana_U;0;0;0;165;0;0
Renfe05218;Renfe_Espana_U;0;0;0;165;0;0
Renfe05219;Renfe_Espana_U;0;0;0;165;0;0
Renfe05220;Renfe_Espana_U;0;0;0;165;0;0
Renfe05221;Renfe_Espana_U;0;0;0;165;0;0
Renfe05222;Renfe_Espana_U;0;0;0;165;0;0
Renfe05224;Renfe_Espana_U;0;0;0;165;0;0
Renfe05225;Renfe_Espana_U;0;0;0;165;0;0
Renfe05227;Renfe_Espana_U;0;0;0;165;0;0
Renfe05229;Renfe_Espana_U;0;0;0;165;0;0
Renfe05231;Renfe_Espana_U;0;0;0;165;0;0
Renfe05232;Renfe_Espana_U;0;0;0;165;0;0
Renfe05233;Renfe_Espana_U;0;0;0;165;0;0
Renfe05235;Renfe_Espana_U;0;0;0;165;0;0
Renfe05237;Renfe_Espana_U;0;0;0;165;0;0
Renfe05239;Renfe_Espana_U;0;0;0;165;0;0
Renfe05241;Renfe_Espana_U;0;0;0;165;0;0
Renfe05243;Renfe_Espana_U;0;0;0;165;0;0
Renfe05244;Renfe_Espana_U;0;0;0;165;0;0
Renfe05245;Renfe_Espana_U;0;0;0;165;0;0
Renfe05247;Renfe_Espana_U;0;0;0;165;0;0
Renfe05249;Renfe_Espana_U;0;0;0;165;0;0
Renfe05251;Renfe_Espana_U;0;0;0;165;0;0
Renfe05253;Renfe_Espana_U;0;0;0;165;0;0
Renfe05255;Renfe_Espana_U;0;0;0;165;0;0
Renfe05257;Renfe_Espana_U;0;0;0;165;0;0
Renfe05259;Renfe_Espana_U;0;0;0;165;0;0
Renfe05261;Renfe_Espana_U;0;0;0;165;0;0
Renfe05263;Renfe_Espana_U;0;0;0;165;0;0
Renfe05265;Renfe_Espana_U;0;0;0;165;0;0
Renfe05267;Renfe_Espana_U;0;0;0;165;0;0
Renfe05269;Renfe_Espana_U;0;0;0;165;0;0
Renfe05271;Renfe_Espana_U;0;0;0;165;0;0
Renfe05273;Renfe_Espana_U;0;0;0;165;0;0
Renfe05275;Renfe_Espana_U;0;0;0;165;0;0
Renfe05277;Renfe_Espana_U;0;0;0;165;0;0
Renfe05279;Renfe_Espana_U;0;0;0;165;0;0
Renfe05281;Renfe_Espana_U;0;0;0;165;0;0
Renfe05283;Renfe_Espana_U;0;0;0;165;0;0
Renfe05285;Renfe_Espana_U;0;0;0;165;0;0
Renfe05287;Renfe_Espana_U;0;0;0;165;0;0
Renfe05289;Renfe_Espana_U;0;0;0;165;0;0
Renfe05291;Renfe_Espana_U;0;0;0;165;0;0
Renfe05293;Renfe_Espana_U;0;0;0;165;0;0
Renfe05295;Renfe_Espana_U;0;0;0;165;0;0
Renfe05297;Renfe_Espana_U;0;0;0;165;0;0
Renfe05299;Renfe_Espana_U;0;0;0;165;0;0
Renfe05300;Renfe_Espana_U;0;0;0;165;0;0
Renfe05301;Renfe_Espana_U;0;0;0;165;0;0
Renfe05302;Renfe_Espana_U;0;0;0;165;0;0
Renfe05303;Renfe_Espana_U;0;0;0;165;0;0
Renfe05304;Renfe_Espana_U;0;0;0;165;0;0
Renfe05306;Renfe_Espana_U;0;0;0;165;0;0
Renfe05308;Renfe_Espana_U;0;0;0;165;0;0
Renfe05311;Renfe_Espana_U;0;0;0;165;0;0
Renfe05313;Renfe_Espana_U;0;0;0;165;0;0
Renfe05315;Renfe_Espana_U;0;0;0;165;0;0
Renfe05316;Renfe_Espana_U;0;0;0;165;0;0
Renfe05317;Renfe_Espana_U;0;0;0;165;0;0
Renfe05319;Renfe_Espana_U;0;0;0;165;0;0
Renfe05320;Renfe_Espana_U;0;0;0;165;0;0
Renfe05321;Renfe_Espana_U;0;0;0;165;0;0
Renfe05323;Renfe_Espana_U;0;0;0;165;0;0
Renfe05325;Renfe_Espana_U;0;0;0;165;0;0
Renfe05327;Renfe_Espana_U;0;0;0;165;0;0
Renfe05329;Renfe_Espana_U;0;0;0;165;0;0
Renfe05351;Renfe_Espana_U;0;0;0;165;0;0
Renfe05355;Renfe_Espana_U;0;0;0;165;0;0
Renfe05361;Renfe_Espana_U;0;0;0;165;0;0
Renfe05369;Renfe_Espana_U;0;0;0;165;0;0
Renfe05371;Renfe_Espana_U;0;0;0;165;0;0
Renfe05373;Renfe_Espana_U;0;0;0;165;0;0
Renfe05375;Renfe_Espana_U;0;0;0;165;0;0
Renfe05376;Renfe_Espana_U;0;0;0;165;0;0
Renfe05377;Renfe_Espana_U;0;0;0;165;0;0
Renfe05379;Renfe_Espana_U;0;0;0;165;0;0
Renfe05380;Renfe_Espana_U;0;0;0;165;0;0
Renfe05381;Renfe_Espana_U;0;0;0;165;0;0
Renfe05382;Renfe_Espana_U;0;0;0;165;0;0
Renfe05383;Renfe_Espana_U;0;0;0;165;0;0
Renfe05384;Renfe_Espana_U;0;0;0;165;0;0
Renfe05385;Renfe_Espana_U;0;0;0;165;0;0
Renfe05387;Renfe_Espana_U;0;0;0;165;0;0
Renfe05389;Renfe_Espana_U;0;0;0;165;0;0
Renfe05403;Renfe_Espana_U;0;0;0;165;0;0
Renfe05405;Renfe_Espana_U;0;0;0;165;0;0
Renfe05407;Renfe_Espana_U;0;0;0;165;0;0
Renfe05409;Renfe_Espana_U;0;0;0;165;0;0
Renfe05410;Renfe_Espana_U;0;0;0;165;0;0
Renfe05411;Renfe_Espana_U;0;0;0;165;0;0
Renfe05412;Renfe_Espana_U;0;0;0;165;0;0
Renfe05413;Renfe_Espana_U;0;0;0;165;0;0
Renfe05415;Renfe_Espana_U;0;0;0;165;0;0
Renfe05416;Renfe_Espana_U;0;0;0;165;0;0
Renfe05417;Renfe_Espana_U;0;0;0;165;0;0
Renfe05420;Renfe_Espana_U;0;0;0;165;0;0
Renfe05421;Renfe_Espana_U;0;0;0;165;0;0
Renfe05425;Renfe_Espana_U;0;0;0;165;0;0
Renfe05429;Renfe_Espana_U;0;0;0;165;0;0
Renfe05431;Renfe_Espana_U;0;0;0;165;0;0
Renfe05432;Renfe_Espana_U;0;0;0;165;0;0
Renfe05433;Renfe_Espana_U;0;0;0;165;0;0
Renfe05435;Renfe_Espana_U;0;0;0;165;0;0
Renfe05436;Renfe_Espana_U;0;0;0;165;0;0
Renfe05437;Renfe_Espana_U;0;0;0;165;0;0
Renfe05439;Renfe_Espana_U;0;0;0;165;0;0
Renfe05441;Renfe_Espana_U;0;0;0;165;0;0
Renfe05443;Renfe_Espana_U;0;0;0;165;0;0
Renfe05451;Renfe_Espana_U;0;0;0;165;0;0
Renfe05455;Renfe_Espana_U;0;0;0;165;0;0
Renfe05457;Renfe_Espana_U;0;0;0;165;0;0
Renfe05459;Renfe_Espana_U;0;0;0;165;0;0
Renfe05460;Renfe_Espana_U;0;0;0;165;0;0
Renfe05461;Renfe_Espana_U;0;0;0;165;0;0
Renfe05463;Renfe_Espana_U;0;0;0;165;0;0
Renfe05465;Renfe_Espana_U;0;0;0;165;0;0
Renfe05467;Renfe_Espana_U;0;0;0;165;0;0
Renfe05469;Renfe_Espana_U;0;0;0;165;0;0
Renfe05470;Renfe_Espana_U;0;0;0;165;0;0
Renfe05471;Renfe_Espana_U;0;0;0;165;0;0
Renfe05473;Renfe_Espana_U;0;0;0;165;0;0
Renfe05474;Renfe_Espana_U;0;0;0;165;0;0
Renfe05475;Renfe_Espana_U;0;0;0;165;0;0
Renfe05477;Renfe_Espana_U;0;0;0;165;0;0
Renfe05479;Renfe_Espana_U;0;0;0;165;0;0
Renfe05480;Renfe_Espana_U;0;0;0;165;0;0
Renfe05481;Renfe_Espana_U;0;0;0;165;0;0
Renfe05483;Renfe_Espana_U;0;0;0;165;0;0
Renfe05484;Renfe_Espana_U;0;0;0;165;0;0
Renfe05485;Renfe_Espana_U;0;0;0;165;0;0
Renfe05487;Renfe_Espana_U;0;0;0;165;0;0
Renfe05489;Renfe_Espana_U;0;0;0;165;0;0
Renfe05493;Renfe_Espana_U;0;0;0;165;0;0
Renfe05497;Renfe_Espana_U;0;0;0;165;0;0
Renfe05501;Renfe_Espana_U;0;0;0;165;0;0
Renfe05504;Renfe_Espana_U;0;0;0;165;0;0
Renfe05505;Renfe_Espana_U;0;0;0;165;0;0
Renfe05507;Renfe_Espana_U;0;0;0;165;0;0
Renfe05508;Renfe_Espana_U;0;0;0;165;0;0
Renfe05509;Renfe_Espana_U;0;0;0;165;0;0
Renfe05511;Renfe_Espana_U;0;0;0;165;0;0
Renfe05513;Renfe_Espana_U;0;0;0;165;0;0
Renfe05515;Renfe_Espana_U;0;0;0;165;0;0
Renfe05517;Renfe_Espana_U;0;0;0;165;0;0
Renfe05519;Renfe_Espana_U;0;0;0;165;0;0
Renfe05521;Renfe_Espana_U;0;0;0;165;0;0
Renfe05522;Renfe_Espana_U;0;0;0;165;0;0
Renfe05523;Renfe_Espana_U;0;0;0;165;0;0
Renfe05525;Renfe_Espana_U;0;0;0;165;0;0
Renfe05527;Renfe_Espana_U;0;0;0;165;0;0
Renfe05529;Renfe_Espana_U;0;0;0;165;0;0
Renfe05531;Renfe_Espana_U;0;0;0;165;0;0
Renfe05533;Renfe_Espana_U;0;0;0;165;0;0
Renfe05534;Renfe_Espana_U;0;0;0;165;0;0
Renfe05535;Renfe_Espana_U;0;0;0;165;0;0
Renfe05537;Renfe_Espana_U;0;0;0;165;0;0
Renfe05539;Renfe_Espana_U;0;0;0;165;0;0
Renfe05541;Renfe_Espana_U;0;0;0;165;0;0
Renfe05542;Renfe_Espana_U;0;0;0;165;0;0
Renfe05543;Renfe_Espana_U;0;0;0;165;0;0
Renfe05545;Renfe_Espana_U;0;0;0;165;0;0
Renfe05547;Renfe_Espana_U;0;0;0;165;0;0
Renfe05549;Renfe_Espana_U;0;0;0;165;0;0
Renfe05551;Renfe_Espana_U;0;0;0;165;0;0
Renfe05552;Renfe_Espana_U;0;0;0;165;0;0
Renfe05553;Renfe_Espana_U;0;0;0;165;0;0
Renfe05555;Renfe_Espana_U;0;0;0;165;0;0
Renfe05557;Renfe_Espana_U;0;0;0;165;0;0
Renfe05559;Renfe_Espana_U;0;0;0;165;0;0
Renfe05561;Renfe_Espana_U;0;0;0;165;0;0
Renfe05563;Renfe_Espana_U;0;0;0;165;0;0
Renfe05565;Renfe_Espana_U;0;0;0;165;0;0
Renfe05567;Renfe_Espana_U;0;0;0;165;0;0
Renfe05569;Renfe_Espana_U;0;0;0;165;0;0
Renfe05571;Renfe_Espana_U;0;0;0;165;0;0
Renfe05573;Renfe_Espana_U;0;0;0;165;0;0
Renfe05575;Renfe_Espana_U;0;0;0;165;0;0
Renfe05577;Renfe_Espana_U;0;0;0;165;0;0
Renfe05579;Renfe_Espana_U;0;0;0;165;0;0
Renfe05601;Renfe_Espana_U;0;0;0;165;0;0
Renfe05602;Renfe_Espana_U;0;0;0;165;0;0
Renfe05603;Renfe_Espana_U;0;0;0;165;0;0
Renfe05604;Renfe_Espana_U;0;0;0;165;0;0
Renfe05605;Renfe_Espana_U;0;0;0;165;0;0
Renfe05607;Renfe_Espana_U;0;0;0;165;0;0
Renfe05609;Renfe_Espana_U;0;0;0;165;0;0
Renfe05611;Renfe_Espana_U;0;0;0;165;0;0
Renfe05613;Renfe_Espana_U;0;0;0;165;0;0
Renfe05615;Renfe_Espana_U;0;0;0;165;0;0
Renfe05617;Renfe_Espana_U;0;0;0;165;0;0
Renfe05619;Renfe_Espana_U;0;0;0;165;0;0
Renfe05620;Renfe_Espana_U;0;0;0;165;0;0
Renfe05621;Renfe_Espana_U;0;0;0;165;0;0
Renfe05622;Renfe_Espana_U;0;0;0;165;0;0
Renfe05623;Renfe_Espana_U;0;0;0;165;0;0
Renfe05625;Renfe_Espana_U;0;0;0;165;0;0
Renfe05627;Renfe_Espana_U;0;0;0;165;0;0
Renfe05629;Renfe_Espana_U;0;0;0;165;0;0
Renfe05631;Renfe_Espana_U;0;0;0;165;0;0
Renfe05633;Renfe_Espana_U;0;0;0;165;0;0
Renfe05635;Renfe_Espana_U;0;0;0;165;0;0
Renfe05637;Renfe_Espana_U;0;0;0;165;0;0
Renfe05641;Renfe_Espana_U;0;0;0;165;0;0
Renfe05643;Renfe_Espana_U;0;0;0;165;0;0
Renfe05644;Renfe_Espana_U;0;0;0;165;0;0
Renfe05645;Renfe_Espana_U;0;0;0;165;0;0
Renfe05647;Renfe_Espana_U;0;0;0;165;0;0
Renfe05649;Renfe_Espana_U;0;0;0;165;0;0
Renfe05651;Renfe_Espana_U;0;0;0;165;0;0
Renfe05652;Renfe_Espana_U;0;0;0;165;0;0
Renfe05655;Renfe_Espana_U;0;0;0;165;0;0
Renfe05657;Renfe_Espana_U;0;0;0;165;0;0
Renfe05658;Renfe_Espana_U;0;0;0;165;0;0
Renfe05659;Renfe_Espana_U;0;0;0;165;0;0
Renfe05661;Renfe_Espana_U;0;0;0;165;0;0
Renfe05663;Renfe_Espana_U;0;0;0;165;0;0
Renfe05665;Renfe_Espana_U;0;0;0;165;0;0
Renfe05667;Renfe_Espana_U;0;0;0;165;0;0
Renfe05669;Renfe_Espana_U;0;0;0;165;0;0
Renfe05671;Renfe_Espana_U;0;0;0;165;0;0
Renfe05672;Renfe_Espana_U;0;0;0;165;0;0
Renfe05673;Renfe_Espana_U;0;0;0;165;0;0
Renfe05675;Renfe_Espana_U;0;0;0;165;0;0
Renfe05677;Renfe_Espana_U;0;0;0;165;0;0
Renfe05679;Renfe_Espana_U;0;0;0;165;0;0
Renfe05681;Renfe_Espana_U;0;0;0;165;0;0
Renfe05683;Renfe_Espana_U;0;0;0;165;0;0
Renfe05685;Renfe_Espana_U;0;0;0;165;0;0
Renfe05687;Renfe_Espana_U;0;0;0;165;0;0
Renfe05689;Renfe_Espana_U;0;0;0;165;0;0
Renfe05691;Renfe_Espana_U;0;0;0;165;0;0
Renfe05721;Renfe_Espana_U;0;0;0;165;0;0
Renfe05722;Renfe_Espana_U;0;0;0;165;0;0
Renfe05724;Renfe_Espana_U;0;0;0;165;0;0
Renfe05727;Renfe_Espana_U;0;0;0;165;0;0
Renfe05730;Renfe_Espana_U;0;0;0;165;0;0
Renfe05731;Renfe_Espana_U;0;0;0;165;0;0
Renfe05732;Renfe_Espana_U;0;0;0;165;0;0
Renfe05733;Renfe_Espana_U;0;0;0;165;0;0
Renfe05734;Renfe_Espana_U;0;0;0;165;0;0
Renfe05735;Renfe_Espana_U;0;0;0;165;0;0
Renfe05736;Renfe_Espana_U;0;0;0;165;0;0
Renfe05737;Renfe_Espana_U;0;0;0;165;0;0
Renfe05738;Renfe_Espana_U;0;0;0;165;0;0
Renfe05739;Renfe_Espana_U;0;0;0;165;0;0
Renfe05740;Renfe_Espana_U;0;0;0;165;0;0
Renfe05741;Renfe_Espana_U;0;0;0;165;0;0
Renfe05742;Renfe_Espana_U;0;0;0;165;0;0
Renfe05743;Renfe_Espana_U;0;0;0;165;0;0
Renfe05744;Renfe_Espana_U;0;0;0;165;0;0
Renfe05747;Renfe_Espana_U;0;0;0;165;0;0
Renfe05748;Renfe_Espana_U;0;0;0;165;0;0
Renfe05749;Renfe_Espana_U;0;0;0;165;0;0
Renfe05750;Renfe_Espana_U;0;0;0;165;0;0
Renfe05751;Renfe_Espana_U;0;0;0;165;0;0
Renfe05752;Renfe_Espana_U;0;0;0;165;0;0
Renfe05753;Renfe_Espana_U;0;0;0;165;0;0
Renfe05754;Renfe_Espana_U;0;0;0;165;0;0
Renfe05755;Renfe_Espana_U;0;0;0;165;0;0
Renfe05756;Renfe_Espana_U;0;0;0;165;0;0
Renfe05757;Renfe_Espana_U;0;0;0;165;0;0
Renfe05758;Renfe_Espana_U;0;0;0;165;0;0
Renfe05759;Renfe_Espana_U;0;0;0;165;0;0
Renfe05760;Renfe_Espana_U;0;0;0;165;0;0
Renfe05761;Renfe_Espana_U;0;0;0;165;0;0
Renfe05762;Renfe_Espana_U;0;0;0;165;0;0
Renfe05763;Renfe_Espana_U;0;0;0;165;0;0
Renfe05764;Renfe_Espana_U;0;0;0;165;0;0
Renfe05765;Renfe_Espana_U;0;0;0;165;0;0
Renfe05766;Renfe_Espana_U;0;0;0;165;0;0
Renfe05767;Renfe_Espana_U;0;0;0;165;0;0
Renfe05768;Renfe_Espana_U;0;0;0;165;0;0
Renfe05769;Renfe_Espana_U;0;0;0;165;0;0
Renfe05770;Renfe_Espana_U;0;0;0;165;0;0
Renfe05771;Renfe_Espana_U;0;0;0;165;0;0
Renfe05772;Renfe_Espana_U;0;0;0;165;0;0
Renfe05773;Renfe_Espana_U;0;0;0;165;0;0
Renfe05774;Renfe_Espana_U;0;0;0;165;0;0
Renfe05775;Renfe_Espana_U;0;0;0;165;0;0
Renfe05776;Renfe_Espana_U;0;0;0;165;0;0
Renfe05777;Renfe_Espana_U;0;0;0;165;0;0
Renfe05778;Renfe_Espana_U;0;0;0;165;0;0
Renfe05784;Renfe_Espana_U;0;0;0;165;0;0
Renfe05785;Renfe_Espana_U;0;0;0;165;0;0
Renfe05786;Renfe_Espana_U;0;0;0;165;0;0
Renfe05787;Renfe_Espana_U;0;0;0;165;0;0
Renfe05788;Renfe_Espana_U;0;0;0;165;0;0
Renfe05789;Renfe_Espana_U;0;0;0;165;0;0
Renfe05790;Renfe_Espana_U;0;0;0;165;0;0
Renfe05793;Renfe_Espana_U;0;0;0;165;0;0
Renfe05794;Renfe_Espana_U;0;0;0;165;0;0
Renfe05795;Renfe_Espana_U;0;0;0;165;0;0
Renfe05796;Renfe_Espana_U;0;0;0;165;0;0
Renfe05797;Renfe_Espana_U;0;0;0;165;0;0
Renfe05798;Renfe_Espana_U;0;0;0;165;0;0
Renfe05799;Renfe_Espana_U;0;0;0;165;0;0
Renfe05801;Renfe_Espana_U;0;0;0;165;0;0
Renfe05803;Renfe_Espana_U;0;0;0;165;0;0
Renfe05805;Renfe_Espana_U;0;0;0;165;0;0
Renfe05807;Renfe_Espana_U;0;0;0;165;0;0
Renfe05951;Renfe_Espana_U;0;0;0;165;0;0
Renfe05952;Renfe_Espana_U;0;0;0;165;0;0
Renfe05953;Renfe_Espana_U;0;0;0;165;0;0
Renfe05955;Renfe_Espana_U;0;0;0;165;0;0
Renfe05957;Renfe_Espana_U;0;0;0;165;0;0
Renfe05959;Renfe_Espana_U;0;0;0;165;0;0
Renfe05961;Renfe_Espana_U;0;0;0;165;0;0
Renfe05963;Renfe_Espana_U;0;0;0;165;0;0
Renfe05965;Renfe_Espana_U;0;0;0;165;0;0
Renfe05967;Renfe_Espana_U;0;0;0;165;0;0
Renfe05969;Renfe_Espana_U;0;0;0;165;0;0
Renfe05971;Renfe_Espana_U;0;0;0;165;0;0
Renfe05973;Renfe_Espana_U;0;0;0;165;0;0
Renfe05975;Renfe_Espana_U;0;0;0;165;0;0
Renfe05977;Renfe_Espana_U;0;0;0;165;0;0
Renfe06001;Renfe_Espana_U;0;0;0;165;0;0
Renfe06002;Renfe_Espana_U;0;0;0;165;0;0
Renfe06003;Renfe_Espana_U;0;0;0;165;0;0
Renfe06004;Renfe_Espana_U;0;0;0;165;0;0
Renfe06005;Renfe_Espana_U;0;0;0;165;0;0
Renfe06006;Renfe_Espana_U;0;0;0;165;0;0
Renfe06007;Renfe_Espana_U;0;0;0;165;0;0
Renfe06008;Renfe_Espana_U;0;0;0;165;0;0
Renfe06100;Renfe_Espana_U;0;0;0;165;0;0
Renfe07001;Renfe_Espana_U;0;0;0;165;0;0
Renfe07003;Renfe_Espana_U;0;0;0;165;0;0
Renfe07004;Renfe_Espana_U;0;0;0;165;0;0
Renfe07005;Renfe_Espana_U;0;0;0;165;0;0
Renfe07007;Renfe_Espana_U;0;0;0;165;0;0
Renfe08004;Renfe_Espana_U;0;0;0;165;0;0
Renfe08223;Renfe_Espana_U;0;0;0;165;0;0
Renfe08224;Renfe_Espana_U;0;0;0;165;0;0
Renfe08240;Renfe_Espana_U;0;0;0;165;0;0
Renfe08247;Renfe_Espana_U;0;0;0;165;0;0
Renfe08251;Renfe_Espana_U;0;0;0;165;0;0
Renfe10000;Renfe_Espana_U;0;0;0;165;0;0
Renfe10001;Renfe_Espana_U;0;0;0;165;0;0
Renfe10002;Renfe_Espana_U;0;0;0;165;0;0
Renfe10005;Renfe_Espana_U;0;0;0;165;0;0
Renfe10007;Renfe_Espana_U;0;0;0;165;0;0
Renfe10010;Renfe_Espana_U;0;0;0;165;0;0
Renfe10100;Renfe_Espana_U;0;0;0;165;0;0
Renfe10101;Renfe_Espana_U;0;0;0;165;0;0
Renfe10103;Renfe_Espana_U;0;0;0;165;0;0
Renfe10104;Renfe_Espana_U;0;0;0;165;0;0
Renfe10200;Renfe_Espana_U;0;0;0;165;0;0
Renfe10201;Renfe_Espana_U;0;0;0;165;0;0
Renfe10202;Renfe_Espana_U;0;0;0;165;0;0
Renfe10203;Renfe_Espana_U;0;0;0;165;0;0
Renfe10204;Renfe_Espana_U;0;0;0;165;0;0
Renfe10205;Renfe_Espana_U;0;0;0;165;0;0
Renfe10206;Renfe_Espana_U;0;0;0;165;0;0
Renfe10207;Renfe_Espana_U;0;0;0;165;0;0
Renfe10208;Renfe_Espana_U;0;0;0;165;0;0
Renfe10209;Renfe_Espana_U;0;0;0;165;0;0
Renfe10300;Renfe_Espana_U;0;0;0;165;0;0
Renfe10301;Renfe_Espana_U;0;0;0;165;0;0
Renfe10302;Renfe_Espana_U;0;0;0;165;0;0
Renfe10400;Renfe_Espana_U;0;0;0;165;0;0
Renfe10401;Renfe_Espana_U;0;0;0;165;0;0
Renfe10403;Renfe_Espana_U;0;0;0;165;0;0
Renfe10404;Renfe_Espana_U;0;0;0;165;0;0
Renfe10405;Renfe_Espana_U;0;0;0;165;0;0
Renfe10406;Renfe_Espana_U;0;0;0;165;0;0
Renfe10407;Renfe_Espana_U;0;0;0;165;0;0
Renfe10408;Renfe_Espana_U;0;0;0;165;0;0
Renfe10409;Renfe_Espana_U;0;0;0;165;0;0
Renfe10410;Renfe_Espana_U;0;0;0;165;0;0
Renfe10411;Renfe_Espana_U;0;0;0;165;0;0
Renfe10412;Renfe_Espana_U;0;0;0;165;0;0
Renfe10500;Renfe_Espana_U;0;0;0;165;0;0
Renfe10501;Renfe_Espana_U;0;0;0;165;0;0
Renfe10502;Renfe_Espana_U;0;0;0;165;0;0
Renfe10503;Renfe_Espana_U;0;0;0;165;0;0
Renfe10504;Renfe_Espana_U;0;0;0;165;0;0
Renfe10505;Renfe_Espana_U;0;0;0;165;0;0
Renfe10600;Renfe_Espana_U;0;0;0;165;0;0
Renfe10602;Renfe_Espana_U;0;0;0;165;0;0
Renfe10603;Renfe_Espana_U;0;0;0;165;0;0
Renfe10604;Renfe_Espana_U;0;0;0;165;0;0
Renfe10605;Renfe_Espana_U;0;0;0;165;0;0
Renfe10610;Renfe_Espana_U;0;0;0;165;0;0
Renfe11000;Renfe_Espana_U;0;0;0;165;0;0
Renfe11004;Renfe_Espana_U;0;0;0;165;0;0
Renfe11005;Renfe_Espana_U;0;0;0;165;0;0
Renfe11006;Renfe_Espana_U;0;0;0;165;0;0
Renfe11007;Renfe_Espana_U;0;0;0;165;0;0
Renfe11008;Renfe_Espana_U;0;0;0;165;0;0
Renfe11009;Renfe_Espana_U;0;0;0;165;0;0
Renfe11010;Renfe_Espana_U;0;0;0;165;0;0
Renfe11011;Renfe_Espana_U;0;0;0;165;0;0
Renfe11012;Renfe_Espana_U;0;0;0;165;0;0
Renfe11014;Renfe_Espana_U;0;0;0;165;0;0
Renfe11100;Renfe_Espana_U;0;0;0;165;0;0
Renfe11102;Renfe_Espana_U;0;0;0;165;0;0
Renfe11103;Renfe_Espana_U;0;0;0;165;0;0
Renfe11104;Renfe_Espana_U;0;0;0;165;0;0
Renfe11106;Renfe_Espana_U;0;0;0;165;0;0
Renfe11109;Renfe_Espana_U;0;0;0;165;0;0
Renfe11110;Renfe_Espana_U;0;0;0;165;0;0
Renfe11111;Renfe_Espana_U;0;0;0;165;0;0
Renfe11112;Renfe_Espana_U;0;0;0;165;0;0
Renfe11200;Renfe_Espana_U;0;0;0;165;0;0
Renfe11203;Renfe_Espana_U;0;0;0;165;0;0
Renfe11204;Renfe_Espana_U;0;0;0;165;0;0
Renfe11205;Renfe_Espana_U;0;0;0;165;0;0
Renfe11206;Renfe_Espana_U;0;0;0;165;0;0
Renfe11208;Renfe_Espana_U;0;0;0;165;0;0
Renfe11209;Renfe_Espana_U;0;0;0;165;0;0
Renfe11210;Renfe_Espana_U;0;0;0;165;0;0
Renfe11211;Renfe_Espana_U;0;0;0;165;0;0
Renfe11212;Renfe_Espana_U;0;0;0;165;0;0
Renfe11213;Renfe_Espana_U;0;0;0;165;0;0
Renfe11214;Renfe_Espana_U;0;0;0;165;0;0
Renfe11215;Renfe_Espana_U;0;0;0;165;0;0
Renfe11216;Renfe_Espana_U;0;0;0;165;0;0
Renfe11300;Renfe_Espana_U;0;0;0;165;0;0
Renfe11303;Renfe_Espana_U;0;0;0;165;0;0
Renfe11304;Renfe_Espana_U;0;0;0;165;0;0
Renfe11305;Renfe_Espana_U;0;0;0;165;0;0
Renfe11306;Renfe_Espana_U;0;0;0;165;0;0
Renfe11400;Renfe_Espana_U;0;0;0;165;0;0
Renfe11402;Renfe_Espana_U;0;0;0;165;0;0
Renfe11404;Renfe_Espana_U;0;0;0;165;0;0
Renfe11405;Renfe_Espana_U;0;0;0;165;0;0
Renfe11406;Renfe_Espana_U;0;0;0;165;0;0
Renfe11407;Renfe_Espana_U;0;0;0;165;0;0
Renfe11408;Renfe_Espana_U;0;0;0;165;0;0
Renfe11409;Renfe_Espana_U;0;0;0;165;0;0
Renfe11500;Renfe_Espana_U;0;0;0;165;0;0
Renfe11501;Renfe_Espana_U;0;0;0;165;0;0
Renfe11502;Renfe_Espana_U;0;0;0;165;0;0
Renfe11503;Renfe_Espana_U;0;0;0;165;0;0
Renfe11504;Renfe_Espana_U;0;0;0;165;0;0
Renfe11505;Renfe_Espana_U;0;0;0;165;0;0
Renfe11506;Renfe_Espana_U;0;0;0;165;0;0
Renfe11507;Renfe_Espana_U;0;0;0;165;0;0
Renfe11508;Renfe_Espana_U;0;0;0;165;0;0
Renfe11509;Renfe_Espana_U;0;0;0;165;0;0
Renfe11510;Renfe_Espana_U;0;0;0;165;0;0
Renfe11511;Renfe_Espana_U;0;0;0;165;0;0
Renfe11512;Renfe_Espana_U;0;0;0;165;0;0
Renfe11513;Renfe_Espana_U;0;0;0;165;0;0
Renfe11514;Renfe_Espana_U;0;0;0;165;0;0
Renfe11515;Renfe_Espana_U;0;0;0;165;0;0
Renfe11516;Renfe_Espana_U;0;0;0;165;0;0
Renfe11518;Renfe_Espana_U;0;0;0;165;0;0
Renfe11522;Renfe_Espana_U;0;0;0;165;0;0
Renfe11600;Renfe_Espana_U;0;0;0;165;0;0
Renfe12001;Renfe_Espana_U;0;0;0;165;0;0
Renfe12002;Renfe_Espana_U;0;0;0;165;0;0
Renfe12004;Renfe_Espana_U;0;0;0;165;0;0
Renfe12005;Renfe_Espana_U;0;0;0;165;0;0
Renfe12006;Renfe_Espana_U;0;0;0;165;0;0
Renfe12007;Renfe_Espana_U;0;0;0;165;0;0
Renfe12008;Renfe_Espana_U;0;0;0;165;0;0
Renfe12009;Renfe_Espana_U;0;0;0;165;0;0
Renfe12010;Renfe_Espana_U;0;0;0;165;0;0
Renfe12011;Renfe_Espana_U;0;0;0;165;0;0
Renfe12012;Renfe_Espana_U;0;0;0;165;0;0
Renfe12013;Renfe_Espana_U;0;0;0;165;0;0
Renfe12014;Renfe_Espana_U;0;0;0;165;0;0
Renfe12020;Renfe_Espana_U;0;0;0;165;0;0
Renfe12023;Renfe_Espana_U;0;0;0;165;0;0
Renfe12100;Renfe_Espana_U;0;0;0;165;0;0
Renfe13001;Renfe_Espana_U;0;0;0;165;0;0
Renfe13002;Renfe_Espana_U;0;0;0;165;0;0
Renfe13003;Renfe_Espana_U;0;0;0;165;0;0
Renfe13004;Renfe_Espana_U;0;0;0;165;0;0
Renfe13005;Renfe_Espana_U;0;0;0;165;0;0
Renfe13006;Renfe_Espana_U;0;0;0;165;0;0
Renfe13100;Renfe_Espana_U;0;0;0;165;0;0
Renfe13101;Renfe_Espana_U;0;0;0;165;0;0
Renfe13102;Renfe_Espana_U;0;0;0;165;0;0
Renfe13103;Renfe_Espana_U;0;0;0;165;0;0
Renfe13104;Renfe_Espana_U;0;0;0;165;0;0
Renfe13106;Renfe_Espana_U;0;0;0;165;0;0
Renfe13107;Renfe_Espana_U;0;0;0;165;0;0
Renfe13108;Renfe_Espana_U;0;0;0;165;0;0
Renfe13109;Renfe_Espana_U;0;0;0;165;0;0
Renfe13110;Renfe_Espana_U;0;0;0;165;0;0
Renfe13111;Renfe_Espana_U;0;0;0;165;0;0
Renfe13112;Renfe_Espana_U;0;0;0;165;0;0
Renfe13113;Renfe_Espana_U;0;0;0;165;0;0
Renfe13114;Renfe_Espana_U;0;0;0;165;0;0
Renfe13115;Renfe_Espana_U;0;0;0;165;0;0
Renfe13116;Renfe_Espana_U;0;0;0;165;0;0
Renfe13117;Renfe_Espana_U;0;0;0;165;0;0
Renfe13118;Renfe_Espana_U;0;0;0;165;0;0
Renfe13119;Renfe_Espana_U;0;0;0;165;0;0
Renfe13120;Renfe_Espana_U;0;0;0;165;0;0
Renfe13121;Renfe_Espana_U;0;0;0;165;0;0
Renfe13200;Renfe_Espana_U;0;0;0;165;0;0
Renfe13205;Renfe_Espana_U;0;0;0;165;0;0
Renfe13206;Renfe_Espana_U;0;0;0;165;0;0
Renfe13207;Renfe_Espana_U;0;0;0;165;0;0
Renfe13208;Renfe_Espana_U;0;0;0;165;0;0
Renfe13303;Renfe_Espana_U;0;0;0;165;0;0
Renfe13304;Renfe_Espana_U;0;0;0;165;0;0
Renfe13305;Renfe_Espana_U;0;0;0;165;0;0
Renfe13400;Renfe_Espana_U;0;0;0;165;0;0
Renfe13401;Renfe_Espana_U;0;0;0;165;0;0
Renfe13402;Renfe_Espana_U;0;0;0;165;0;0
Renfe13403;Renfe_Espana_U;0;0;0;165;0;0
Renfe13404;Renfe_Espana_U;0;0;0;165;0;0
Renfe13405;Renfe_Espana_U;0;0;0;165;0;0
Renfe13501;Renfe_Espana_U;0;0;0;165;0;0
Renfe13502;Renfe_Espana_U;0;0;0;165;0;0
Renfe13503;Renfe_Espana_U;0;0;0;165;0;0
Renfe13504;Renfe_Espana_U;0;0;0;165;0;0
Renfe13505;Renfe_Espana_U;0;0;0;165;0;0
Renfe13506;Renfe_Espana_U;0;0;0;165;0;0
Renfe13507;Renfe_Espana_U;0;0;0;165;0;0
Renfe13508;Renfe_Espana_U;0;0;0;165;0;0
Renfe13509;Renfe_Espana_U;0;0;0;165;0;0
Renfe14100;Renfe_Espana_U;0;0;0;165;0;0
Renfe14101;Renfe_Espana_U;0;0;0;165;0;0
Renfe14102;Renfe_Espana_U;0;0;0;165;0;0
Renfe14103;Renfe_Espana_U;0;0;0;165;0;0
Renfe14104;Renfe_Espana_U;0;0;0;165;0;0
Renfe14105;Renfe_Espana_U;0;0;0;165;0;0
Renfe14106;Renfe_Espana_U;0;0;0;165;0;0
Renfe14107;Renfe_Espana_U;0;0;0;165;0;0
Renfe14108;Renfe_Espana_U;0;0;0;165;0;0
Renfe14109;Renfe_Espana_U;0;0;0;165;0;0
Renfe14110;Renfe_Espana_U;0;0;0;165;0;0
Renfe14111;Renfe_Espana_U;0;0;0;165;0;0
Renfe14112;Renfe_Espana_U;0;0;0;165;0;0
Renfe14113;Renfe_Espana_U;0;0;0;165;0;0
Renfe14114;Renfe_Espana_U;0;0;0;165;0;0
Renfe14115;Renfe_Espana_U;0;0;0;165;0;0
Renfe14116;Renfe_Espana_U;0;0;0;165;0;0
Renfe14117;Renfe_Espana_U;0;0;0;165;0;0
Renfe14200;Renfe_Espana_U;0;0;0;165;0;0
Renfe14201;Renfe_Espana_U;0;0;0;165;0;0
Renfe14202;Renfe_Espana_U;0;0;0;165;0;0
Renfe14203;Renfe_Espana_U;0;0;0;165;0;0
Renfe14204;Renfe_Espana_U;0;0;0;165;0;0
Renfe14205;Renfe_Espana_U;0;0;0;165;0;0
Renfe14206;Renfe_Espana_U;0;0;0;165;0;0
Renfe14207;Renfe_Espana_U;0;0;0;165;0;0
Renfe14208;Renfe_Espana_U;0;0;0;165;0;0
Renfe14209;Renfe_Espana_U;0;0;0;165;0;0
Renfe14210;Renfe_Espana_U;0;0;0;165;0;0
Renfe14211;Renfe_Espana_U;0;0;0;165;0;0
Renfe14212;Renfe_Espana_U;0;0;0;165;0;0
Renfe14213;Renfe_Espana_U;0;0;0;165;0;0
Renfe14214;Renfe_Espana_U;0;0;0;165;0;0
Renfe14215;Renfe_Espana_U;0;0;0;165;0;0
Renfe14216;Renfe_Espana_U;0;0;0;165;0;0
Renfe14217;Renfe_Espana_U;0;0;0;165;0;0
Renfe14218;Renfe_Espana_U;0;0;0;165;0;0
Renfe14219;Renfe_Espana_U;0;0;0;165;0;0
Renfe14220;Renfe_Espana_U;0;0;0;165;0;0
Renfe14221;Renfe_Espana_U;0;0;0;165;0;0
Renfe14223;Renfe_Espana_U;0;0;0;165;0;0
Renfe14229;Renfe_Espana_U;0;0;0;165;0;0
Renfe14230;Renfe_Espana_U;0;0;0;165;0;0
Renfe14231;Renfe_Espana_U;0;0;0;165;0;0
Renfe14232;Renfe_Espana_U;0;0;0;165;0;0
Renfe14233;Renfe_Espana_U;0;0;0;165;0;0
Renfe14234;Renfe_Espana_U;0;0;0;165;0;0
Renfe14235;Renfe_Espana_U;0;0;0;165;0;0
Renfe14236;Renfe_Espana_U;0;0;0;165;0;0
Renfe14237;Renfe_Espana_U;0;0;0;165;0;0
Renfe15001;Renfe_Espana_U;0;0;0;165;0;0
Renfe15002;Renfe_Espana_U;0;0;0;165;0;0
Renfe15003;Renfe_Espana_U;0;0;0;165;0;0
Renfe15004;Renfe_Espana_U;0;0;0;165;0;0
Renfe15005;Renfe_Espana_U;0;0;0;165;0;0
Renfe15006;Renfe_Espana_U;0;0;0;165;0;0
Renfe15007;Renfe_Espana_U;0;0;0;165;0;0
Renfe15008;Renfe_Espana_U;0;0;0;165;0;0
Renfe15009;Renfe_Espana_U;0;0;0;165;0;0
Renfe15010;Renfe_Espana_U;0;0;0;165;0;0
Renfe15011;Renfe_Espana_U;0;0;0;165;0;0
Renfe15012;Renfe_Espana_U;0;0;0;165;0;0
Renfe15013;Renfe_Espana_U;0;0;0;165;0;0
Renfe15014;Renfe_Espana_U;0;0;0;165;0;0
Renfe15015;Renfe_Espana_U;0;0;0;165;0;0
Renfe15016;Renfe_Espana_U;0;0;0;165;0;0
Renfe15017;Renfe_Espana_U;0;0;0;165;0;0
Renfe15100;Renfe_Espana_U;0;0;0;165;0;0
Renfe15103;Renfe_Espana_U;0;0;0;165;0;0
Renfe15104;Renfe_Espana_U;0;0;0;165;0;0
Renfe15105;Renfe_Espana_U;0;0;0;165;0;0
Renfe15106;Renfe_Espana_U;0;0;0;165;0;0
Renfe15107;Renfe_Espana_U;0;0;0;165;0;0
Renfe15108;Renfe_Espana_U;0;0;0;165;0;0
Renfe15109;Renfe_Espana_U;0;0;0;165;0;0
Renfe15110;Renfe_Espana_U;0;0;0;165;0;0
Renfe15111;Renfe_Espana_U;0;0;0;165;0;0
Renfe15112;Renfe_Espana_U;0;0;0;165;0;0
Renfe15113;Renfe_Espana_U;0;0;0;165;0;0
Renfe15114;Renfe_Espana_U;0;0;0;165;0;0
Renfe15115;Renfe_Espana_U;0;0;0;165;0;0
Renfe15116;Renfe_Espana_U;0;0;0;165;0;0
Renfe15117;Renfe_Espana_U;0;0;0;165;0;0
Renfe15118;Renfe_Espana_U;0;0;0;165;0;0
Renfe15119;Renfe_Espana_U;0;0;0;165;0;0
Renfe15120;Renfe_Espana_U;0;0;0;165;0;0
Renfe15121;Renfe_Espana_U;0;0;0;165;0;0
Renfe15122;Renfe_Espana_U;0;0;0;165;0;0
Renfe15123;Renfe_Espana_U;0;0;0;165;0;0
Renfe15200;Renfe_Espana_U;0;0;0;165;0;0
Renfe15202;Renfe_Espana_U;0;0;0;165;0;0
Renfe15203;Renfe_Espana_U;0;0;0;165;0;0
Renfe15204;Renfe_Espana_U;0;0;0;165;0;0
Renfe15205;Renfe_Espana_U;0;0;0;165;0;0
Renfe15206;Renfe_Espana_U;0;0;0;165;0;0
Renfe15207;Renfe_Espana_U;0;0;0;165;0;0
Renfe15208;Renfe_Espana_U;0;0;0;165;0;0
Renfe15209;Renfe_Espana_U;0;0;0;165;0;0
Renfe15210;Renfe_Espana_U;0;0;0;165;0;0
Renfe15211;Renfe_Espana_U;0;0;0;165;0;0
Renfe15212;Renfe_Espana_U;0;0;0;165;0;0
Renfe15217;Renfe_Espana_U;0;0;0;165;0;0
Renfe15218;Renfe_Espana_U;0;0;0;165;0;0
Renfe15300;Renfe_Espana_U;0;0;0;165;0;0
Renfe15301;Renfe_Espana_U;0;0;0;165;0;0
Renfe15302;Renfe_Espana_U;0;0;0;165;0;0
Renfe15303;Renfe_Espana_U;0;0;0;165;0;0
Renfe15305;Renfe_Espana_U;0;0;0;165;0;0
Renfe15400;Renfe_Espana_U;0;0;0;165;0;0
Renfe15401;Renfe_Espana_U;0;0;0;165;0;0
Renfe15402;Renfe_Espana_U;0;0;0;165;0;0
Renfe15403;Renfe_Espana_U;0;0;0;165;0;0
Renfe15410;Renfe_Espana_U;0;0;0;165;0;0
Renfe16001;Renfe_Espana_U;0;0;0;165;0;0
Renfe16002;Renfe_Espana_U;0;0;0;165;0;0
Renfe16005;Renfe_Espana_U;0;0;0;165;0;0
Renfe16006;Renfe_Espana_U;0;0;0;165;0;0
Renfe16008;Renfe_Espana_U;0;0;0;165;0;0
Renfe16009;Renfe_Espana_U;0;0;0;165;0;0
Renfe16010;Renfe_Espana_U;0;0;0;165;0;0
Renfe16011;Renfe_Espana_U;0;0;0;165;0;0
Renfe16301;Renfe_Espana_U;0;0;0;165;0;0
Renfe16302;Renfe_Espana_U;0;0;0;165;0;0
Renfe16400;Renfe_Espana_U;0;0;0;165;0;0
Renfe16401;Renfe_Espana_U;0;0;0;165;0;0
Renfe16402;Renfe_Espana_U;0;0;0;165;0;0
Renfe16403;Renfe_Espana_U;0;0;0;165;0;0
Renfe16405;Renfe_Espana_U;0;0;0;165;0;0
Renfe16406;Renfe_Espana_U;0;0;0;165;0;0
Renfe16408;Renfe_Espana_U;0;0;0;165;0;0
Renfe16604;Renfe_Espana_U;0;0;0;165;0;0
Renfe17000;Renfe_Espana_U;0;0;0;165;0;0
Renfe17001;Renfe_Espana_U;0;0;0;165;0;0
Renfe17002;Renfe_Espana_U;0;0;0;165;0;0
Renfe17003;Renfe_Espana_U;0;0;0;165;0;0
Renfe17004;Renfe_Espana_U;0;0;0;165;0;0
Renfe17005;Renfe_Espana_U;0;0;0;165;0;0
Renfe17006;Renfe_Espana_U;0;0;0;165;0;0
Renfe17007;Renfe_Espana_U;0;0;0;165;0;0
Renfe17008;Renfe_Espana_U;0;0;0;165;0;0
Renfe17009;Renfe_Espana_U;0;0;0;165;0;0
Renfe17010;Renfe_Espana_U;0;0;0;165;0;0
Renfe17100;Renfe_Espana_U;0;0;0;165;0;0
Renfe17102;Renfe_Espana_U;0;0;0;165;0;0
Renfe17103;Renfe_Espana_U;0;0;0;165;0;0
Renfe17105;Renfe_Espana_U;0;0;0;165;0;0
Renfe17106;Renfe_Espana_U;0;0;0;165;0;0
Renfe17107;Renfe_Espana_U;0;0;0;165;0;0
Renfe17108;Renfe_Espana_U;0;0;0;165;0;0
Renfe17109;Renfe_Espana_U;0;0;0;165;0;0
Renfe17110;Renfe_Espana_U;0;0;0;165;0;0
Renfe17111;Renfe_Espana_U;0;0;0;165;0;0
Renfe17112;Renfe_Espana_U;0;0;0;165;0;0
Renfe17113;Renfe_Espana_U;0;0;0;165;0;0
Renfe17114;Renfe_Espana_U;0;0;0;165;0;0
Renfe17115;Renfe_Espana_U;0;0;0;165;0;0
Renfe17116;Renfe_Espana_U;0;0;0;165;0;0
Renfe17117;Renfe_Espana_U;0;0;0;165;0;0
Renfe17200;Renfe_Espana_U;0;0;0;165;0;0
Renfe17201;Renfe_Espana_U;0;0;0;165;0;0
Renfe17204;Renfe_Espana_U;0;0;0;165;0;0
Renfe17205;Renfe_Espana_U;0;0;0;165;0;0
Renfe17206;Renfe_Espana_U;0;0;0;165;0;0
Renfe17208;Renfe_Espana_U;0;0;0;165;0;0
Renfe18000;Renfe_Espana_U;0;0;0;165;0;0
Renfe18001;Renfe_Espana_U;0;0;0;165;0;0
Renfe18002;Renfe_Espana_U;0;0;0;165;0;0
Renfe18003;Renfe_Espana_U;0;0;0;165;0;0
Renfe18004;Renfe_Espana_U;0;0;0;165;0;0
Renfe18005;Renfe_Espana_U;0;0;0;165;0;0
Renfe18101;Renfe_Espana_U;0;0;0;165;0;0
Renfe19001;Renfe_Espana_U;0;0;0;165;0;0
Renfe19002;Renfe_Espana_U;0;0;0;165;0;0
Renfe19003;Renfe_Espana_U;0;0;0;165;0;0
Renfe20002;Renfe_Espana_U;0;0;0;165;0;0
Renfe20003;Renfe_Espana_U;0;0;0;165;0;0
Renfe20004;Renfe_Espana_U;0;0;0;165;0;0
Renfe20005;Renfe_Espana_U;0;0;0;165;0;0
Renfe20006;Renfe_Espana_U;0;0;0;165;0;0
Renfe20007;Renfe_Espana_U;0;0;0;165;0;0
Renfe20008;Renfe_Espana_U;0;0;0;165;0;0
Renfe20100;Renfe_Espana_U;0;0;0;165;0;0
Renfe20101;Renfe_Espana_U;0;0;0;165;0;0
Renfe20102;Renfe_Espana_U;0;0;0;165;0;0
Renfe20103;Renfe_Espana_U;0;0;0;165;0;0
Renfe20104;Renfe_Espana_U;0;0;0;165;0;0
Renfe20105;Renfe_Espana_U;0;0;0;165;0;0
Renfe20106;Renfe_Espana_U;0;0;0;165;0;0
Renfe20108;Renfe_Espana_U;0;0;0;165;0;0
Renfe20109;Renfe_Espana_U;0;0;0;165;0;0
Renfe20111;Renfe_Espana_U;0;0;0;165;0;0
Renfe20112;Renfe_Espana_U;0;0;0;165;0;0
Renfe20113;Renfe_Espana_U;0;0;0;165;0;0
Renfe20200;Renfe_Espana_U;0;0;0;165;0;0
Renfe20201;Renfe_Espana_U;0;0;0;165;0;0
Renfe20202;Renfe_Espana_U;0;0;0;165;0;0
Renfe20203;Renfe_Espana_U;0;0;0;165;0;0
Renfe20204;Renfe_Espana_U;0;0;0;165;0;0
Renfe20206;Renfe_Espana_U;0;0;0;165;0;0
Renfe20207;Renfe_Espana_U;0;0;0;165;0;0
Renfe20208;Renfe_Espana_U;0;0;0;165;0;0
Renfe20209;Renfe_Espana_U;0;0;0;165;0;0
Renfe20210;Renfe_Espana_U;0;0;0;165;0;0
Renfe20211;Renfe_Espana_U;0;0;0;165;0;0
Renfe20212;Renfe_Espana_U;0;0;0;165;0;0
Renfe20213;Renfe_Espana_U;0;0;0;165;0;0
Renfe20214;Renfe_Espana_U;0;0;0;165;0;0
Renfe20215;Renfe_Espana_U;0;0;0;165;0;0
Renfe20216;Renfe_Espana_U;0;0;0;165;0;0
Renfe20217;Renfe_Espana_U;0;0;0;165;0;0
Renfe20218;Renfe_Espana_U;0;0;0;165;0;0
Renfe20300;Renfe_Espana_U;0;0;0;165;0;0
Renfe20302;Renfe_Espana_U;0;0;0;165;0;0
Renfe20303;Renfe_Espana_U;0;0;0;165;0;0
Renfe20304;Renfe_Espana_U;0;0;0;165;0;0
Renfe20305;Renfe_Espana_U;0;0;0;165;0;0
Renfe20306;Renfe_Espana_U;0;0;0;165;0;0
Renfe20307;Renfe_Espana_U;0;0;0;165;0;0
Renfe20308;Renfe_Espana_U;0;0;0;165;0;0
Renfe20309;Renfe_Espana_U;0;0;0;165;0;0
Renfe20310;Renfe_Espana_U;0;0;0;165;0;0
Renfe20311;Renfe_Espana_U;0;0;0;165;0;0
Renfe20312;Renfe_Espana_U;0;0;0;165;0;0
Renfe20313;Renfe_Espana_U;0;0;0;165;0;0
Renfe20314;Renfe_Espana_U;0;0;0;165;0;0
Renfe20315;Renfe_Espana_U;0;0;0;165;0;0
Renfe20316;Renfe_Espana_U;0;0;0;165;0;0
Renfe20317;Renfe_Espana_U;0;0;0;165;0;0
Renfe20318;Renfe_Espana_U;0;0;0;165;0;0
Renfe20319;Renfe_Espana_U;0;0;0;165;0;0
Renfe20320;Renfe_Espana_U;0;0;0;165;0;0
Renfe20400;Renfe_Espana_U;0;0;0;165;0;0
Renfe20401;Renfe_Espana_U;0;0;0;165;0;0
Renfe20402;Renfe_Espana_U;0;0;0;165;0;0
Renfe20403;Renfe_Espana_U;0;0;0;165;0;0
Renfe20404;Renfe_Espana_U;0;0;0;165;0;0
Renfe20405;Renfe_Espana_U;0;0;0;165;0;0
Renfe20410;Renfe_Espana_U;0;0;0;165;0;0
Renfe21001;Renfe_Espana_U;0;0;0;165;0;0
Renfe21002;Renfe_Espana_U;0;0;0;165;0;0
Renfe21003;Renfe_Espana_U;0;0;0;165;0;0
Renfe21004;Renfe_Espana_U;0;0;0;165;0;0
Renfe21005;Renfe_Espana_U;0;0;0;165;0;0
Renfe21006;Renfe_Espana_U;0;0;0;165;0;0
Renfe21007;Renfe_Espana_U;0;0;0;165;0;0
Renfe21008;Renfe_Espana_U;0;0;0;165;0;0
Renfe21009;Renfe_Espana_U;0;0;0;165;0;0
Renfe21010;Renfe_Espana_U;0;0;0;165;0;0
Renfe21913;Renfe_Espana_U;0;0;0;165;0;0
Renfe22001;Renfe_Espana_U;0;0;0;165;0;0
Renfe22002;Renfe_Espana_U;0;0;0;165;0;0
Renfe22003;Renfe_Espana_U;0;0;0;165;0;0
Renfe22004;Renfe_Espana_U;0;0;0;165;0;0
Renfe22005;Renfe_Espana_U;0;0;0;165;0;0
Renfe22006;Renfe_Espana_U;0;0;0;165;0;0
Renfe22100;Renfe_Espana_U;0;0;0;165;0;0
Renfe22101;Renfe_Espana_U;0;0;0;165;0;0
Renfe22102;Renfe_Espana_U;0;0;0;165;0;0
Renfe22103;Renfe_Espana_U;0;0;0;165;0;0
Renfe22104;Renfe_Espana_U;0;0;0;165;0;0
Renfe22105;Renfe_Espana_U;0;0;0;165;0;0
Renfe22106;Renfe_Espana_U;0;0;0;165;0;0
Renfe22107;Renfe_Espana_U;0;0;0;165;0;0
Renfe22108;Renfe_Espana_U;0;0;0;165;0;0
Renfe22109;Renfe_Espana_U;0;0;0;165;0;0
Renfe22110;Renfe_Espana_U;0;0;0;165;0;0
Renfe22200;Renfe_Espana_U;0;0;0;165;0;0
Renfe22201;Renfe_Espana_U;0;0;0;165;0;0
Renfe22202;Renfe_Espana_U;0;0;0;165;0;0
Renfe22300;Renfe_Espana_U;0;0;0;165;0;0
Renfe22302;Renfe_Espana_U;0;0;0;165;0;0
Renfe22303;Renfe_Espana_U;0;0;0;165;0;0
Renfe22308;Renfe_Espana_U;0;0;0;165;0;0
Renfe22401;Renfe_Espana_U;0;0;0;165;0;0
Renfe23000;Renfe_Espana_U;0;0;0;165;0;0
Renfe23001;Renfe_Espana_U;0;0;0;165;0;0
Renfe23002;Renfe_Espana_U;0;0;0;165;0;0
Renfe23003;Renfe_Espana_U;0;0;0;165;0;0
Renfe23004;Renfe_Espana_U;0;0;0;165;0;0
Renfe23005;Renfe_Espana_U;0;0;0;165;0;0
Renfe23006;Renfe_Espana_U;0;0;0;165;0;0
Renfe23007;Renfe_Espana_U;0;0;0;165;0;0
Renfe23008;Renfe_Espana_U;0;0;0;165;0;0
Renfe23009;Renfe_Espana_U;0;0;0;165;0;0
Renfe23010;Renfe_Espana_U;0;0;0;165;0;0
Renfe23011;Renfe_Espana_U;0;0;0;165;0;0
Renfe23012;Renfe_Espana_U;0;0;0;165;0;0
Renfe23013;Renfe_Espana_U;0;0;0;165;0;0
Renfe23014;Renfe_Espana_U;0;0;0;165;0;0
Renfe23017;Renfe_Espana_U;0;0;0;165;0;0
Renfe23018;Renfe_Espana_U;0;0;0;165;0;0
Renfe23021;Renfe_Espana_U;0;0;0;165;0;0
Renfe30000;Renfe_Espana_U;0;0;0;165;0;0
Renfe30002;Renfe_Espana_U;0;0;0;165;0;0
Renfe30100;Renfe_Espana_U;0;0;0;165;0;0
Renfe30110;Renfe_Espana_U;0;0;0;165;0;0
Renfe30200;Renfe_Espana_U;0;0;0;165;0;0
Renfe31002;Renfe_Espana_U;0;0;0;165;0;0
Renfe31003;Renfe_Espana_U;0;0;0;165;0;0
Renfe31004;Renfe_Espana_U;0;0;0;165;0;0
Renfe31006;Renfe_Espana_U;0;0;0;165;0;0
Renfe31007;Renfe_Espana_U;0;0;0;165;0;0
Renfe31008;Renfe_Espana_U;0;0;0;165;0;0
Renfe31009;Renfe_Espana_U;0;0;0;165;0;0
Renfe31102;Renfe_Espana_U;0;0;0;165;0;0
Renfe31104;Renfe_Espana_U;0;0;0;165;0;0
Renfe31105;Renfe_Espana_U;0;0;0;165;0;0
Renfe31106;Renfe_Espana_U;0;0;0;165;0;0
Renfe31107;Renfe_Espana_U;0;0;0;165;0;0
Renfe31108;Renfe_Espana_U;0;0;0;165;0;0
Renfe31109;Renfe_Espana_U;0;0;0;165;0;0
Renfe31110;Renfe_Espana_U;0;0;0;165;0;0
Renfe31111;Renfe_Espana_U;0;0;0;165;0;0
Renfe31112;Renfe_Espana_U;0;0;0;165;0;0
Renfe31113;Renfe_Espana_U;0;0;0;165;0;0
Renfe31200;Renfe_Espana_U;0;0;0;165;0;0
Renfe31201;Renfe_Espana_U;0;0;0;165;0;0
Renfe31202;Renfe_Espana_U;0;0;0;165;0;0
Renfe31203;Renfe_Espana_U;0;0;0;165;0;0
Renfe31204;Renfe_Espana_U;0;0;0;165;0;0
Renfe31205;Renfe_Espana_U;0;0;0;165;0;0
Renfe31206;Renfe_Espana_U;0;0;0;165;0;0
Renfe31207;Renfe_Espana_U;0;0;0;165;0;0
Renfe31208;Renfe_Espana_U;0;0;0;165;0;0
Renfe31209;Renfe_Espana_U;0;0;0;165;0;0
Renfe31210;Renfe_Espana_U;0;0;0;165;0;0
Renfe31211;Renfe_Espana_U;0;0;0;165;0;0
Renfe31212;Renfe_Espana_U;0;0;0;165;0;0
Renfe31213;Renfe_Espana_U;0;0;0;165;0;0
Renfe31214;Renfe_Espana_U;0;0;0;165;0;0
Renfe31215;Renfe_Espana_U;0;0;0;165;0;0
Renfe31301;Renfe_Espana_U;0;0;0;165;0;0
Renfe31302;Renfe_Espana_U;0;0;0;165;0;0
Renfe31303;Renfe_Espana_U;0;0;0;165;0;0
Renfe31304;Renfe_Espana_U;0;0;0;165;0;0
Renfe31305;Renfe_Espana_U;0;0;0;165;0;0
Renfe31306;Renfe_Espana_U;0;0;0;165;0;0
Renfe31307;Renfe_Espana_U;0;0;0;165;0;0
Renfe31308;Renfe_Espana_U;0;0;0;165;0;0
Renfe31309;Renfe_Espana_U;0;0;0;165;0;0
Renfe31310;Renfe_Espana_U;0;0;0;165;0;0
Renfe31311;Renfe_Espana_U;0;0;0;165;0;0
Renfe31312;Renfe_Espana_U;0;0;0;165;0;0
Renfe31313;Renfe_Espana_U;0;0;0;165;0;0
Renfe31400;Renfe_Espana_U;0;0;0;165;0;0
Renfe31401;Renfe_Espana_U;0;0;0;165;0;0
Renfe31402;Renfe_Espana_U;0;0;0;165;0;0
Renfe31404;Renfe_Espana_U;0;0;0;165;0;0
Renfe31406;Renfe_Espana_U;0;0;0;165;0;0
Renfe31407;Renfe_Espana_U;0;0;0;165;0;0
Renfe31408;Renfe_Espana_U;0;0;0;165;0;0
Renfe31409;Renfe_Espana_U;0;0;0;165;0;0
Renfe31410;Renfe_Espana_U;0;0;0;165;0;0
Renfe31411;Renfe_Espana_U;0;0;0;165;0;0
Renfe31412;Renfe_Espana_U;0;0;0;165;0;0
Renfe31415;Renfe_Espana_U;0;0;0;165;0;0
Renfe31416;Renfe_Espana_U;0;0;0;165;0;0
Renfe32001;Renfe_Espana_U;0;0;0;165;0;0
Renfe32002;Renfe_Espana_U;0;0;0;165;0;0
Renfe32003;Renfe_Espana_U;0;0;0;165;0;0
Renfe32004;Renfe_Espana_U;0;0;0;165;0;0
Renfe32005;Renfe_Espana_U;0;0;0;165;0;0
Renfe32006;Renfe_Espana_U;0;0;0;165;0;0
Renfe32007;Renfe_Espana_U;0;0;0;165;0;0
Renfe32008;Renfe_Espana_U;0;0;0;165;0;0
Renfe32009;Renfe_Espana_U;0;0;0;165;0;0
Renfe33001;Renfe_Espana_U;0;0;0;165;0;0
Renfe33003;Renfe_Espana_U;0;0;0;165;0;0
Renfe33004;Renfe_Espana_U;0;0;0;165;0;0
Renfe33006;Renfe_Espana_U;0;0;0;165;0;0
Renfe33007;Renfe_Espana_U;0;0;0;165;0;0
Renfe33008;Renfe_Espana_U;0;0;0;165;0;0
Renfe33009;Renfe_Espana_U;0;0;0;165;0;0
Renfe33010;Renfe_Espana_U;0;0;0;165;0;0
Renfe33011;Renfe_Espana_U;0;0;0;165;0;0
Renfe33012;Renfe_Espana_U;0;0;0;165;0;0
Renfe33013;Renfe_Espana_U;0;0;0;165;0;0
Renfe33014;Renfe_Espana_U;0;0;0;165;0;0
Renfe33015;Renfe_Espana_U;0;0;0;165;0;0
Renfe33016;Renfe_Espana_U;0;0;0;165;0;0
Renfe34002;Renfe_Espana_U;0;0;0;165;0;0
Renfe34003;Renfe_Espana_U;0;0;0;165;0;0
Renfe34004;Renfe_Espana_U;0;0;0;165;0;0
Renfe34005;Renfe_Espana_U;0;0;0;165;0;0
Renfe34007;Renfe_Espana_U;0;0;0;165;0;0
Renfe34008;Renfe_Espana_U;0;0;0;165;0;0
Renfe34010;Renfe_Espana_U;0;0;0;165;0;0
Renfe34011;Renfe_Espana_U;0;0;0;165;0;0
Renfe34012;Renfe_Espana_U;0;0;0;165;0;0
Renfe34013;Renfe_Espana_U;0;0;0;165;0;0
Renfe34014;Renfe_Espana_U;0;0;0;165;0;0
Renfe35001;Renfe_Espana_U;0;0;0;165;0;0
Renfe35002;Renfe_Espana_U;0;0;0;165;0;0
Renfe35003;Renfe_Espana_U;0;0;0;165;0;0
Renfe35004;Renfe_Espana_U;0;0;0;165;0;0
Renfe35005;Renfe_Espana_U;0;0;0;165;0;0
Renfe35009;Renfe_Espana_U;0;0;0;165;0;0
Renfe35010;Renfe_Espana_U;0;0;0;165;0;0
Renfe35011;Renfe_Espana_U;0;0;0;165;0;0
Renfe35012;Renfe_Espana_U;0;0;0;165;0;0
Renfe35100;Renfe_Espana_U;0;0;0;165;0;0
Renfe35102;Renfe_Espana_U;0;0;0;165;0;0
Renfe35103;Renfe_Espana_U;0;0;0;165;0;0
Renfe35105;Renfe_Espana_U;0;0;0;165;0;0
Renfe35107;Renfe_Espana_U;0;0;0;165;0;0
Renfe35108;Renfe_Espana_U;0;0;0;165;0;0
Renfe35109;Renfe_Espana_U;0;0;0;165;0;0
Renfe35200;Renfe_Espana_U;0;0;0;165;0;0
Renfe35201;Renfe_Espana_U;0;0;0;165;0;0
Renfe35203;Renfe_Espana_U;0;0;0;165;0;0
Renfe35206;Renfe_Espana_U;0;0;0;165;0;0
Renfe35207;Renfe_Espana_U;0;0;0;165;0;0
Renfe35209;Renfe_Espana_U;0;0;0;165;0;0
Renfe35301;Renfe_Espana_U;0;0;0;165;0;0
Renfe35302;Renfe_Espana_U;0;0;0;165;0;0
Renfe35303;Renfe_Espana_U;0;0;0;165;0;0
Renfe35304;Renfe_Espana_U;0;0;0;165;0;0
Renfe35305;Renfe_Espana_U;0;0;0;165;0;0
Renfe35400;Renfe_Espana_U;0;0;0;165;0;0
Renfe35402;Renfe_Espana_U;0;0;0;165;0;0
Renfe35404;Renfe_Espana_U;0;0;0;165;0;0
Renfe35405;Renfe_Espana_U;0;0;0;165;0;0
Renfe35406;Renfe_Espana_U;0;0;0;165;0;0
Renfe35600;Renfe_Espana_U;0;0;0;165;0;0
Renfe35601;Renfe_Espana_U;0;0;0;165;0;0
Renfe35602;Renfe_Espana_U;0;0;0;165;0;0
Renfe35603;Renfe_Espana_U;0;0;0;165;0;0
Renfe35604;Renfe_Espana_U;0;0;0;165;0;0
Renfe35605;Renfe_Espana_U;0;0;0;165;0;0
Renfe35606;Renfe_Espana_U;0;0;0;165;0;0
Renfe35607;Renfe_Espana_U;0;0;0;165;0;0
Renfe35608;Renfe_Espana_U;0;0;0;165;0;0
Renfe35609;Renfe_Espana_U;0;0;0;165;0;0
Renfe35610;Renfe_Espana_U;0;0;0;165;0;0
Renfe35701;Renfe_Espana_U;0;0;0;165;0;0
Renfe35702;Renfe_Espana_U;0;0;0;165;0;0
Renfe35703;Renfe_Espana_U;0;0;0;165;0;0
Renfe35704;Renfe_Espana_U;0;0;0;165;0;0
Renfe36002;Renfe_Espana_U;0;0;0;165;0;0
Renfe36003;Renfe_Espana_U;0;0;0;165;0;0
Renfe36004;Renfe_Espana_U;0;0;0;165;0;0
Renfe37001;Renfe_Espana_U;0;0;0;165;0;0
Renfe37002;Renfe_Espana_U;0;0;0;165;0;0
Renfe37006;Renfe_Espana_U;0;0;0;165;0;0
Renfe37008;Renfe_Espana_U;0;0;0;165;0;0
Renfe37009;Renfe_Espana_U;0;0;0;165;0;0
Renfe37010;Renfe_Espana_U;0;0;0;165;0;0
Renfe37011;Renfe_Espana_U;0;0;0;165;0;0
Renfe37012;Renfe_Espana_U;0;0;0;165;0;0
Renfe37100;Renfe_Espana_U;0;0;0;165;0;0
Renfe37101;Renfe_Espana_U;0;0;0;165;0;0
Renfe37104;Renfe_Espana_U;0;0;0;165;0;0
Renfe37106;Renfe_Espana_U;0;0;0;165;0;0
Renfe37107;Renfe_Espana_U;0;0;0;165;0;0
Renfe37108;Renfe_Espana_U;0;0;0;165;0;0
Renfe37110;Renfe_Espana_U;0;0;0;165;0;0
Renfe37200;Renfe_Espana_U;0;0;0;165;0;0
Renfe37202;Renfe_Espana_U;0;0;0;165;0;0
Renfe37300;Renfe_Espana_U;0;0;0;165;0;0
Renfe37301;Renfe_Espana_U;0;0;0;165;0;0
Renfe37302;Renfe_Espana_U;0;0;0;165;0;0
Renfe37303;Renfe_Espana_U;0;0;0;165;0;0
Renfe37305;Renfe_Espana_U;0;0;0;165;0;0
Renfe37306;Renfe_Espana_U;0;0;0;165;0;0
Renfe37307;Renfe_Espana_U;0;0;0;165;0;0
Renfe37308;Renfe_Espana_U;0;0;0;165;0;0
Renfe37309;Renfe_Espana_U;0;0;0;165;0;0
Renfe37311;Renfe_Espana_U;0;0;0;165;0;0
Renfe37400;Renfe_Espana_U;0;0;0;165;0;0
Renfe37402;Renfe_Espana_U;0;0;0;165;0;0
Renfe37404;Renfe_Espana_U;0;0;0;165;0;0
Renfe37405;Renfe_Espana_U;0;0;0;165;0;0
Renfe37406;Renfe_Espana_U;0;0;0;165;0;0
Renfe37407;Renfe_Espana_U;0;0;0;165;0;0
Renfe37408;Renfe_Espana_U;0;0;0;165;0;0
Renfe37409;Renfe_Espana_U;0;0;0;165;0;0
Renfe37410;Renfe_Espana_U;0;0;0;165;0;0
Renfe37411;Renfe_Espana_U;0;0;0;165;0;0
Renfe37412;Renfe_Espana_U;0;0;0;165;0;0
Renfe37413;Renfe_Espana_U;0;0;0;165;0;0
Renfe37500;Renfe_Espana_U;0;0;0;165;0;0
Renfe37600;Renfe_Espana_U;0;0;0;165;0;0
Renfe37601;Renfe_Espana_U;0;0;0;165;0;0
Renfe37602;Renfe_Espana_U;0;0;0;165;0;0
Renfe37603;Renfe_Espana_U;0;0;0;165;0;0
Renfe37604;Renfe_Espana_U;0;0;0;165;0;0
Renfe37605;Renfe_Espana_U;0;0;0;165;0;0
Renfe37606;Renfe_Espana_U;0;0;0;165;0;0
Renfe37608;Renfe_Espana_U;0;0;0;165;0;0
Renfe37611;Renfe_Espana_U;0;0;0;165;0;0
Renfe37704;Renfe_Espana_U;0;0;0;165;0;0
Renfe40002;Renfe_Espana_U;0;0;0;165;0;0
Renfe40003;Renfe_Espana_U;0;0;0;165;0;0
Renfe40004;Renfe_Espana_U;0;0;0;165;0;0
Renfe40005;Renfe_Espana_U;0;0;0;165;0;0
Renfe40006;Renfe_Espana_U;0;0;0;165;0;0
Renfe40008;Renfe_Espana_U;0;0;0;165;0;0
Renfe40100;Renfe_Espana_U;0;0;0;165;0;0
Renfe40101;Renfe_Espana_U;0;0;0;165;0;0
Renfe40103;Renfe_Espana_U;0;0;0;165;0;0
Renfe40105;Renfe_Espana_U;0;0;0;165;0;0
Renfe40107;Renfe_Espana_U;0;0;0;165;0;0
Renfe40108;Renfe_Espana_U;0;0;0;165;0;0
Renfe40110;Renfe_Espana_U;0;0;0;165;0;0
Renfe40111;Renfe_Espana_U;0;0;0;165;0;0
Renfe40113;Renfe_Espana_U;0;0;0;165;0;0
Renfe40114;Renfe_Espana_U;0;0;0;165;0;0
Renfe40115;Renfe_Espana_U;0;0;0;165;0;0
Renfe40118;Renfe_Espana_U;0;0;0;165;0;0
Renfe40119;Renfe_Espana_U;0;0;0;165;0;0
Renfe40121;Renfe_Espana_U;0;0;0;165;0;0
Renfe40122;Renfe_Espana_U;0;0;0;165;0;0
Renfe42002;Renfe_Espana_U;0;0;0;165;0;0
Renfe42003;Renfe_Espana_U;0;0;0;165;0;0
Renfe42005;Renfe_Espana_U;0;0;0;165;0;0
Renfe42006;Renfe_Espana_U;0;0;0;165;0;0
Renfe42007;Renfe_Espana_U;0;0;0;165;0;0
Renfe42008;Renfe_Espana_U;0;0;0;165;0;0
Renfe42009;Renfe_Espana_U;0;0;0;165;0;0
Renfe42010;Renfe_Espana_U;0;0;0;165;0;0
Renfe42012;Renfe_Espana_U;0;0;0;165;0;0
Renfe42013;Renfe_Espana_U;0;0;0;165;0;0
Renfe42015;Renfe_Espana_U;0;0;0;165;0;0
Renfe42016;Renfe_Espana_U;0;0;0;165;0;0
Renfe42018;Renfe_Espana_U;0;0;0;165;0;0
Renfe42019;Renfe_Espana_U;0;0;0;165;0;0
Renfe42020;Renfe_Espana_U;0;0;0;165;0;0
Renfe42021;Renfe_Espana_U;0;0;0;165;0;0
Renfe43000;Renfe_Espana_U;0;0;0;165;0;0
Renfe43001;Renfe_Espana_U;0;0;0;165;0;0
Renfe43002;Renfe_Espana_U;0;0;0;165;0;0
Renfe43003;Renfe_Espana_U;0;0;0;165;0;0
Renfe43004;Renfe_Espana_U;0;0;0;165;0;0
Renfe43005;Renfe_Espana_U;0;0;0;165;0;0
Renfe43006;Renfe_Espana_U;0;0;0;165;0;0
Renfe43007;Renfe_Espana_U;0;0;0;165;0;0
Renfe43008;Renfe_Espana_U;0;0;0;165;0;0
Renfe43009;Renfe_Espana_U;0;0;0;165;0;0
Renfe43011;Renfe_Espana_U;0;0;0;165;0;0
Renfe43012;Renfe_Espana_U;0;0;0;165;0;0
Renfe43013;Renfe_Espana_U;0;0;0;165;0;0
Renfe43015;Renfe_Espana_U;0;0;0;165;0;0
Renfe43016;Renfe_Espana_U;0;0;0;165;0;0
Renfe43018;Renfe_Espana_U;0;0;0;165;0;0
Renfe43019;Renfe_Espana_U;0;0;0;165;0;0
Renfe43021;Renfe_Espana_U;0;0;0;165;0;0
Renfe43023;Renfe_Espana_U;0;0;0;165;0;0
Renfe43024;Renfe_Espana_U;0;0;0;165;0;0
Renfe43026;Renfe_Espana_U;0;0;0;165;0;0
Renfe43027;Renfe_Espana_U;0;0;0;165;0;0
Renfe50001;Renfe_Espana_U;0;0;0;165;0;0
Renfe50002;Renfe_Espana_U;0;0;0;165;0;0
Renfe50003;Renfe_Espana_U;0;0;0;165;0;0
Renfe50100;Renfe_Espana_U;0;0;0;165;0;0
Renfe50101;Renfe_Espana_U;0;0;0;165;0;0
Renfe50102;Renfe_Espana_U;0;0;0;165;0;0
Renfe50200;Renfe_Espana_U;0;0;0;165;0;0
Renfe50201;Renfe_Espana_U;0;0;0;165;0;0
Renfe50202;Renfe_Espana_U;0;0;0;165;0;0
Renfe50203;Renfe_Espana_U;0;0;0;165;0;0
Renfe50204;Renfe_Espana_U;0;0;0;165;0;0
Renfe50205;Renfe_Espana_U;0;0;0;165;0;0
Renfe50206;Renfe_Espana_U;0;0;0;165;0;0
Renfe50207;Renfe_Espana_U;0;0;0;165;0;0
Renfe50208;Renfe_Espana_U;0;0;0;165;0;0
Renfe50209;Renfe_Espana_U;0;0;0;165;0;0
Renfe50300;Renfe_Espana_U;0;0;0;165;0;0
Renfe50301;Renfe_Espana_U;0;0;0;165;0;0
Renfe50302;Renfe_Espana_U;0;0;0;165;0;0
Renfe50303;Renfe_Espana_U;0;0;0;165;0;0
Renfe50400;Renfe_Espana_U;0;0;0;165;0;0
Renfe50402;Renfe_Espana_U;0;0;0;165;0;0
Renfe50403;Renfe_Espana_U;0;0;0;165;0;0
Renfe50404;Renfe_Espana_U;0;0;0;165;0;0
Renfe50405;Renfe_Espana_U;0;0;0;165;0;0
Renfe50406;Renfe_Espana_U;0;0;0;165;0;0
Renfe50407;Renfe_Espana_U;0;0;0;165;0;0
Renfe50408;Renfe_Espana_U;0;0;0;165;0;0
Renfe50409;Renfe_Espana_U;0;0;0;165;0;0
Renfe50410;Renfe_Espana_U;0;0;0;165;0;0
Renfe50411;Renfe_Espana_U;0;0;0;165;0;0
Renfe50412;Renfe_Espana_U;0;0;0;165;0;0
Renfe50413;Renfe_Espana_U;0;0;0;165;0;0
Renfe50417;Renfe_Espana_U;0;0;0;165;0;0
Renfe50500;Renfe_Espana_U;0;0;0;165;0;0
Renfe50501;Renfe_Espana_U;0;0;0;165;0;0
Renfe50502;Renfe_Espana_U;0;0;0;165;0;0
Renfe50503;Renfe_Espana_U;0;0;0;165;0;0
Renfe50504;Renfe_Espana_U;0;0;0;165;0;0
Renfe50505;Renfe_Espana_U;0;0;0;165;0;0
Renfe50506;Renfe_Espana_U;0;0;0;165;0;0
Renfe50507;Renfe_Espana_U;0;0;0;165;0;0
Renfe50508;Renfe_Espana_U;0;0;0;165;0;0
Renfe50600;Renfe_Espana_U;0;0;0;165;0;0
Renfe50602;Renfe_Espana_U;0;0;0;165;0;0
Renfe50700;Renfe_Espana_U;0;0;0;165;0;0
Renfe50701;Renfe_Espana_U;0;0;0;165;0;0
Renfe50702;Renfe_Espana_U;0;0;0;165;0;0
Renfe50703;Renfe_Espana_U;0;0;0;165;0;0
Renfe50704;Renfe_Espana_U;0;0;0;165;0;0
Renfe51003;Renfe_Espana_U;0;0;0;165;0;0
Renfe51009;Renfe_Espana_U;0;0;0;165;0;0
Renfe51010;Renfe_Espana_U;0;0;0;165;0;0
Renfe51050;Renfe_Espana_U;0;0;0;165;0;0
Renfe51051;Renfe_Espana_U;0;0;0;165;0;0
Renfe51100;Renfe_Espana_U;0;0;0;165;0;0
Renfe51101;Renfe_Espana_U;0;0;0;165;0;0
Renfe51102;Renfe_Espana_U;0;0;0;165;0;0
Renfe51103;Renfe_Espana_U;0;0;0;165;0;0
Renfe51104;Renfe_Espana_U;0;0;0;165;0;0
Renfe51110;Renfe_Espana_U;0;0;0;165;0;0
Renfe51111;Renfe_Espana_U;0;0;0;165;0;0
Renfe51112;Renfe_Espana_U;0;0;0;165;0;0
Renfe51113;Renfe_Espana_U;0;0;0;165;0;0
Renfe51200;Renfe_Espana_U;0;0;0;165;0;0
Renfe51201;Renfe_Espana_U;0;0;0;165;0;0
Renfe51202;Renfe_Espana_U;0;0;0;165;0;0
Renfe51203;Renfe_Espana_U;0;0;0;165;0;0
Renfe51204;Renfe_Espana_U;0;0;0;165;0;0
Renfe51205;Renfe_Espana_U;0;0;0;165;0;0
Renfe51300;Renfe_Espana_U;0;0;0;165;0;0
Renfe51301;Renfe_Espana_U;0;0;0;165;0;0
Renfe51400;Renfe_Espana_U;0;0;0;165;0;0
Renfe51401;Renfe_Espana_U;0;0;0;165;0;0
Renfe51402;Renfe_Espana_U;0;0;0;165;0;0
Renfe51404;Renfe_Espana_U;0;0;0;165;0;0
Renfe51405;Renfe_Espana_U;0;0;0;165;0;0
Renfe51406;Renfe_Espana_U;0;0;0;165;0;0
Renfe51407;Renfe_Espana_U;0;0;0;165;0;0
Renfe51409;Renfe_Espana_U;0;0;0;165;0;0
Renfe51414;Renfe_Espana_U;0;0;0;165;0;0
Renfe51415;Renfe_Espana_U;0;0;0;165;0;0
Renfe51416;Renfe_Espana_U;0;0;0;165;0;0
Renfe51417;Renfe_Espana_U;0;0;0;165;0;0
Renfe51419;Renfe_Espana_U;0;0;0;165;0;0
Renfe51450;Renfe_Espana_U;0;0;0;165;0;0
Renfe51451;Renfe_Espana_U;0;0;0;165;0;0
Renfe51452;Renfe_Espana_U;0;0;0;165;0;0
Renfe51453;Renfe_Espana_U;0;0;0;165;0;0
Renfe51454;Renfe_Espana_U;0;0;0;165;0;0
Renfe51455;Renfe_Espana_U;0;0;0;165;0;0
Renfe51456;Renfe_Espana_U;0;0;0;165;0;0
Renfe51457;Renfe_Espana_U;0;0;0;165;0;0
Renfe51458;Renfe_Espana_U;0;0;0;165;0;0
Renfe51459;Renfe_Espana_U;0;0;0;165;0;0
Renfe51460;Renfe_Espana_U;0;0;0;165;0;0
Renfe51461;Renfe_Espana_U;0;0;0;165;0;0
Renfe51462;Renfe_Espana_U;0;0;0;165;0;0
Renfe51463;Renfe_Espana_U;0;0;0;165;0;0
Renfe51464;Renfe_Espana_U;0;0;0;165;0;0
Renfe54100;Renfe_Espana_U;0;0;0;165;0;0
Renfe54101;Renfe_Espana_U;0;0;0;165;0;0
Renfe54102;Renfe_Espana_U;0;0;0;165;0;0
Renfe54103;Renfe_Espana_U;0;0;0;165;0;0
Renfe54104;Renfe_Espana_U;0;0;0;165;0;0
Renfe54105;Renfe_Espana_U;0;0;0;165;0;0
Renfe54106;Renfe_Espana_U;0;0;0;165;0;0
Renfe54200;Renfe_Espana_U;0;0;0;165;0;0
Renfe54201;Renfe_Espana_U;0;0;0;165;0;0
Renfe54202;Renfe_Espana_U;0;0;0;165;0;0
Renfe54300;Renfe_Espana_U;0;0;0;165;0;0
Renfe54301;Renfe_Espana_U;0;0;0;165;0;0
Renfe54400;Renfe_Espana_U;0;0;0;165;0;0
Renfe54402;Renfe_Espana_U;0;0;0;165;0;0
Renfe54403;Renfe_Espana_U;0;0;0;165;0;0
Renfe54404;Renfe_Espana_U;0;0;0;165;0;0
Renfe54405;Renfe_Espana_U;0;0;0;165;0;0
Renfe54406;Renfe_Espana_U;0;0;0;165;0;0
Renfe54407;Renfe_Espana_U;0;0;0;165;0;0
Renfe54408;Renfe_Espana_U;0;0;0;165;0;0
Renfe54410;Renfe_Espana_U;0;0;0;165;0;0
Renfe54412;Renfe_Espana_U;0;0;0;165;0;0
Renfe54413;Renfe_Espana_U;0;0;0;165;0;0
Renfe54500;Renfe_Espana_U;0;0;0;165;0;0
Renfe54501;Renfe_Espana_U;0;0;0;165;0;0
Renfe54503;Renfe_Espana_U;0;0;0;165;0;0
Renfe54504;Renfe_Espana_U;0;0;0;165;0;0
Renfe54505;Renfe_Espana_U;0;0;0;165;0;0
Renfe54506;Renfe_Espana_U;0;0;0;165;0;0
Renfe54507;Renfe_Espana_U;0;0;0;165;0;0
Renfe54508;Renfe_Espana_U;0;0;0;165;0;0
Renfe54509;Renfe_Espana_U;0;0;0;165;0;0
Renfe54510;Renfe_Espana_U;0;0;0;165;0;0
Renfe54511;Renfe_Espana_U;0;0;0;165;0;0
Renfe54512;Renfe_Espana_U;0;0;0;165;0;0
Renfe54513;Renfe_Espana_U;0;0;0;165;0;0
Renfe54514;Renfe_Espana_U;0;0;0;165;0;0
Renfe54515;Renfe_Espana_U;0;0;0;165;0;0
Renfe54516;Renfe_Espana_U;0;0;0;165;0;0
Renfe54517;Renfe_Espana_U;0;0;0;165;0;0
Renfe54518;Renfe_Espana_U;0;0;0;165;0;0
Renfe54519;Renfe_Espana_U;0;0;0;165;0;0
Renfe54520;Renfe_Espana_U;0;0;0;165;0;0
Renfe55001;Renfe_Espana_U;0;0;0;165;0;0
Renfe55002;Renfe_Espana_U;0;0;0;165;0;0
Renfe55003;Renfe_Espana_U;0;0;0;165;0;0
Renfe55004;Renfe_Espana_U;0;0;0;165;0;0
Renfe55005;Renfe_Espana_U;0;0;0;165;0;0
Renfe55007;Renfe_Espana_U;0;0;0;165;0;0
Renfe55008;Renfe_Espana_U;0;0;0;165;0;0
Renfe55009;Renfe_Espana_U;0;0;0;165;0;0
Renfe55010;Renfe_Espana_U;0;0;0;165;0;0
Renfe55011;Renfe_Espana_U;0;0;0;165;0;0
Renfe55012;Renfe_Espana_U;0;0;0;165;0;0
Renfe55013;Renfe_Espana_U;0;0;0;165;0;0
Renfe55014;Renfe_Espana_U;0;0;0;165;0;0
Renfe55015;Renfe_Espana_U;0;0;0;165;0;0
Renfe55016;Renfe_Espana_U;0;0;0;165;0;0
Renfe55017;Renfe_Espana_U;0;0;0;165;0;0
Renfe55018;Renfe_Espana_U;0;0;0;165;0;0
Renfe55019;Renfe_Espana_U;0;0;0;165;0;0
Renfe55020;Renfe_Espana_U;0;0;0;165;0;0
Renfe55555;Renfe_Espana_U;0;0;0;165;0;0
Renfe56001;Renfe_Espana_U;0;0;0;165;0;0
Renfe56002;Renfe_Espana_U;0;0;0;165;0;0
Renfe56003;Renfe_Espana_U;0;0;0;165;0;0
Renfe56004;Renfe_Espana_U;0;0;0;165;0;0
Renfe56005;Renfe_Espana_U;0;0;0;165;0;0
Renfe56007;Renfe_Espana_U;0;0;0;165;0;0
Renfe56008;Renfe_Espana_U;0;0;0;165;0;0
Renfe56009;Renfe_Espana_U;0;0;0;165;0;0
Renfe56010;Renfe_Espana_U;0;0;0;165;0;0
Renfe56011;Renfe_Espana_U;0;0;0;165;0;0
Renfe56012;Renfe_Espana_U;0;0;0;165;0;0
Renfe56100;Renfe_Espana_U;0;0;0;165;0;0
Renfe56101;Renfe_Espana_U;0;0;0;165;0;0
Renfe56102;Renfe_Espana_U;0;0;0;165;0;0
Renfe56103;Renfe_Espana_U;0;0;0;165;0;0
Renfe56200;Renfe_Espana_U;0;0;0;165;0;0
Renfe56201;Renfe_Espana_U;0;0;0;165;0;0
Renfe56300;Renfe_Espana_U;0;0;0;165;0;0
Renfe56301;Renfe_Espana_U;0;0;0;165;0;0
Renfe56302;Renfe_Espana_U;0;0;0;165;0;0
Renfe56303;Renfe_Espana_U;0;0;0;165;0;0
Renfe56305;Renfe_Espana_U;0;0;0;165;0;0
Renfe56306;Renfe_Espana_U;0;0;0;165;0;0
Renfe56307;Renfe_Espana_U;0;0;0;165;0;0
Renfe56308;Renfe_Espana_U;0;0;0;165;0;0
Renfe56309;Renfe_Espana_U;0;0;0;165;0;0
Renfe56310;Renfe_Espana_U;0;0;0;165;0;0
Renfe56312;Renfe_Espana_U;0;0;0;165;0;0
Renfe57002;Renfe_Espana_U;0;0;0;165;0;0
Renfe57003;Renfe_Espana_U;0;0;0;165;0;0
Renfe57004;Renfe_Espana_U;0;0;0;165;0;0
Renfe57006;Renfe_Espana_U;0;0;0;165;0;0
Renfe60000;Renfe_Espana_U;0;0;0;165;0;0
Renfe60001;Renfe_Espana_U;0;0;0;165;0;0
Renfe60100;Renfe_Espana_U;0;0;0;165;0;0
Renfe60101;Renfe_Espana_U;0;0;0;165;0;0
Renfe60102;Renfe_Espana_U;0;0;0;165;0;0
Renfe60103;Renfe_Espana_U;0;0;0;165;0;0
Renfe60104;Renfe_Espana_U;0;0;0;165;0;0
Renfe60105;Renfe_Espana_U;0;0;0;165;0;0
Renfe60106;Renfe_Espana_U;0;0;0;165;0;0
Renfe60107;Renfe_Espana_U;0;0;0;165;0;0
Renfe60109;Renfe_Espana_U;0;0;0;165;0;0
Renfe60115;Renfe_Espana_U;0;0;0;165;0;0
Renfe60116;Renfe_Espana_U;0;0;0;165;0;0
Renfe60200;Renfe_Espana_U;0;0;0;165;0;0
Renfe60201;Renfe_Espana_U;0;0;0;165;0;0
Renfe60202;Renfe_Espana_U;0;0;0;165;0;0
Renfe60203;Renfe_Espana_U;0;0;0;165;0;0
Renfe60204;Renfe_Espana_U;0;0;0;165;0;0
Renfe60205;Renfe_Espana_U;0;0;0;165;0;0
Renfe60206;Renfe_Espana_U;0;0;0;165;0;0
Renfe60207;Renfe_Espana_U;0;0;0;165;0;0
Renfe60300;Renfe_Espana_U;0;0;0;165;0;0
Renfe60301;Renfe_Espana_U;0;0;0;165;0;0
Renfe60400;Renfe_Espana_U;0;0;0;165;0;0
Renfe60402;Renfe_Espana_U;0;0;0;165;0;0
Renfe60403;Renfe_Espana_U;0;0;0;165;0;0
Renfe60404;Renfe_Espana_U;0;0;0;165;0;0
Renfe60406;Renfe_Espana_U;0;0;0;165;0;0
Renfe60500;Renfe_Espana_U;0;0;0;165;0;0
Renfe60503;Renfe_Espana_U;0;0;0;165;0;0
Renfe60505;Renfe_Espana_U;0;0;0;165;0;0
Renfe60507;Renfe_Espana_U;0;0;0;165;0;0
Renfe60600;Renfe_Espana_U;0;0;0;165;0;0
Renfe60601;Renfe_Espana_U;0;0;0;165;0;0
Renfe60700;Renfe_Espana_U;0;0;0;165;0;0
Renfe60702;Renfe_Espana_U;0;0;0;165;0;0
Renfe60704;Renfe_Espana_U;0;0;0;165;0;0
Renfe60705;Renfe_Espana_U;0;0;0;165;0;0
Renfe60800;Renfe_Espana_U;0;0;0;165;0;0
Renfe60900;Renfe_Espana_U;0;0;0;165;0;0
Renfe60901;Renfe_Espana_U;0;0;0;165;0;0
Renfe60902;Renfe_Espana_U;0;0;0;165;0;0
Renfe60903;Renfe_Espana_U;0;0;0;165;0;0
Renfe60904;Renfe_Espana_U;0;0;0;165;0;0
Renfe60905;Renfe_Espana_U;0;0;0;165;0;0
Renfe60906;Renfe_Espana_U;0;0;0;165;0;0
Renfe60907;Renfe_Espana_U;0;0;0;165;0;0
Renfe60908;Renfe_Espana_U;0;0;0;165;0;0
Renfe60909;Renfe_Espana_U;0;0;0;165;0;0
Renfe60910;Renfe_Espana_U;0;0;0;165;0;0
Renfe60911;Renfe_Espana_U;0;0;0;165;0;0
Renfe60913;Renfe_Espana_U;0;0;0;165;0;0
Renfe60914;Renfe_Espana_U;0;0;0;165;0;0
Renfe61001;Renfe_Espana_U;0;0;0;165;0;0
Renfe61003;Renfe_Espana_U;0;0;0;165;0;0
Renfe61004;Renfe_Espana_U;0;0;0;165;0;0
Renfe61005;Renfe_Espana_U;0;0;0;165;0;0
Renfe61007;Renfe_Espana_U;0;0;0;165;0;0
Renfe61009;Renfe_Espana_U;0;0;0;165;0;0
Renfe61012;Renfe_Espana_U;0;0;0;165;0;0
Renfe61013;Renfe_Espana_U;0;0;0;165;0;0
Renfe61015;Renfe_Espana_U;0;0;0;165;0;0
Renfe61017;Renfe_Espana_U;0;0;0;165;0;0
Renfe61018;Renfe_Espana_U;0;0;0;165;0;0
Renfe61100;Renfe_Espana_U;0;0;0;165;0;0
Renfe61200;Renfe_Espana_U;0;0;0;165;0;0
Renfe61202;Renfe_Espana_U;0;0;0;165;0;0
Renfe61203;Renfe_Espana_U;0;0;0;165;0;0
Renfe61300;Renfe_Espana_U;0;0;0;165;0;0
Renfe61301;Renfe_Espana_U;0;0;0;165;0;0
Renfe61302;Renfe_Espana_U;0;0;0;165;0;0
Renfe61303;Renfe_Espana_U;0;0;0;165;0;0
Renfe61304;Renfe_Espana_U;0;0;0;165;0;0
Renfe61305;Renfe_Espana_U;0;0;0;165;0;0
Renfe61307;Renfe_Espana_U;0;0;0;165;0;0
Renfe62001;Renfe_Espana_U;0;0;0;165;0;0
Renfe62002;Renfe_Espana_U;0;0;0;165;0;0
Renfe62003;Renfe_Espana_U;0;0;0;165;0;0
Renfe62100;Renfe_Espana_U;0;0;0;165;0;0
Renfe62101;Renfe_Espana_U;0;0;0;165;0;0
Renfe62102;Renfe_Espana_U;0;0;0;165;0;0
Renfe62103;Renfe_Espana_U;0;0;0;165;0;0
Renfe62104;Renfe_Espana_U;0;0;0;165;0;0
Renfe62108;Renfe_Espana_U;0;0;0;165;0;0
Renfe62109;Renfe_Espana_U;0;0;0;165;0;0
Renfe64001;Renfe_Espana_U;0;0;0;165;0;0
Renfe64003;Renfe_Espana_U;0;0;0;165;0;0
Renfe64004;Renfe_Espana_U;0;0;0;165;0;0
Renfe64005;Renfe_Espana_U;0;0;0;165;0;0
Renfe64006;Renfe_Espana_U;0;0;0;165;0;0
Renfe64007;Renfe_Espana_U;0;0;0;165;0;0
Renfe64100;Renfe_Espana_U;0;0;0;165;0;0
Renfe64101;Renfe_Espana_U;0;0;0;165;0;0
Renfe64102;Renfe_Espana_U;0;0;0;165;0;0
Renfe64103;Renfe_Espana_U;0;0;0;165;0;0
Renfe64104;Renfe_Espana_U;0;0;0;165;0;0
Renfe64105;Renfe_Espana_U;0;0;0;165;0;0
Renfe64107;Renfe_Espana_U;0;0;0;165;0;0
Renfe64200;Renfe_Espana_U;0;0;0;165;0;0
Renfe64201;Renfe_Espana_U;0;0;0;165;0;0
Renfe64202;Renfe_Espana_U;0;0;0;165;0;0
Renfe64203;Renfe_Espana_U;0;0;0;165;0;0
Renfe65000;Renfe_Espana_U;0;0;0;165;0;0
Renfe65001;Renfe_Espana_U;0;0;0;165;0;0
Renfe65002;Renfe_Espana_U;0;0;0;165;0;0
Renfe65003;Renfe_Espana_U;0;0;0;165;0;0
Renfe65004;Renfe_Espana_U;0;0;0;165;0;0
Renfe65005;Renfe_Espana_U;0;0;0;165;0;0
Renfe65006;Renfe_Espana_U;0;0;0;165;0;0
Renfe65007;Renfe_Espana_U;0;0;0;165;0;0
Renfe65008;Renfe_Espana_U;0;0;0;165;0;0
Renfe65200;Renfe_Espana_U;0;0;0;165;0;0
Renfe65201;Renfe_Espana_U;0;0;0;165;0;0
Renfe65202;Renfe_Espana_U;0;0;0;165;0;0
Renfe65203;Renfe_Espana_U;0;0;0;165;0;0
Renfe65204;Renfe_Espana_U;0;0;0;165;0;0
Renfe65205;Renfe_Espana_U;0;0;0;165;0;0
Renfe65206;Renfe_Espana_U;0;0;0;165;0;0
Renfe65207;Renfe_Espana_U;0;0;0;165;0;0
Renfe65208;Renfe_Espana_U;0;0;0;165;0;0
Renfe65209;Renfe_Espana_U;0;0;0;165;0;0
Renfe65222;Renfe_Espana_U;0;0;0;165;0;0
Renfe65300;Renfe_Espana_U;0;0;0;165;0;0
Renfe65301;Renfe_Espana_U;0;0;0;165;0;0
Renfe65304;Renfe_Espana_U;0;0;0;165;0;0
Renfe65306;Renfe_Espana_U;0;0;0;165;0;0
Renfe65308;Renfe_Espana_U;0;0;0;165;0;0
Renfe65309;Renfe_Espana_U;0;0;0;165;0;0
Renfe65311;Renfe_Espana_U;0;0;0;165;0;0
Renfe65312;Renfe_Espana_U;0;0;0;165;0;0
Renfe65314;Renfe_Espana_U;0;0;0;165;0;0
Renfe65318;Renfe_Espana_U;0;0;0;165;0;0
Renfe65400;Renfe_Espana_U;0;0;0;165;0;0
Renfe65401;Renfe_Espana_U;0;0;0;165;0;0
Renfe65402;Renfe_Espana_U;0;0;0;165;0;0
Renfe65403;Renfe_Espana_U;0;0;0;165;0;0
Renfe65404;Renfe_Espana_U;0;0;0;165;0;0
Renfe65405;Renfe_Espana_U;0;0;0;165;0;0
Renfe65406;Renfe_Espana_U;0;0;0;165;0;0
Renfe65407;Renfe_Espana_U;0;0;0;165;0;0
Renfe65408;Renfe_Espana_U;0;0;0;165;0;0
Renfe65409;Renfe_Espana_U;0;0;0;165;0;0
Renfe65410;Renfe_Espana_U;0;0;0;165;0;0
Renfe65411;Renfe_Espana_U;0;0;0;165;0;0
Renfe65412;Renfe_Espana_U;0;0;0;165;0;0
Renfe65413;Renfe_Espana_U;0;0;0;165;0;0
Renfe65420;Renfe_Espana_U;0;0;0;165;0;0
Renfe65422;Renfe_Espana_U;0;0;0;165;0;0
Renfe65555;Renfe_Espana_U;0;0;0;165;0;0
Renfe66001;Renfe_Espana_U;0;0;0;165;0;0
Renfe66002;Renfe_Espana_U;0;0;0;165;0;0
Renfe66003;Renfe_Espana_U;0;0;0;165;0;0
Renfe66004;Renfe_Espana_U;0;0;0;165;0;0
Renfe66005;Renfe_Espana_U;0;0;0;165;0;0
Renfe66006;Renfe_Espana_U;0;0;0;165;0;0
Renfe66008;Renfe_Espana_U;0;0;0;165;0;0
Renfe66009;Renfe_Espana_U;0;0;0;165;0;0
Renfe66010;Renfe_Espana_U;0;0;0;165;0;0
Renfe66011;Renfe_Espana_U;0;0;0;165;0;0
Renfe66012;Renfe_Espana_U;0;0;0;165;0;0
Renfe66013;Renfe_Espana_U;0;0;0;165;0;0
Renfe66014;Renfe_Espana_U;0;0;0;165;0;0
Renfe66015;Renfe_Espana_U;0;0;0;165;0;0
Renfe66016;Renfe_Espana_U;0;0;0;165;0;0
Renfe66100;Renfe_Espana_U;0;0;0;165;0;0
Renfe66102;Renfe_Espana_U;0;0;0;165;0;0
Renfe66103;Renfe_Espana_U;0;0;0;165;0;0
Renfe66104;Renfe_Espana_U;0;0;0;165;0;0
Renfe66105;Renfe_Espana_U;0;0;0;165;0;0
Renfe66108;Renfe_Espana_U;0;0;0;165;0;0
Renfe66109;Renfe_Espana_U;0;0;0;165;0;0
Renfe66110;Renfe_Espana_U;0;0;0;165;0;0
Renfe66112;Renfe_Espana_U;0;0;0;165;0;0
Renfe66113;Renfe_Espana_U;0;0;0;165;0;0
Renfe66200;Renfe_Espana_U;0;0;0;165;0;0
Renfe66201;Renfe_Espana_U;0;0;0;165;0;0
Renfe66202;Renfe_Espana_U;0;0;0;165;0;0
Renfe66203;Renfe_Espana_U;0;0;0;165;0;0
Renfe66204;Renfe_Espana_U;0;0;0;165;0;0
Renfe66205;Renfe_Espana_U;0;0;0;165;0;0
Renfe66206;Renfe_Espana_U;0;0;0;165;0;0
Renfe66207;Renfe_Espana_U;0;0;0;165;0;0
Renfe66208;Renfe_Espana_U;0;0;0;165;0;0
Renfe66209;Renfe_Espana_U;0;0;0;165;0;0
Renfe66210;Renfe_Espana_U;0;0;0;165;0;0
Renfe66211;Renfe_Espana_U;0;0;0;165;0;0
Renfe66212;Renfe_Espana_U;0;0;0;165;0;0
Renfe66214;Renfe_Espana_U;0;0;0;165;0;0
Renfe67003;Renfe_Espana_U;0;0;0;165;0;0
Renfe67004;Renfe_Espana_U;0;0;0;165;0;0
Renfe67005;Renfe_Espana_U;0;0;0;165;0;0
Renfe67006;Renfe_Espana_U;0;0;0;165;0;0
Renfe67007;Renfe_Espana_U;0;0;0;165;0;0
Renfe67009;Renfe_Espana_U;0;0;0;165;0;0
Renfe67010;Renfe_Espana_U;0;0;0;165;0;0
Renfe67011;Renfe_Espana_U;0;0;0;165;0;0
Renfe67013;Renfe_Espana_U;0;0;0;165;0;0
Renfe67014;Renfe_Espana_U;0;0;0;165;0;0
Renfe67015;Renfe_Espana_U;0;0;0;165;0;0
Renfe67016;Renfe_Espana_U;0;0;0;165;0;0
Renfe67017;Renfe_Espana_U;0;0;0;165;0;0
Renfe67018;Renfe_Espana_U;0;0;0;165;0;0
Renfe67019;Renfe_Espana_U;0;0;0;165;0;0
Renfe67020;Renfe_Espana_U;0;0;0;165;0;0
Renfe67021;Renfe_Espana_U;0;0;0;165;0;0
Renfe67100;Renfe_Espana_U;0;0;0;165;0;0
Renfe67101;Renfe_Espana_U;0;0;0;165;0;0
Renfe67102;Renfe_Espana_U;0;0;0;165;0;0
Renfe67103;Renfe_Espana_U;0;0;0;165;0;0
Renfe67104;Renfe_Espana_U;0;0;0;165;0;0
Renfe67105;Renfe_Espana_U;0;0;0;165;0;0
Renfe67107;Renfe_Espana_U;0;0;0;165;0;0
Renfe67109;Renfe_Espana_U;0;0;0;165;0;0
Renfe67110;Renfe_Espana_U;0;0;0;165;0;0
Renfe67113;Renfe_Espana_U;0;0;0;165;0;0
Renfe67200;Renfe_Espana_U;0;0;0;165;0;0
Renfe67201;Renfe_Espana_U;0;0;0;165;0;0
Renfe67202;Renfe_Espana_U;0;0;0;165;0;0
Renfe67203;Renfe_Espana_U;0;0;0;165;0;0
Renfe67205;Renfe_Espana_U;0;0;0;165;0;0
Renfe67206;Renfe_Espana_U;0;0;0;165;0;0
Renfe67207;Renfe_Espana_U;0;0;0;165;0;0
Renfe67208;Renfe_Espana_U;0;0;0;165;0;0
Renfe67209;Renfe_Espana_U;0;0;0;165;0;0
Renfe67210;Renfe_Espana_U;0;0;0;165;0;0
Renfe67211;Renfe_Espana_U;0;0;0;165;0;0
Renfe67212;Renfe_Espana_U;0;0;0;165;0;0
Renfe67213;Renfe_Espana_U;0;0;0;165;0;0
Renfe67214;Renfe_Espana_U;0;0;0;165;0;0
Renfe67215;Renfe_Espana_U;0;0;0;165;0;0
Renfe67216;Renfe_Espana_U;0;0;0;165;0;0
Renfe67217;Renfe_Espana_U;0;0;0;165;0;0
Renfe67220;Renfe_Espana_U;0;0;0;165;0;0
Renfe67221;Renfe_Espana_U;0;0;0;165;0;0
Renfe67223;Renfe_Espana_U;0;0;0;165;0;0
Renfe69001;Renfe_Espana_U;0;0;0;165;0;0
Renfe69002;Renfe_Espana_U;0;0;0;165;0;0
Renfe69003;Renfe_Espana_U;0;0;0;165;0;0
Renfe69004;Renfe_Espana_U;0;0;0;165;0;0
Renfe69005;Renfe_Espana_U;0;0;0;165;0;0
Renfe69006;Renfe_Espana_U;0;0;0;165;0;0
Renfe69007;Renfe_Espana_U;0;0;0;165;0;0
Renfe69008;Renfe_Espana_U;0;0;0;165;0;0
Renfe69009;Renfe_Espana_U;0;0;0;165;0;0
Renfe69010;Renfe_Espana_U;0;0;0;165;0;0
Renfe69011;Renfe_Espana_U;0;0;0;165;0;0
Renfe69101;Renfe_Espana_U;0;0;0;165;0;0
Renfe69102;Renfe_Espana_U;0;0;0;165;0;0
Renfe69103;Renfe_Espana_U;0;0;0;165;0;0
Renfe69104;Renfe_Espana_U;0;0;0;165;0;0
Renfe69105;Renfe_Espana_U;0;0;0;165;0;0
Renfe69107;Renfe_Espana_U;0;0;0;165;0;0
Renfe69108;Renfe_Espana_U;0;0;0;165;0;0
Renfe69109;Renfe_Espana_U;0;0;0;165;0;0
Renfe69110;Renfe_Espana_U;0;0;0;165;0;0
Renfe69111;Renfe_Espana_U;0;0;0;165;0;0
Renfe69200;Renfe_Espana_U;0;0;0;165;0;0
Renfe69201;Renfe_Espana_U;0;0;0;165;0;0
Renfe69202;Renfe_Espana_U;0;0;0;165;0;0
Renfe69203;Renfe_Espana_U;0;0;0;165;0;0
Renfe69204;Renfe_Espana_U;0;0;0;165;0;0
Renfe69205;Renfe_Espana_U;0;0;0;165;0;0
Renfe69206;Renfe_Espana_U;0;0;0;165;0;0
Renfe69207;Renfe_Espana_U;0;0;0;165;0;0
Renfe70001;Renfe_Espana_U;0;0;0;165;0;0
Renfe70002;Renfe_Espana_U;0;0;0;165;0;0
Renfe70003;Renfe_Espana_U;0;0;0;165;0;0
Renfe70005;Renfe_Espana_U;0;0;0;165;0;0
Renfe70100;Renfe_Espana_U;0;0;0;165;0;0
Renfe70101;Renfe_Espana_U;0;0;0;165;0;0
Renfe70102;Renfe_Espana_U;0;0;0;165;0;0
Renfe70103;Renfe_Espana_U;0;0;0;165;0;0
Renfe70104;Renfe_Espana_U;0;0;0;165;0;0
Renfe70105;Renfe_Espana_U;0;0;0;165;0;0
Renfe70107;Renfe_Espana_U;0;0;0;165;0;0
Renfe70108;Renfe_Espana_U;0;0;0;165;0;0
Renfe70109;Renfe_Espana_U;0;0;0;165;0;0
Renfe70111;Renfe_Espana_U;0;0;0;165;0;0
Renfe70112;Renfe_Espana_U;0;0;0;165;0;0
Renfe70200;Renfe_Espana_U;0;0;0;165;0;0
Renfe70202;Renfe_Espana_U;0;0;0;165;0;0
Renfe70203;Renfe_Espana_U;0;0;0;165;0;0
Renfe70204;Renfe_Espana_U;0;0;0;165;0;0
Renfe70207;Renfe_Espana_U;0;0;0;165;0;0
Renfe70208;Renfe_Espana_U;0;0;0;165;0;0
Renfe70209;Renfe_Espana_U;0;0;0;165;0;0
Renfe70210;Renfe_Espana_U;0;0;0;165;0;0
Renfe70300;Renfe_Espana_U;0;0;0;165;0;0
Renfe70302;Renfe_Espana_U;0;0;0;165;0;0
Renfe70303;Renfe_Espana_U;0;0;0;165;0;0
Renfe70304;Renfe_Espana_U;0;0;0;165;0;0
Renfe70400;Renfe_Espana_U;0;0;0;165;0;0
Renfe70401;Renfe_Espana_U;0;0;0;165;0;0
Renfe70403;Renfe_Espana_U;0;0;0;165;0;0
Renfe70404;Renfe_Espana_U;0;0;0;165;0;0
Renfe70405;Renfe_Espana_U;0;0;0;165;0;0
Renfe70500;Renfe_Espana_U;0;0;0;165;0;0
Renfe70501;Renfe_Espana_U;0;0;0;165;0;0
Renfe70502;Renfe_Espana_U;0;0;0;165;0;0
Renfe70503;Renfe_Espana_U;0;0;0;165;0;0
Renfe70504;Renfe_Espana_U;0;0;0;165;0;0
Renfe70505;Renfe_Espana_U;0;0;0;165;0;0
Renfe70600;Renfe_Espana_U;0;0;0;165;0;0
Renfe70601;Renfe_Espana_U;0;0;0;165;0;0
Renfe70602;Renfe_Espana_U;0;0;0;165;0;0
Renfe70603;Renfe_Espana_U;0;0;0;165;0;0
Renfe70604;Renfe_Espana_U;0;0;0;165;0;0
Renfe70605;Renfe_Espana_U;0;0;0;165;0;0
Renfe70606;Renfe_Espana_U;0;0;0;165;0;0
Renfe70607;Renfe_Espana_U;0;0;0;165;0;0
Renfe70700;Renfe_Espana_U;0;0;0;165;0;0
Renfe70701;Renfe_Espana_U;0;0;0;165;0;0
Renfe70702;Renfe_Espana_U;0;0;0;165;0;0
Renfe70703;Renfe_Espana_U;0;0;0;165;0;0
Renfe70704;Renfe_Espana_U;0;0;0;165;0;0
Renfe70705;Renfe_Espana_U;0;0;0;165;0;0
Renfe70706;Renfe_Espana_U;0;0;0;165;0;0
Renfe70707;Renfe_Espana_U;0;0;0;165;0;0
Renfe70800;Renfe_Espana_U;0;0;0;165;0;0
Renfe70801;Renfe_Espana_U;0;0;0;165;0;0
Renfe70802;Renfe_Espana_U;0;0;0;165;0;0
Renfe70806;Renfe_Espana_U;0;0;0;165;0;0
Renfe70807;Renfe_Espana_U;0;0;0;165;0;0
Renfe71100;Renfe_Espana_U;0;0;0;165;0;0
Renfe71101;Renfe_Espana_U;0;0;0;165;0;0
Renfe71102;Renfe_Espana_U;0;0;0;165;0;0
Renfe71103;Renfe_Espana_U;0;0;0;165;0;0
Renfe71104;Renfe_Espana_U;0;0;0;165;0;0
Renfe71105;Renfe_Espana_U;0;0;0;165;0;0
Renfe71108;Renfe_Espana_U;0;0;0;165;0;0
Renfe71109;Renfe_Espana_U;0;0;0;165;0;0
Renfe71200;Renfe_Espana_U;0;0;0;165;0;0
Renfe71201;Renfe_Espana_U;0;0;0;165;0;0
Renfe71202;Renfe_Espana_U;0;0;0;165;0;0
Renfe71203;Renfe_Espana_U;0;0;0;165;0;0
Renfe71204;Renfe_Espana_U;0;0;0;165;0;0
Renfe71205;Renfe_Espana_U;0;0;0;165;0;0
Renfe71206;Renfe_Espana_U;0;0;0;165;0;0
Renfe71207;Renfe_Espana_U;0;0;0;165;0;0
Renfe71208;Renfe_Espana_U;0;0;0;165;0;0
Renfe71209;Renfe_Espana_U;0;0;0;165;0;0
Renfe71210;Renfe_Espana_U;0;0;0;165;0;0
Renfe71211;Renfe_Espana_U;0;0;0;165;0;0
Renfe71300;Renfe_Espana_U;0;0;0;165;0;0
Renfe71301;Renfe_Espana_U;0;0;0;165;0;0
Renfe71302;Renfe_Espana_U;0;0;0;165;0;0
Renfe71303;Renfe_Espana_U;0;0;0;165;0;0
Renfe71304;Renfe_Espana_U;0;0;0;165;0;0
Renfe71305;Renfe_Espana_U;0;0;0;165;0;0
Renfe71306;Renfe_Espana_U;0;0;0;165;0;0
Renfe71307;Renfe_Espana_U;0;0;0;165;0;0
Renfe71400;Renfe_Espana_U;0;0;0;165;0;0
Renfe71401;Renfe_Espana_U;0;0;0;165;0;0
Renfe71500;Renfe_Espana_U;0;0;0;165;0;0
Renfe71502;Renfe_Espana_U;0;0;0;165;0;0
Renfe71503;Renfe_Espana_U;0;0;0;165;0;0
Renfe71600;Renfe_Espana_U;0;0;0;165;0;0
Renfe71601;Renfe_Espana_U;0;0;0;165;0;0
Renfe71602;Renfe_Espana_U;0;0;0;165;0;0
Renfe71603;Renfe_Espana_U;0;0;0;165;0;0
Renfe71604;Renfe_Espana_U;0;0;0;165;0;0
Renfe71700;Renfe_Espana_U;0;0;0;165;0;0
Renfe71701;Renfe_Espana_U;0;0;0;165;0;0
Renfe71702;Renfe_Espana_U;0;0;0;165;0;0
Renfe71703;Renfe_Espana_U;0;0;0;165;0;0
Renfe71704;Renfe_Espana_U;0;0;0;165;0;0
Renfe71705;Renfe_Espana_U;0;0;0;165;0;0
Renfe71706;Renfe_Espana_U;0;0;0;165;0;0
Renfe71707;Renfe_Espana_U;0;0;0;165;0;0
Renfe71708;Renfe_Espana_U;0;0;0;165;0;0
Renfe71709;Renfe_Espana_U;0;0;0;165;0;0
Renfe71801;Renfe_Espana_U;0;0;0;165;0;0
Renfe71802;Renfe_Espana_U;0;0;0;165;0;0
Renfe71901;Renfe_Espana_U;0;0;0;165;0;0
Renfe71902;Renfe_Espana_U;0;0;0;165;0;0
Renfe72001;Renfe_Espana_U;0;0;0;165;0;0
Renfe72002;Renfe_Espana_U;0;0;0;165;0;0
Renfe72003;Renfe_Espana_U;0;0;0;165;0;0
Renfe72004;Renfe_Espana_U;0;0;0;165;0;0
Renfe72005;Renfe_Espana_U;0;0;0;165;0;0
Renfe72006;Renfe_Espana_U;0;0;0;165;0;0
Renfe72100;Renfe_Espana_U;0;0;0;165;0;0
Renfe72101;Renfe_Espana_U;0;0;0;165;0;0
Renfe72201;Renfe_Espana_U;0;0;0;165;0;0
Renfe72202;Renfe_Espana_U;0;0;0;165;0;0
Renfe72203;Renfe_Espana_U;0;0;0;165;0;0
Renfe72204;Renfe_Espana_U;0;0;0;165;0;0
Renfe72205;Renfe_Espana_U;0;0;0;165;0;0
Renfe72206;Renfe_Espana_U;0;0;0;165;0;0
Renfe72207;Renfe_Espana_U;0;0;0;165;0;0
Renfe72208;Renfe_Espana_U;0;0;0;165;0;0
Renfe72209;Renfe_Espana_U;0;0;0;165;0;0
Renfe72210;Renfe_Espana_U;0;0;0;165;0;0
Renfe72211;Renfe_Espana_U;0;0;0;165;0;0
Renfe72300;Renfe_Espana_U;0;0;0;165;0;0
Renfe72301;Renfe_Espana_U;0;0;0;165;0;0
Renfe72302;Renfe_Espana_U;0;0;0;165;0;0
Renfe72303;Renfe_Espana_U;0;0;0;165;0;0
Renfe72304;Renfe_Espana_U;0;0;0;165;0;0
Renfe72305;Renfe_Espana_U;0;0;0;165;0;0
Renfe72400;Renfe_Espana_U;0;0;0;165;0;0
Renfe72501;Renfe_Espana_U;0;0;0;165;0;0
Renfe72502;Renfe_Espana_U;0;0;0;165;0;0
Renfe72503;Renfe_Espana_U;0;0;0;165;0;0
Renfe72508;Renfe_Espana_U;0;0;0;165;0;0
Renfe73001;Renfe_Espana_U;0;0;0;165;0;0
Renfe73002;Renfe_Espana_U;0;0;0;165;0;0
Renfe73003;Renfe_Espana_U;0;0;0;165;0;0
Renfe73004;Renfe_Espana_U;0;0;0;165;0;0
Renfe73005;Renfe_Espana_U;0;0;0;165;0;0
Renfe73006;Renfe_Espana_U;0;0;0;165;0;0
Renfe73007;Renfe_Espana_U;0;0;0;165;0;0
Renfe73008;Renfe_Espana_U;0;0;0;165;0;0
Renfe73009;Renfe_Espana_U;0;0;0;165;0;0
Renfe73010;Renfe_Espana_U;0;0;0;165;0;0
Renfe73100;Renfe_Espana_U;0;0;0;165;0;0
Renfe73101;Renfe_Espana_U;0;0;0;165;0;0
Renfe73102;Renfe_Espana_U;0;0;0;165;0;0
Renfe74200;Renfe_Espana_U;0;0;0;165;0;0
Renfe74202;Renfe_Espana_U;0;0;0;165;0;0
Renfe74204;Renfe_Espana_U;0;0;0;165;0;0
Renfe74205;Renfe_Espana_U;0;0;0;165;0;0
Renfe74206;Renfe_Espana_U;0;0;0;165;0;0
Renfe74207;Renfe_Espana_U;0;0;0;165;0;0
Renfe74208;Renfe_Espana_U;0;0;0;165;0;0
Renfe74209;Renfe_Espana_U;0;0;0;165;0;0
Renfe74210;Renfe_Espana_U;0;0;0;165;0;0
Renfe74211;Renfe_Espana_U;0;0;0;165;0;0
Renfe74212;Renfe_Espana_U;0;0;0;165;0;0
Renfe74213;Renfe_Espana_U;0;0;0;165;0;0
Renfe74214;Renfe_Espana_U;0;0;0;165;0;0
Renfe74215;Renfe_Espana_U;0;0;0;165;0;0
Renfe74216;Renfe_Espana_U;0;0;0;165;0;0
Renfe74217;Renfe_Espana_U;0;0;0;165;0;0
Renfe75101;Renfe_Espana_U;0;0;0;165;0;0
Renfe75102;Renfe_Espana_U;0;0;0;165;0;0
Renfe75103;Renfe_Espana_U;0;0;0;165;0;0
Renfe75104;Renfe_Espana_U;0;0;0;165;0;0
Renfe75105;Renfe_Espana_U;0;0;0;165;0;0
Renfe75106;Renfe_Espana_U;0;0;0;165;0;0
Renfe75107;Renfe_Espana_U;0;0;0;165;0;0
Renfe75108;Renfe_Espana_U;0;0;0;165;0;0
Renfe75109;Renfe_Espana_U;0;0;0;165;0;0
Renfe75110;Renfe_Espana_U;0;0;0;165;0;0
Renfe75111;Renfe_Espana_U;0;0;0;165;0;0
Renfe75112;Renfe_Espana_U;0;0;0;165;0;0
Renfe75113;Renfe_Espana_U;0;0;0;165;0;0
Renfe75114;Renfe_Espana_U;0;0;0;165;0;0
Renfe75115;Renfe_Espana_U;0;0;0;165;0;0
Renfe75116;Renfe_Espana_U;0;0;0;165;0;0
Renfe76001;Renfe_Espana_U;0;0;0;165;0;0
Renfe76002;Renfe_Espana_U;0;0;0;165;0;0
Renfe76003;Renfe_Espana_U;0;0;0;165;0;0
Renfe76004;Renfe_Espana_U;0;0;0;165;0;0
Renfe77001;Renfe_Espana_U;0;0;0;165;0;0
Renfe77002;Renfe_Espana_U;0;0;0;165;0;0
Renfe77003;Renfe_Espana_U;0;0;0;165;0;0
Renfe77004;Renfe_Espana_U;0;0;0;165;0;0
Renfe77005;Renfe_Espana_U;0;0;0;165;0;0
Renfe77006;Renfe_Espana_U;0;0;0;165;0;0
Renfe77100;Renfe_Espana_U;0;0;0;165;0;0
Renfe77101;Renfe_Espana_U;0;0;0;165;0;0
Renfe77102;Renfe_Espana_U;0;0;0;165;0;0
Renfe77103;Renfe_Espana_U;0;0;0;165;0;0
Renfe77104;Renfe_Espana_U;0;0;0;165;0;0
Renfe77105;Renfe_Espana_U;0;0;0;165;0;0
Renfe77106;Renfe_Espana_U;0;0;0;165;0;0
Renfe77107;Renfe_Espana_U;0;0;0;165;0;0
Renfe77108;Renfe_Espana_U;0;0;0;165;0;0
Renfe77109;Renfe_Espana_U;0;0;0;165;0;0
Renfe77110;Renfe_Espana_U;0;0;0;165;0;0
Renfe77111;Renfe_Espana_U;0;0;0;165;0;0
Renfe77112;Renfe_Espana_U;0;0;0;165;0;0
Renfe77113;Renfe_Espana_U;0;0;0;165;0;0
Renfe77114;Renfe_Espana_U;0;0;0;165;0;0
Renfe77200;Renfe_Espana_U;0;0;0;165;0;0
Renfe77301;Renfe_Espana_U;0;0;0;165;0;0
Renfe77302;Renfe_Espana_U;0;0;0;165;0;0
Renfe77303;Renfe_Espana_U;0;0;0;165;0;0
Renfe77304;Renfe_Espana_U;0;0;0;165;0;0
Renfe77305;Renfe_Espana_U;0;0;0;165;0;0
Renfe77306;Renfe_Espana_U;0;0;0;165;0;0
Renfe77307;Renfe_Espana_U;0;0;0;165;0;0
Renfe77308;Renfe_Espana_U;0;0;0;165;0;0
Renfe77309;Renfe_Espana_U;0;0;0;165;0;0
Renfe78004;Renfe_Espana_U;0;0;0;165;0;0
Renfe78005;Renfe_Espana_U;0;0;0;165;0;0
Renfe78100;Renfe_Espana_U;0;0;0;165;0;0
Renfe78102;Renfe_Espana_U;0;0;0;165;0;0
Renfe78200;Renfe_Espana_U;0;0;0;165;0;0
Renfe78201;Renfe_Espana_U;0;0;0;165;0;0
Renfe78202;Renfe_Espana_U;0;0;0;165;0;0
Renfe78203;Renfe_Espana_U;0;0;0;165;0;0
Renfe78204;Renfe_Espana_U;0;0;0;165;0;0
Renfe78300;Renfe_Espana_U;0;0;0;165;0;0
Renfe78301;Renfe_Espana_U;0;0;0;165;0;0
Renfe78302;Renfe_Espana_U;0;0;0;165;0;0
Renfe78303;Renfe_Espana_U;0;0;0;165;0;0
Renfe78304;Renfe_Espana_U;0;0;0;165;0;0
Renfe78305;Renfe_Espana_U;0;0;0;165;0;0
Renfe78400;Renfe_Espana_U;0;0;0;165;0;0
Renfe78401;Renfe_Espana_U;0;0;0;165;0;0
Renfe78402;Renfe_Espana_U;0;0;0;165;0;0
Renfe78403;Renfe_Espana_U;0;0;0;165;0;0
Renfe78404;Renfe_Espana_U;0;0;0;165;0;0
Renfe78405;Renfe_Espana_U;0;0;0;165;0;0
Renfe78406;Renfe_Espana_U;0;0;0;165;0;0
Renfe78407;Renfe_Espana_U;0;0;0;165;0;0
Renfe78408;Renfe_Espana_U;0;0;0;165;0;0
Renfe78500;Renfe_Espana_U;0;0;0;165;0;0
Renfe78501;Renfe_Espana_U;0;0;0;165;0;0
Renfe78502;Renfe_Espana_U;0;0;0;165;0;0
Renfe78503;Renfe_Espana_U;0;0;0;165;0;0
Renfe78504;Renfe_Espana_U;0;0;0;165;0;0
Renfe78505;Renfe_Espana_U;0;0;0;165;0;0
Renfe78506;Renfe_Espana_U;0;0;0;165;0;0
Renfe78600;Renfe_Espana_U;0;0;0;165;0;0
Renfe78602;Renfe_Espana_U;0;0;0;165;0;0
Renfe78603;Renfe_Espana_U;0;0;0;165;0;0
Renfe78604;Renfe_Espana_U;0;0;0;165;0;0
Renfe78605;Renfe_Espana_U;0;0;0;165;0;0
Renfe78606;Renfe_Espana_U;0;0;0;165;0;0
Renfe78607;Renfe_Espana_U;0;0;0;165;0;0
Renfe78608;Renfe_Espana_U;0;0;0;165;0;0
Renfe78609;Renfe_Espana_U;0;0;0;165;0;0
Renfe78610;Renfe_Espana_U;0;0;0;165;0;0
Renfe78700;Renfe_Espana_U;0;0;0;165;0;0
Renfe78701;Renfe_Espana_U;0;0;0;165;0;0
Renfe78702;Renfe_Espana_U;0;0;0;165;0;0
Renfe78703;Renfe_Espana_U;0;0;0;165;0;0
Renfe78704;Renfe_Espana_U;0;0;0;165;0;0
Renfe78705;Renfe_Espana_U;0;0;0;165;0;0
Renfe78706;Renfe_Espana_U;0;0;0;165;0;0
Renfe78707;Renfe_Espana_U;0;0;0;165;0;0
Renfe78708;Renfe_Espana_U;0;0;0;165;0;0
Renfe78709;Renfe_Espana_U;0;0;0;165;0;0
Renfe78710;Renfe_Espana_U;0;0;0;165;0;0
Renfe78800;Renfe_Espana_U;0;0;0;165;0;0
Renfe78801;Renfe_Espana_U;0;0;0;165;0;0
Renfe78802;Renfe_Espana_U;0;0;0;165;0;0
Renfe78804;Renfe_Espana_U;0;0;0;165;0;0
Renfe78805;Renfe_Espana_U;0;0;0;165;0;0
Renfe78806;Renfe_Espana_U;0;0;0;165;0;0
Renfe79002;Renfe_Espana_U;0;0;0;165;0;0
Renfe79004;Renfe_Espana_U;0;0;0;165;0;0
Renfe79005;Renfe_Espana_U;0;0;0;165;0;0
Renfe79006;Renfe_Espana_U;0;0;0;165;0;0
Renfe79007;Renfe_Espana_U;0;0;0;165;0;0
Renfe79009;Renfe_Espana_U;0;0;0;165;0;0
Renfe79011;Renfe_Espana_U;0;0;0;165;0;0
Renfe79100;Renfe_Espana_U;0;0;0;165;0;0
Renfe79101;Renfe_Espana_U;0;0;0;165;0;0
Renfe79102;Renfe_Espana_U;0;0;0;165;0;0
Renfe79103;Renfe_Espana_U;0;0;0;165;0;0
Renfe79104;Renfe_Espana_U;0;0;0;165;0;0
Renfe79105;Renfe_Espana_U;0;0;0;165;0;0
Renfe79106;Renfe_Espana_U;0;0;0;165;0;0
Renfe79107;Renfe_Espana_U;0;0;0;165;0;0
Renfe79109;Renfe_Espana_U;0;0;0;165;0;0
Renfe79200;Renfe_Espana_U;0;0;0;165;0;0
Renfe79202;Renfe_Espana_U;0;0;0;165;0;0
Renfe79203;Renfe_Espana_U;0;0;0;165;0;0
Renfe79204;Renfe_Espana_U;0;0;0;165;0;0
Renfe79205;Renfe_Espana_U;0;0;0;165;0;0
Renfe79206;Renfe_Espana_U;0;0;0;165;0;0
Renfe79300;Renfe_Espana_U;0;0;0;165;0;0
Renfe79301;Renfe_Espana_U;0;0;0;165;0;0
Renfe79302;Renfe_Espana_U;0;0;0;165;0;0
Renfe79303;Renfe_Espana_U;0;0;0;165;0;0
Renfe79304;Renfe_Espana_U;0;0;0;165;0;0
Renfe79305;Renfe_Espana_U;0;0;0;165;0;0
Renfe79306;Renfe_Espana_U;0;0;0;165;0;0
Renfe79308;Renfe_Espana_U;0;0;0;165;0;0
Renfe79309;Renfe_Espana_U;0;0;0;165;0;0
Renfe79311;Renfe_Espana_U;0;0;0;165;0;0
Renfe79312;Renfe_Espana_U;0;0;0;165;0;0
Renfe79313;Renfe_Espana_U;0;0;0;165;0;0
Renfe79314;Renfe_Espana_U;0;0;0;165;0;0
Renfe79315;Renfe_Espana_U;0;0;0;165;0;0
Renfe79333;Renfe_Espana_U;0;0;0;165;0;0
Renfe79400;Renfe_Espana_U;0;0;0;165;0;0
Renfe79403;Renfe_Espana_U;0;0;0;165;0;0
Renfe79404;Renfe_Espana_U;0;0;0;165;0;0
Renfe79405;Renfe_Espana_U;0;0;0;165;0;0
Renfe79406;Renfe_Espana_U;0;0;0;165;0;0
Renfe79407;Renfe_Espana_U;0;0;0;165;0;0
Renfe79408;Renfe_Espana_U;0;0;0;165;0;0
Renfe79409;Renfe_Espana_U;0;0;0;165;0;0
Renfe79410;Renfe_Espana_U;0;0;0;165;0;0
Renfe79412;Renfe_Espana_U;0;0;0;165;0;0
Renfe79500;Renfe_Espana_U;0;0;0;165;0;0
Renfe79501;Renfe_Espana_U;0;0;0;165;0;0
Renfe79502;Renfe_Espana_U;0;0;0;165;0;0
Renfe79600;Renfe_Espana_U;0;0;0;165;0;0
Renfe79601;Renfe_Espana_U;0;0;0;165;0;0
Renfe79602;Renfe_Espana_U;0;0;0;165;0;0
Renfe79603;Renfe_Espana_U;0;0;0;165;0;0
Renfe79604;Renfe_Espana_U;0;0;0;165;0;0
Renfe79605;Renfe_Espana_U;0;0;0;165;0;0
Renfe79606;Renfe_Espana_U;0;0;0;165;0;0
Renfe79607;Renfe_Espana_U;0;0;0;165;0;0
Renfe79608;Renfe_Espana_U;0;0;0;165;0;0
Renfe80001;Renfe_Espana_U;0;0;0;165;0;0
Renfe80002;Renfe_Espana_U;0;0;0;165;0;0
Renfe80003;Renfe_Espana_U;0;0;0;165;0;0
Renfe80004;Renfe_Espana_U;0;0;0;165;0;0
Renfe80005;Renfe_Espana_U;0;0;0;165;0;0
Renfe80006;Renfe_Espana_U;0;0;0;165;0;0
Renfe80007;Renfe_Espana_U;0;0;0;165;0;0
Renfe80008;Renfe_Espana_U;0;0;0;165;0;0
Renfe80100;Renfe_Espana_U;0;0;0;165;0;0
Renfe80102;Renfe_Espana_U;0;0;0;165;0;0
Renfe80103;Renfe_Espana_U;0;0;0;165;0;0
Renfe80104;Renfe_Espana_U;0;0;0;165;0;0
Renfe80105;Renfe_Espana_U;0;0;0;165;0;0
Renfe80106;Renfe_Espana_U;0;0;0;165;0;0
Renfe80108;Renfe_Espana_U;0;0;0;165;0;0
Renfe80109;Renfe_Espana_U;0;0;0;165;0;0
Renfe80111;Renfe_Espana_U;0;0;0;165;0;0
Renfe80113;Renfe_Espana_U;0;0;0;165;0;0
Renfe80114;Renfe_Espana_U;0;0;0;165;0;0
Renfe80115;Renfe_Espana_U;0;0;0;165;0;0
Renfe80116;Renfe_Espana_U;0;0;0;165;0;0
Renfe81001;Renfe_Espana_U;0;0;0;165;0;0
Renfe81002;Renfe_Espana_U;0;0;0;165;0;0
Renfe81003;Renfe_Espana_U;0;0;0;165;0;0
Renfe81004;Renfe_Espana_U;0;0;0;165;0;0
Renfe81005;Renfe_Espana_U;0;0;0;165;0;0
Renfe81006;Renfe_Espana_U;0;0;0;165;0;0
Renfe81010;Renfe_Espana_U;0;0;0;165;0;0
Renfe81011;Renfe_Espana_U;0;0;0;165;0;0
Renfe81100;Renfe_Espana_U;0;0;0;165;0;0
Renfe81101;Renfe_Espana_U;0;0;0;165;0;0
Renfe81102;Renfe_Espana_U;0;0;0;165;0;0
Renfe81103;Renfe_Espana_U;0;0;0;165;0;0
Renfe81105;Renfe_Espana_U;0;0;0;165;0;0
Renfe81106;Renfe_Espana_U;0;0;0;165;0;0
Renfe81107;Renfe_Espana_U;0;0;0;165;0;0
Renfe81108;Renfe_Espana_U;0;0;0;165;0;0
Renfe81109;Renfe_Espana_U;0;0;0;165;0;0
Renfe81110;Renfe_Espana_U;0;0;0;165;0;0
Renfe81200;Renfe_Espana_U;0;0;0;165;0;0
Renfe81202;Renfe_Espana_U;0;0;0;165;0;0
Renfe81203;Renfe_Espana_U;0;0;0;165;0;0
Renfe81204;Renfe_Espana_U;0;0;0;165;0;0
Renfe81205;Renfe_Espana_U;0;0;0;165;0;0
Renfe81206;Renfe_Espana_U;0;0;0;165;0;0
Renfe81207;Renfe_Espana_U;0;0;0;165;0;0
Renfe81208;Renfe_Espana_U;0;0;0;165;0;0
Renfe81209;Renfe_Espana_U;0;0;0;165;0;0
Renfe81210;Renfe_Espana_U;0;0;0;165;0;0
Renfe81211;Renfe_Espana_U;0;0;0;165;0;0
Renfe82100;Renfe_Espana_U;0;0;0;165;0;0
Renfe83006;Renfe_Espana_U;0;0;0;165;0;0
Renfe83007;Renfe_Espana_U;0;0;0;165;0;0
Renfe83009;Renfe_Espana_U;0;0;0;165;0;0
Renfe83011;Renfe_Espana_U;0;0;0;165;0;0
Renfe83012;Renfe_Espana_U;0;0;0;165;0;0
Renfe84003;Renfe_Espana_U;0;0;0;165;0;0
Renfe84100;Renfe_Espana_U;0;0;0;165;0;0
Renfe84101;Renfe_Espana_U;0;0;0;165;0;0
Renfe84103;Renfe_Espana_U;0;0;0;165;0;0
Renfe84104;Renfe_Espana_U;0;0;0;165;0;0
Renfe92001;Renfe_Espana_U;0;0;0;165;0;0
Renfe92102;Renfe_Espana_U;0;0;0;165;0;0
Renfe94002;Renfe_Espana_U;0;0;0;165;0;0
Renfe94004;Renfe_Espana_U;0;0;0;165;0;0
Renfe94005;Renfe_Espana_U;0;0;0;165;0;0
Renfe95100;Renfe_Espana_U;0;0;0;165;0;0
Renfe97000;Renfe_Espana_U;0;0;0;165;0;0
Renfe97001;Renfe_Espana_U;0;0;0;165;0;0
Renfe97002;Renfe_Espana_U;0;0;0;165;0;0
Renfe97003;Renfe_Espana_U;0;0;0;165;0;0
Renfe97004;Renfe_Espana_U;0;0;0;165;0;0
Renfe97005;Renfe_Espana_U;0;0;0;165;0;0
Renfe97006;Renfe_Espana_U;0;0;0;165;0;0
Renfe97007;Renfe_Espana_U;0;0;0;165;0;0
Renfe97008;Renfe_Espana_U;0;0;0;165;0;0
Renfe97009;Renfe_Espana_U;0;0;0;165;0;0
Renfe97010;Renfe_Espana_U;0;0;0;165;0;0
Renfe97012;Renfe_Espana_U;0;0;0;165;0;0
Renfe97013;Renfe_Espana_U;0;0;0;165;0;0
Renfe97014;Renfe_Espana_U;0;0;0;165;0;0
Renfe97015;Renfe_Espana_U;0;0;0;165;0;0
Renfe97016;Renfe_Espana_U;0;0;0;165;0;0
Renfe97017;Renfe_Espana_U;0;0;0;165;0;0
Renfe97018;Renfe_Espana_U;0;0;0;165;0;0
Renfe97100;Renfe_Espana_U;0;0;0;165;0;0
Renfe97103;Renfe_Espana_U;0;0;0;165;0;0
Renfe97200;Renfe_Espana_U;0;0;0;165;0;0
Renfe97201;Renfe_Espana_U;0;0;0;165;0;0
Renfe98000;Renfe_Espana_U;0;0;0;165;0;0
Renfe98001;Renfe_Espana_U;0;0;0;165;0;0
Renfe98003;Renfe_Espana_U;0;0;0;165;0;0
Renfe98100;Renfe_Espana_U;0;0;0;165;0;0
Renfe98103;Renfe_Espana_U;0;0;0;165;0;0
Renfe98304;Renfe_Espana_U;0;0;0;165;0;0
Renfe98305;Renfe_Espana_U;0;0;0;165;0;0
Renfe99000;Renfe_Espana_U;0;0;0;165;0;0
Renfe99117;Renfe_Espana_U;0;0;0;165;0;0
Renfe99130;Renfe_Espana_U;0;0;0;165;0;0
Renfe99132;Renfe_Espana_U;0;0;0;165;0;0
Renfe99140;Renfe_Espana_U;0;0;0;165;0;0
Renfe99143;Renfe_Espana_U;0;0;0;165;0;0
Renfe99149;Renfe_Espana_U;0;0;0;165;0;0
Renfe99159;Renfe_Espana_U;0;0;0;165;0;0
Renfe99161;Renfe_Espana_U;0;0;0;165;0;0
Renfe99166;Renfe_Espana_U;0;0;0;165;0;0
Renfe99172;Renfe_Espana_U;0;0;0;165;0;0
Renfe99173;Renfe_Espana_U;0;0;0;165;0;0
Renfe99174;Renfe_Espana_U;0;0;0;165;0;0
Renfe99176;Renfe_Espana_U;0;0;0;165;0;0
Renfe99177;Renfe_Espana_U;0;0;0;165;0;0
Renfe99180;Renfe_Espana_U;0;0;0;165;0;0
Renfe99203;Renfe_Espana_U;0;0;0;165;0;0
Renfe99204;Renfe_Espana_U;0;0;0;165;0;0
Renfe99205;Renfe_Espana_U;0;0;0;165;0;0
Renfe99206;Renfe_Espana_U;0;0;0;165;0;0
Renfe99207;Renfe_Espana_U;0;0;0;165;0;0
Renfe99208;Renfe_Espana_U;0;0;0;165;0;0
Renfe99209;Renfe_Espana_U;0;0;0;165;0;0
Renfe99210;Renfe_Espana_U;0;0;0;165;0;0
Renfe99211;Renfe_Espana_U;0;0;0;165;0;0
Renfe99212;Renfe_Espana_U;0;0;0;0;0;166
Renfe99213;Renfe_Espana_U;0;0;0;165;0;0
Renfe99214;Renfe_Espana_U;0;0;0;165;0;0
Renfe99215;Renfe_Espana_U;0;0;0;165;0;0
Renfe99216;Renfe_Espana_U;0;0;0;165;0;0
