id;idExterne;nom;exploitant;latitude;longitude;couleur;couleurEvolution;vCreation;vMaj;vSuppression
IP000001;IP000001;Caminha;CP;41.873980633598;-8.83443958725155;0;7;165;0;0
IP000002;IP000002;Carvalha;CP;41.9798852029995;-8.70248953271651;1;4;165;0;0
IP000003;IP000003;Maceda;CP;40.91217948082;-8.62405630660586;2;0;165;0;0
IP000004;IP000004;Tamel;CP;41.6087972190013;-8.63481670448441;3;0;165;0;0
IP000005;IP000005;Santos;CP;38.7061550737527;-9.15531224702116;4;2;165;0;0
IP000006;IP000006;Valença;CP;42.0238283447316;-8.63964478198924;5;4;165;0;0
IP000007;IP000007;Moscavide;CP;38.7782257455721;-9.09967262519624;6;7;165;0;0
IP000008;IP000008;Midões;CP;41.5082511221536;-8.58189906484261;7;5;165;0;0
IP000009;IP000009;São João da Madeira;CP;40.8985851801193;-8.49525390246583;0;3;165;0;0
IP000010;IP000010;Vila das Aves;CP;41.3575039387891;-8.40617588890394;1;6;165;0;0
IP000011;IP000011;São Pedro da Torre;CP;41.9936333586995;-8.66637114081578;2;4;165;0;0
IP000012;IP000012;Tua;CP;41.2073729079988;-7.42012851104736;3;6;165;0;0
IP000013;IP000013;Espinho-Vouga;CP;41.0021495358708;-8.64348070237104;4;1;165;0;0
IP000014;IP000014;Silva;CP;41.5659845527849;-8.62776306493636;5;2;165;0;0
IP000015;IP000015;Vila Nova da Raínha;CP;39.0361926145083;-8.92836579192735;6;1;165;0;0
IP000016;IP000016;Estarreja;CP;40.7511265913834;-8.57545005503537;7;0;165;0;0
IP000017;IP000017;Branca;CP;40.7650548119802;-8.48310513563968;0;6;165;0;0
IP000018;IP000018;Valongo-Vouga;CP;40.6241595062801;-8.44993569377733;1;6;165;0;0
IP000019;IP000019;Mirão;CP;41.117518883331;-7.97279731053106;2;7;165;0;0
IP000020;IP000020;Oliveira;CP;41.2572249048218;-8.19927902037939;3;6;165;0;0
IP000021;IP000021;Famalicão;CP;41.4049565317523;-8.52952202075487;4;5;165;0;0
IP000022;IP000022;Covas;CP;41.4214918495554;-8.30089101336551;5;2;165;0;0
IP000023;IP000023;Darque;CP;41.680212080671;-8.78195519654953;6;4;165;0;0
IP000024;IP000024;Seiça-Ourém;CP;39.6783670816776;-8.5079681571555;7;2;165;0;0
IP000025;IP000025;Alferrarede;CP;39.4736989230627;-8.18686535321359;0;3;165;0;0
IP000026;IP000026;Fernando Pó;CP;38.6364078412841;-8.69185879608252;1;4;165;0;0
IP000027;IP000027;Aveiro - Vouga;CP;40.6433067751576;-8.64023753881796;2;0;165;0;0
IP000028;IP000028;São Romão;CP;41.2775688200026;-8.55410238893778;3;4;165;0;0
IP000029;IP000029;Freixo de Numão;CP;41.1346491252405;-7.21140089075715;4;3;165;0;0
IP000030;IP000030;Benquerenças;CP;39.7882196241064;-7.56221628216054;5;1;165;0;0
IP000031;IP000031;Fungalvaz Resguardo;CP;39.5970360858688;-8.48580134825611;6;1;165;0;0
IP000032;IP000032;Alcainça-Moinhos;CP;38.9162154494185;-9.28307490178582;7;2;165;0;0
IP000033;IP000033;Pereirinhas;CP;41.3774102461672;-8.324124874293;0;3;165;0;0
IP000034;IP000034;São Frutuoso;CP;41.2583563303685;-8.55814303210281;1;5;165;0;0
IP000035;IP000035;Vila Franca de Xira;CP;38.9551347078311;-8.98630847591552;2;5;165;0;0
IP000036;IP000036;Couto de Cucujães;CP;40.8682528784269;-8.49416032004256;3;4;165;0;0
IP000037;IP000037;Oliveira de Azeméis;CP;40.8403422556728;-8.48180899360208;4;7;165;0;0
IP000038;IP000038;Afife;CP;41.7753805710955;-8.86147113818061;5;2;165;0;0
IP000039;IP000039;Simões;CP;40.0107804927538;-8.6335316126703;6;4;165;0;0
IP000040;IP000040;Taipa - Requeixo;CP;40.601151992108;-8.52379298938749;7;2;165;0;0
IP000041;IP000041;Carreço;CP;41.7504158874616;-8.86333285110867;0;7;165;0;0
IP000042;IP000042;Marco de Canaveses;CP;41.1809612250522;-8.13687503510551;1;3;165;0;0
IP000043;IP000043;Vila Nova de Anços;CP;40.1072012459683;-8.63766125302671;2;4;165;0;0
IP000044;IP000044;Sanfins;CP;40.926682182799;-8.53095595365801;3;2;165;0;0
IP000045;IP000045;São Mamede de Infesta;CP;41.1903122055659;-8.61335763468425;4;1;165;0;0
IP000046;IP000046;Ferreiros;CP;41.5308040245183;-8.44149884185309;5;6;165;0;0
IP000047;IP000047;Contumil;CP;41.1687114091084;-8.57477765839347;6;1;165;0;0
IP000048;IP000048;Meinedo;CP;41.2487666977941;-8.25872161552681;7;6;165;0;0
IP000049;IP000049;Rio Tinto;CP;41.1845915817545;-8.55709595657238;0;1;165;0;0
IP000050;IP000050;Cête;CP;41.1722013370919;-8.35404802078825;1;5;165;0;0
IP000051;IP000051;Vila Meã;CP;41.245328957297;-8.18432009840738;2;5;165;0;0
IP000052;IP000052;Caxarias;CP;39.7145799102936;-8.54564744804034;3;6;165;0;0
IP000053;IP000053;Entroncamento;CP;39.4617099196554;-8.47388475349793;4;1;165;0;0
IP000054;IP000054;Senhora da Agonia;CP;41.8696533201957;-8.84336290042454;5;6;165;0;0
IP000055;IP000055;Ermida;CP;41.1242907930855;-7.95086632212995;6;4;165;0;0
IP000056;IP000056;Mealhada Norte;CP;40.3886625239935;-8.45328889105476;7;5;165;0;0
IP000057;IP000057;Avanca;CP;40.8074813639737;-8.58480106270693;0;6;165;0;0
IP000058;IP000058;Santana Cartaxo Resguardo;CP;39.1674910922592;-8.74547401364484;1;2;165;0;0
IP000059;IP000059;Braga;CP;41.5485953198709;-8.4343692708978;2;7;165;0;0
IP000060;IP000060;Cuca;CP;41.3764952577505;-8.3419320857561;3;7;165;0;0
IP000061;IP000061;Travassô;CP;40.5942498136685;-8.51454466373954;4;7;165;0;0
IP000062;IP000062;Salreu;CP;40.7291714430664;-8.56495464815718;5;3;165;0;0
IP000063;IP000063;São João de Ver;CP;40.9553960704169;-8.55103322722771;6;5;165;0;0
IP000064;IP000064;Pelariga;CP;39.9675559850571;-8.63318728829947;7;2;165;0;0
IP000065;IP000065;Meia Praia;CP;37.1186095801613;-8.64745386540775;0;2;165;0;0
IP000066;IP000066;Castanheira do Ribatejo;CP;38.9879124425175;-8.96606121837561;1;0;165;0;0
IP000067;IP000067;Granja;CP;41.0384730859071;-8.6471046393754;2;0;165;0;0
IP000068;IP000068;Ul;CP;40.8232005936;-8.49116528462113;3;5;165;0;0
IP000069;IP000069;Monte de Paramos;CP;40.9823317951945;-8.62575780461057;4;7;165;0;0
IP000070;IP000070;Bobadela;CP;38.8078452934614;-9.09426991356847;5;0;165;0;0
IP000071;IP000071;Livração;CP;41.2168674292926;-8.15565920676291;6;1;165;0;0
IP000072;IP000072;Algés;CP;38.6983298250485;-9.22945300148066;7;4;165;0;0
IP000073;IP000073;Francelos;CP;41.0815622883296;-8.64747849847729;0;1;165;0;0
IP000074;IP000074;Olhão;CP;37.030337571271;-7.83979750588459;1;6;165;0;0
IP000075;IP000075;Tavira;CP;37.1209761565714;-7.65574093345463;2;0;165;0;0
IP000076;IP000076;Oronhe;CP;40.5724353345454;-8.47790583532737;3;1;165;0;0
IP000077;IP000077;Paços de Brandão;CP;40.9721185614627;-8.58444936212316;4;7;165;0;0
IP000078;IP000078;Pinheiro da Bemposta;CP;40.7835787010632;-8.48688141019922;5;1;165;0;0
IP000079;IP000079;Setúbal-Mar;CP;38.5200838788079;-8.87911935562367;6;1;165;0;0
IP000080;IP000080;Bobadela Sul (Inserção C. Mer. Bobadela lado Oriente);CP;38.8028499006554;-9.09681357676139;7;4;165;0;0
IP000081;IP000081;Casal do Álvaro;CP;40.5794300264161;-8.48793976591505;0;7;165;0;0
IP000082;IP000082;Pereira;CP;40.1863658716051;-8.58493875250155;1;0;165;0;0
IP000083;IP000083;Albergaria-a-Velha;CP;40.6902167360501;-8.47947469799555;2;4;165;0;0
IP000084;IP000084;Taveiro;CP;40.2059068674042;-8.50028852402186;3;2;165;0;0
IP000085;IP000085;Santiago de Riba-Ul;CP;40.851302112539;-8.48960749691082;4;7;165;0;0
IP000086;IP000086;Espinho;CP;41.0065134824957;-8.6443461081905;5;4;165;0;0
IP000087;IP000087;Paraimo;CP;40.4811423583619;-8.48008943825113;6;5;165;0;0
IP000088;IP000088;Carapeços;CP;41.5859201621728;-8.63269494213237;7;0;165;0;0
IP000089;IP000089;Recezinhos;CP;41.2305835105343;-8.174801042343;0;2;165;0;0
IP000090;IP000090;Esmeriz;CP;41.3795078913824;-8.52149927855785;1;0;165;0;0
IP000091;IP000091;Trancoso;CP;41.1612591198919;-8.41893292905032;2;5;165;0;0
IP000092;IP000092;Aveleda;CP;41.5201247539834;-8.46837354818246;3;2;165;0;0
IP000093;IP000093;Vila Pouca do Campo;CP;40.1929873853082;-8.52505011648509;4;7;165;0;0
IP000094;IP000094;Curia;CP;40.424379911657;-8.45611937850905;5;2;165;0;0
IP000095;IP000095;Terronhas;CP;41.1637181688336;-8.437251200526;6;7;165;0;0
IP000096;IP000096;Senhora das Neves;CP;41.6467065504102;-8.72096814900185;7;0;165;0;0
IP000097;IP000097;Carregado Norte;CP;39.019494086207;-8.94379692561171;0;7;165;0;0
IP000098;IP000098;General Torres;CP;41.1332303207509;-8.60843446576361;1;7;165;0;0
IP000099;IP000099;Coimbra B;CP;40.2247158807784;-8.44050133618852;2;3;165;0;0
IP000100;IP000100;Mazagão;CP;41.5269126816892;-8.45834671195984;3;2;165;0;0
IP000101;IP000101;Portela;CP;41.3021161032745;-8.54935863646074;4;3;165;0;0
IP000102;IP000102;Mouquim;CP;41.4289421914414;-8.52201234660367;5;4;165;0;0
IP000103;IP000103;Castelo Novo;CP;40.0644090264975;-7.46074427501325;6;2;165;0;0
IP000104;IP000104;Giesteira;CP;41.3645408587218;-8.38888850706728;7;0;165;0;0
IP000105;IP000105;Seixas;CP;41.8963190396743;-8.81934509309092;0;6;165;0;0
IP000106;IP000106;Vermoil;CP;39.850879076286;-8.65228087425821;1;0;165;0;0
IP000107;IP000107;Ruílhe;CP;41.4976244816051;-8.49630017841507;2;0;165;0;0
IP000108;IP000108;Mato Miranda;CP;39.3684807372853;-8.55435142489592;3;7;165;0;0
IP000109;IP000109;Tadim;CP;41.5089212197966;-8.48331041678105;4;1;165;0;0
IP000110;IP000110;Carvalhal da Portela;CP;40.6354072590258;-8.45285304244804;5;1;165;0;0
IP000111;IP000111;Fontela;CP;40.141883928111;-8.81377949689381;6;5;165;0;0
IP000112;IP000112;Ferradosa;CP;41.1445235423786;-7.33156987474685;7;0;165;0;0
IP000113;IP000113;Tojeirinha;CP;39.7167609399737;-7.68178454517169;0;2;165;0;0
IP000114;IP000114;Irivo;CP;41.1816176907645;-8.34202017490157;1;6;165;0;0
IP000115;IP000115;Martingança;CP;39.687249285866;-8.94581368934396;2;5;165;0;0
IP000116;IP000116;Coimbra;CP;40.2088832857133;-8.43223681742236;3;2;165;0;0
IP000117;IP000117;São Romão - A;CP;41.2725679586481;-8.55926962468688;4;1;165;0;0
IP000118;IP000118;Pedra Furada;CP;38.8701052387762;-9.29551880451606;5;1;165;0;0
IP000119;IP000119;Gata;CP;40.5217913909553;-7.21448382734997;6;2;165;0;0
IP000120;IP000120;Curvaceiras;CP;39.5478684259907;-8.42990783953687;7;2;165;0;0
IP000121;IP000121;Rede;CP;41.1607422118194;-7.86583095144616;0;4;165;0;0
IP000122;IP000122;Madalena;CP;41.1114767788251;-8.63776810048166;1;4;165;0;0
IP000123;IP000123;Cortegaça;CP;40.940639892593;-8.63024479950785;2;3;165;0;0
IP000124;IP000124;Pala;CP;41.1036152703061;-8.0909862972552;3;7;165;0;0
IP000125;IP000125;Gondarém;CP;41.9200438263818;-8.7630174424979;4;7;165;0;0
IP000126;IP000126;Santa Iria;CP;38.840921769052;-9.08033345892136;5;7;165;0;0
IP000127;IP000127;Torres Vedras;CP;39.0927295101989;-9.25439431983421;6;3;165;0;0
IP000128;IP000128;Caldas de Moledo;CP;41.1528986941448;-7.82669933432804;7;2;165;0;0
IP000129;IP000129;Mealhada;CP;40.3750832656362;-8.453838029928;0;3;165;0;0
IP000130;IP000130;Travanca-Macinhata;CP;40.8149116757523;-8.48134862364641;1;3;165;0;0
IP000131;IP000131;Pombal Resguardo;CP;39.9000146306872;-8.62967147190421;2;5;165;0;0
IP000132;IP000132;Soure;CP;40.0549874683923;-8.63947915034016;3;0;165;0;0
IP000133;IP000133;Belmonte-Manteigas;CP;40.3333026620343;-7.33627050003176;4;6;165;0;0
IP000134;IP000134;Oliveirinha Cabanas;CP;40.450367350248;-7.96331941834629;5;0;165;0;0
IP000135;IP000135;Bagaúste;CP;41.1470886490322;-7.73361029756694;6;1;165;0;0
IP000136;IP000136;Tramagal;CP;39.4604224531978;-8.24802900096547;7;2;165;0;0
IP000137;IP000137;Fanhais;CP;39.6255147224614;-8.99924840141566;0;7;165;0;0
IP000138;IP000138;Vila da Feira;CP;40.9243179340952;-8.53543370535195;1;6;165;0;0
IP000139;IP000139;Bencanta;CP;40.2144788497413;-8.45627363568902;2;5;165;0;0
IP000140;IP000140;Paramos;CP;40.9755047397127;-8.6368509372179;3;2;165;0;0
IP000141;IP000141;Carregal do Sal;CP;40.4332965158396;-8.00759311243783;4;3;165;0;0
IP000142;IP000142;Senhora das Dores;CP;41.3223024555678;-8.55188773547382;5;6;165;0;0
IP000143;IP000143;Águas Santas;CP;41.1994127788838;-8.55616415305474;6;2;165;0;0
IP000144;IP000144;São Gemil;CP;41.1970937970757;-8.57897005769586;7;0;165;0;0
IP000145;IP000145;Monte Redondo;CP;39.900331574706;-8.83436787778288;0;5;165;0;0
IP000146;IP000146;Barroselas;CP;41.6462543686734;-8.70114022681385;1;3;165;0;0
IP000147;IP000147;Belver;CP;39.4919814092458;-7.95870584661465;2;0;165;0;0
IP000148;IP000148;Faria;CP;40.8792318512184;-8.49496352533997;3;0;165;0;0
IP000149;IP000149;Escapães;CP;40.9196593099345;-8.51641377126733;4;7;165;0;0
IP000150;IP000150;Aguim;CP;40.4154070265123;-8.45680417152622;5;2;165;0;0
IP000151;IP000151;Mosteirô;CP;41.094587348207;-8.06934077003701;6;1;165;0;0
IP000152;IP000152;Lardosa;CP;39.9886582697462;-7.44091601953702;7;6;165;0;0
IP000153;IP000153;Paúl;CP;39.2942008923062;-9.16266933351324;0;4;165;0;0
IP000154;IP000154;Dois Portos;CP;39.04257008927;-9.18465631608446;1;4;165;0;0
IP000155;IP000155;Recarei - Sobreira;CP;41.1537833755382;-8.39909173532153;2;4;165;0;0
IP000156;IP000156;Adémia;CP;40.2509255950166;-8.45034188292548;3;1;165;0;0
IP000157;IP000157;Caniços;CP;41.3636734952869;-8.4376649774192;4;3;165;0;0
IP000158;IP000158;Donas;CP;40.1326201750324;-7.47360726822463;5;2;165;0;0
IP000159;IP000159;Lapa do Lobo;CP;40.4755792636777;-7.9197017455194;6;2;165;0;0
IP000160;IP000160;Ameal;CP;40.1923690396236;-8.54412618434246;7;4;165;0;0
IP000161;IP000161;Régua;CP;41.1586474348646;-7.78355361713489;0;5;165;0;0
IP000162;IP000162;Valadares;CP;41.0992290743387;-8.63200001522142;1;2;165;0;0
IP000163;IP000163;Barracão-Sabugal;CP;40.5115531129378;-7.2389272730332;2;5;165;0;0
IP000164;IP000164;Valado;CP;39.5845107076793;-9.01767285192511;3;1;165;0;0
IP000165;IP000165;Soito;CP;40.4149380710781;-8.30191842009302;4;1;165;0;0
IP000166;IP000166;Pinhão;CP;41.1903823346298;-7.54517397201114;5;3;165;0;0
IP000167;IP000167;Campo-Serra;CP;39.4354141078802;-9.14984575114756;6;1;165;0;0
IP000168;IP000168;Pampilhosa;CP;40.338076919317;-8.43133428686294;7;1;165;0;0
IP000169;IP000169;Évora;CP;38.5604819802478;-7.90721122856131;0;5;165;0;0
IP000170;IP000170;Bombarral;CP;39.2651108115367;-9.15335341128167;1;2;165;0;0
IP000171;IP000171;Arentim;CP;41.4904134682861;-8.50828347318432;2;1;165;0;0
IP000172;IP000172;Parada;CP;41.1602326113132;-8.37126101421257;3;1;165;0;0
IP000173;IP000173;Luz;CP;37.0888564462759;-7.69999176096393;4;7;165;0;0
IP000174;IP000174;Penteado;CP;38.6381427236946;-8.95617078444028;5;0;165;0;0
IP000175;IP000175;Portela de Sintra;CP;38.8022367740123;-9.37672395530338;6;7;165;0;0
IP000176;IP000176;Lavradio;CP;38.6618220934432;-9.05828241743887;7;2;165;0;0
IP000177;IP000177;Porto de Sines;CP;37.940249819435;-8.8456314842194;0;6;165;0;0
IP000178;IP000178;Feliteira;CP;39.0224183480294;-9.17935175205058;1;2;165;0;0
IP000179;IP000179;Guimarães;CP;41.43510773263;-8.29378626511864;2;3;165;0;0
IP000180;IP000180;Lapa;CP;40.9837149609943;-8.6052299641017;3;7;165;0;0
IP000181;IP000181;Oiã;CP;40.5435572490379;-8.54992507119105;4;7;165;0;0
IP000182;IP000182;Suzão;CP;41.1973022992328;-8.50271502246197;5;2;165;0;0
IP000183;IP000183;Virtudes;CP;39.0865113971197;-8.82805459677843;6;1;165;0;0
IP000184;IP000184;Nespereira;CP;41.4031971844826;-8.31958021304006;7;1;165;0;0
IP000185;IP000185;Algoz;CP;37.167831135462;-8.30292041874144;0;5;165;0;0
IP000186;IP000186;Areia - Darque;CP;41.6841469997402;-8.79928341947893;1;7;165;0;0
IP000187;IP000187;Lordelo;CP;41.3654684327069;-8.36373302049395;2;1;165;0;0
IP000188;IP000188;Albergaria-a-Nova;CP;40.7443116277681;-8.4893433786451;3;4;165;0;0
IP000189;IP000189;Tortosendo;CP;40.239064640332;-7.51233861693032;4;6;165;0;0
IP000190;IP000190;Casais;CP;40.2047474238797;-8.4841880338039;5;3;165;0;0
IP000191;IP000191;Cela;CP;39.5535440891104;-9.05513406196;6;2;165;0;0
IP000192;IP000192;Ródão;CP;39.655187153837;-7.6727946133208;7;4;165;0;0
IP000193;IP000193;Carriço;CP;39.9806077285146;-8.8111177558668;0;7;165;0;0
IP000194;IP000194;Espadanal da Azambuja;CP;39.050221930047;-8.90371052554479;1;6;165;0;0
IP000195;IP000195;Couto de Cambeses;CP;41.4818027762624;-8.5287269658778;2;3;165;0;0
IP000196;IP000196;Parede;CP;38.6897347778628;-9.35638896610303;3;1;165;0;0
IP000197;IP000197;Vesúvio;CP;41.1413399966907;-7.26170984420428;4;3;165;0;0
IP000198;IP000198;Fundão;CP;40.1413902830838;-7.49641900627341;5;3;165;0;0
IP000199;IP000199;São Martinho do Porto;CP;39.5081668170978;-9.13319641746694;6;3;165;0;0
IP000200;IP000200;Quinta do Valongo - Vacariça;CP;40.3567106733459;-8.41219099029516;7;3;165;0;0
IP000201;IP000201;Oleiros;CP;41.1936855362785;-8.33743984965078;0;7;165;0;0
IP000202;IP000202;Alhandra;CP;38.9240327904689;-9.01137979947403;1;4;165;0;0
IP000203;IP000203;Areosa;CP;41.7204824924052;-8.85527998203101;2;0;165;0;0
IP000204;IP000204;Vale de Figueira;CP;39.3138092614161;-8.62995520148487;3;6;165;0;0
IP000205;IP000205;Juncal;CP;41.1406659727193;-8.11941461755462;4;2;165;0;0
IP000206;IP000206;São Martinho do Campo;CP;41.1702346047676;-8.46833570925199;5;2;165;0;0
IP000207;IP000207;Paialvo;CP;39.5799116267983;-8.4740519364191;6;5;165;0;0
IP000208;IP000208;Vila Nova da Cerveira;CP;41.936028867029;-8.74827817890672;7;4;165;0;0
IP000209;IP000209;Leandro;CP;41.2437657132331;-8.55668090174821;0;7;165;0;0
IP000210;IP000210;Vargelas;CP;41.1431083660324;-7.31603843311074;1;4;165;0;0
IP000211;IP000211;Noémi;CP;40.5342615782922;-6.97672417279519;2;7;165;0;0
IP000212;IP000212;Vilela - Fornos;CP;40.2632628641764;-8.44131481818923;3;2;165;0;0
IP000213;IP000213;Alcaide;CP;40.1338970353547;-7.44878767323454;4;3;165;0;0
IP000214;IP000214;Pinhel;CP;40.7111122646769;-7.24963491331079;5;3;165;0;0
IP000215;IP000215;Soalheira;CP;40.0268872686704;-7.4553277120241;6;7;165;0;0
IP000216;IP000216;Regueira de Pontes;CP;39.7975853956259;-8.83723408551361;7;1;165;0;0
IP000217;IP000217;Mouriscas-A;CP;39.4678271979699;-8.0850164364758;0;3;165;0;0
IP000218;IP000218;Carcavelos;CP;38.6878217744943;-9.337419197925;1;3;165;0;0
IP000219;IP000219;Oeiras;CP;38.6885187960759;-9.31904685941556;2;0;165;0;0
IP000220;IP000220;Leça do Balio;CP;41.2084233967992;-8.62955126179462;3;0;165;0;0
IP000221;IP000221;Barrimau;CP;41.3898361186532;-8.52611975789381;4;7;165;0;0
IP000222;IP000222;Portalegre;CP;39.1988946473695;-7.46112859712183;5;7;165;0;0
IP000223;IP000223;São Mamede;CP;39.3220340990959;-9.17941497202558;6;0;165;0;0
IP000224;IP000224;Telhada;CP;40.0623623386059;-8.76643915780384;7;6;165;0;0
IP000225;IP000225;São Mamede do Tua;CP;41.2132378910529;-7.4348620332089;0;1;165;0;0
IP000226;IP000226;Mouriscas;CP;39.4779103122011;-8.10042640203559;1;2;165;0;0
IP000227;IP000227;Ermesinde;CP;41.2216487794366;-8.54669134737304;2;7;165;0;0
IP000228;IP000228;Bicanho;CP;40.0855946646356;-8.74342850836663;3;2;165;0;0
IP000229;IP000229;Caldas da Rainha;CP;39.4064728265132;-9.1401595583996;4;7;165;0;0
IP000230;IP000230;Luso Buçaco;CP;40.3902658512397;-8.3849783832243;5;0;165;0;0
IP000231;IP000231;Barquinha;CP;39.4615883237865;-8.43521687587098;6;7;165;0;0
IP000232;IP000232;Lares;CP;40.1294708790291;-8.78744266952027;7;4;165;0;0
IP000233;IP000233;Ramalhal;CP;39.1395339962956;-9.21599780343491;0;3;165;0;0
IP000234;IP000234;Carrascal-Delongo;CP;39.5486541726113;-8.46279762670892;1;2;165;0;0
IP000235;IP000235;Gouveia;CP;40.5733606268876;-7.60208854662479;2;1;165;0;0
IP000236;IP000236;Zibreira;CP;39.0060238728538;-9.18346937447035;3;6;165;0;0
IP000237;IP000237;Santo Amaro;CP;38.6869055843568;-9.31202523902204;4;7;165;0;0
IP000238;IP000238;Barqueiros;CP;41.1405565979465;-7.88749229595149;5;7;165;0;0
IP000239;IP000239;Cabêda;CP;41.2206574529199;-8.53610563867141;6;4;165;0;0
IP000240;IP000240;Fratel;CP;39.614014048808;-7.71573632005546;7;5;165;0;0
IP000241;IP000241;Assumar;CP;39.1389163148718;-7.38226689023538;0;7;165;0;0
IP000242;IP000242;Marvila;CP;38.7392423519585;-9.10839471930993;1;0;165;0;0
IP000243;IP000243;Sabugo;CP;38.8305471834048;-9.30002749071951;2;0;165;0;0
IP000244;IP000244;Aldeia;CP;40.6004465561155;-6.88532629118267;3;1;165;0;0
IP000245;IP000245;Alcaria;CP;40.2004865963965;-7.51746065481793;4;3;165;0;0
IP000246;IP000246;Bouro;CP;39.4699594554589;-9.15110484419042;5;2;165;0;0
IP000247;IP000247;Cerdeira;CP;40.5114884137267;-7.04792948191259;6;1;165;0;0
IP000248;IP000248;Alpedrinha;CP;40.0951592784934;-7.46195086386698;7;1;165;0;0
IP000249;IP000249;Dagorda - Peniche;CP;39.3444232660736;-9.17244345602744;0;1;165;0;0
IP000250;IP000250;Bifurcação do Luso;CP;40.3845104036282;-8.38973766227678;1;3;165;0;0
IP000251;IP000251;Cais do Sodré;CP;38.7061422890997;-9.14537378582787;2;7;165;0;0
IP000252;IP000252;Bemposta;CP;39.3524507387608;-8.13565673880819;3;6;165;0;0
IP000253;IP000253;Monte Estoril;CP;38.7035715363394;-9.40651188074161;4;1;165;0;0
IP000254;IP000254;Fontela-A;CP;40.1463689863816;-8.82484836045274;5;6;165;0;0
IP000255;IP000255;Retaxo;CP;39.7696632963573;-7.59124592037633;6;4;165;0;0
IP000256;IP000256;Outeiro;CP;39.1912734249233;-9.17717406993602;7;6;165;0;0
IP000257;IP000257;Torre das Vargens;CP;39.3096466618462;-7.90846206024476;0;1;165;0;0
IP000258;IP000258;Fazenda;CP;39.2899445491882;-7.9855121086803;1;0;165;0;0
IP000259;IP000259;Carvalhos de Figueiredo;CP;39.5710542396581;-8.395274349249;2;1;165;0;0
IP000260;IP000260;Guia;CP;39.9481628523681;-8.80175265457669;3;7;165;0;0
IP000261;IP000261;Contenças;CP;40.5670036031426;-7.71551693394868;4;5;165;0;0
IP000262;IP000262;Jerumelo;CP;38.949643288202;-9.23426006198144;5;0;165;0;0
IP000263;IP000263;Torre da Gadanha;CP;38.5828626297506;-8.28745494067123;6;1;165;0;0
IP000264;IP000264;Bombel;CP;38.6867899469691;-8.51230782270059;7;5;165;0;0
IP000265;IP000265;Rio Meão;CP;40.9609724693887;-8.57120123660455;0;3;165;0;0
IP000266;IP000266;Roma - Areeiro;CP;38.7457244237513;-9.13483077785542;1;7;165;0;0
IP000267;IP000267;Entrecampos - Poente;CP;38.7423635312579;-9.15276992608915;2;6;165;0;0
IP000268;IP000268;Sete Rios;CP;38.7400510071545;-9.16695011110446;3;4;165;0;0
IP000269;IP000269;Boliqueime;CP;37.1227445300759;-8.1526663802861;4;6;165;0;0
IP000270;IP000270;Santo Tirso;CP;41.3508149101592;-8.47316742016864;5;0;165;0;0
IP000271;IP000271;Urgueiras;CP;40.7031589463995;-8.48110151556599;6;7;165;0;0
IP000272;IP000272;Chelas;CP;38.7388121730583;-9.11862088794692;7;5;165;0;0
IP000273;IP000273;Alcântara-Mar;CP;38.7023514133178;-9.17402131013895;0;5;165;0;0
IP000274;IP000274;Penalva;CP;38.5896859338976;-8.9957254357049;1;0;165;0;0
IP000275;IP000275;Alcântara-Terra;CP;38.7074346129937;-9.17323798982517;2;1;165;0;0
IP000276;IP000276;Ferragudo;CP;37.1387719748848;-8.51904810188079;3;4;165;0;0
IP000277;IP000277;Cuba;CP;38.1631223755231;-7.89480153116809;4;0;165;0;0
IP000278;IP000278;Mata;CP;39.2804623542023;-7.73374672498411;5;1;165;0;0
IP000279;IP000279;Alvito;CP;38.2327171141359;-8.00001821230996;6;4;165;0;0
IP000280;IP000280;Vila Nova da Baronia;CP;38.2938086636132;-8.03509563744762;7;3;165;0;0
IP000281;IP000281;São João das Craveiras;CP;38.6680242002252;-8.58570072817039;0;6;165;0;0
IP000282;IP000282;Moita;CP;38.6447645278515;-8.99601839687675;1;6;165;0;0
IP000283;IP000283;Agualva-Cacém;CP;38.7664279875861;-9.2984243067838;2;7;165;0;0
IP000284;IP000284;Beja;CP;38.0183688558508;-7.85845703239794;3;7;165;0;0
IP000285;IP000285;Panóias;CP;37.7464531839057;-8.29263690361508;4;3;165;0;0
IP000286;IP000286;Sintra;CP;38.7992926917878;-9.38545027087739;5;3;165;0;0
IP000287;IP000287;Alcáçovas;CP;38.4069321352031;-8.09550687919439;6;7;165;0;0
IP000288;IP000288;Coimbrões;CP;41.1244058217656;-8.63395076734187;7;0;165;0;0
IP000289;IP000289;Pataias;CP;39.655514861801;-8.98489252158113;0;7;165;0;0
IP000290;IP000290;Muxagata;CP;40.6296916115149;-7.47278081473816;1;4;165;0;0
IP000291;IP000291;Almourol;CP;39.4622648379321;-8.37401563172335;2;5;165;0;0
IP000292;IP000292;Verride;CP;40.139587366944;-8.70311407079299;3;2;165;0;0
IP000293;IP000293;Alhos Vedros;CP;38.6518387476175;-9.0266959137265;4;0;165;0;0
IP000294;IP000294;Baixa da Banheira;CP;38.6595643408711;-9.04429569334586;5;6;165;0;0
IP000295;IP000295;Sernada do Vouga;CP;40.6721920285369;-8.45264313810711;6;1;165;0;0
IP000296;IP000296;Oliveira do Bairro;CP;40.5102146786604;-8.49877234372326;7;1;165;0;0
IP000297;IP000297;Rio de Mouro;CP;38.7846551120656;-9.322298171292;0;4;165;0;0
IP000298;IP000298;Barreiro-A;CP;38.6597681252072;-9.07158836249873;1;3;165;0;0
IP000299;IP000299;Barreiro;CP;38.6524853605812;-9.07943837124315;2;5;165;0;0
IP000300;IP000300;Massamá-Barcarena;CP;38.7515058635826;-9.28358833587817;3;4;165;0;0
IP000301;IP000301;Monte Abraão;CP;38.7554256428992;-9.26535120494002;4;0;165;0;0
IP000302;IP000302;Lavre;CP;38.8035593746052;-8.5113003937601;5;2;165;0;0
IP000303;IP000303;São Torcato;CP;38.8462211587831;-8.51193985574717;6;1;165;0;0
IP000304;IP000304;Salgueirinha;CP;38.8949695746954;-8.49948673470603;7;3;165;0;0
IP000305;IP000305;Quintans;CP;40.5909739227335;-8.61265401132181;0;3;165;0;0
IP000306;IP000306;Lousal;CP;38.0407647906075;-8.42289173032341;1;7;165;0;0
IP000307;IP000307;Porto São Bento;CP;41.145566789947;-8.6102211447622;2;1;165;0;0
IP000308;IP000308;Algueirão-Mem Martins;CP;38.7977123643402;-9.34098482147931;3;0;165;0;0
IP000309;IP000309;Lisboa Santa Apolónia;CP;38.7137037947598;-9.12299748890252;4;1;165;0;0
IP000310;IP000310;Morgado;CP;39.1079211703989;-8.73972709016453;5;4;165;0;0
IP000311;IP000311;Chança;CP;39.2757558230443;-7.80788911110618;6;4;165;0;0
IP000312;IP000312;Bifurcação de Lares;CP;40.1223767719806;-8.76472652076888;7;2;165;0;0
IP000313;IP000313;Montemor;CP;40.1601519829893;-8.65406063273383;0;3;165;0;0
IP000314;IP000314;Cruz Quebrada;CP;38.6997976886081;-9.25219662664978;1;6;165;0;0
IP000315;IP000315;Santa Eulália-A;CP;39.006042354796;-7.25340785222764;2;1;165;0;0
IP000316;IP000316;Belém;CP;38.6961678212377;-9.19762258400114;3;0;165;0;0
IP000317;IP000317;Ponte de Sôr;CP;39.2654859156663;-8.01299362867653;4;0;165;0;0
IP000318;IP000318;Coina;CP;38.5846027646426;-9.05150755262781;5;2;165;0;0
IP000319;IP000319;Arrifana;CP;40.9093877310989;-8.50106416796527;6;1;165;0;0
IP000320;IP000320;Pocinho;CP;41.1302742300521;-7.12348530676794;7;6;165;0;0
IP000321;IP000321;Fuseta;CP;37.0603720620835;-7.75198945209595;0;6;165;0;0
IP000322;IP000322;Ourique;CP;37.7456528031119;-8.22666535924411;1;0;165;0;0
IP000323;IP000323;Monte das Flores;CP;38.5230855351979;-7.94721384885652;2;5;165;0;0
IP000324;IP000324;Alcantarilha;CP;37.169887876303;-8.34864811936381;3;7;165;0;0
IP000325;IP000325;Poço Barreto;CP;37.1636119555769;-8.38878317914927;4;0;165;0;0
IP000326;IP000326;Paredes;CP;41.2038715667003;-8.32409255538484;5;4;165;0;0
IP000327;IP000327;Benfica;CP;38.7443124481317;-9.19996568600932;6;5;165;0;0
IP000328;IP000328;São Bartolomeu da Serra;CP;38.013050284912;-8.61771784900134;7;6;165;0;0
IP000329;IP000329;Riachos - Torres Novas - Golegã;CP;39.4321954115297;-8.50456741996643;0;7;165;0;0
IP000330;IP000330;Somincor;CP;38.2633423840196;-8.52689378171609;1;4;165;0;0
IP000331;IP000331;Silves;CP;37.1756463810625;-8.44048820158278;2;0;165;0;0
IP000332;IP000332;Bom João;CP;37.0139938234087;-7.92103273427036;3;6;165;0;0
IP000333;IP000333;Santana Cartaxo;CP;39.1445209267423;-8.75894135176694;4;3;165;0;0
IP000334;IP000334;Pereiras;CP;37.4365190472753;-8.44629044336328;5;0;165;0;0
IP000335;IP000335;Monte Novo-Palma;CP;38.430162558378;-8.63488835938142;6;1;165;0;0
IP000336;IP000336;Aguda;CP;41.0508073348155;-8.65124934286208;7;4;165;0;0
IP000337;IP000337;Azinheira dos Barros – A;CP;38.067653216373;-8.43060475080113;0;3;165;0;0
IP000338;IP000338;Formoselha / Santo Varão;CP;40.1794965512146;-8.60709484779979;1;4;165;0;0
IP000339;IP000339;Almancil;CP;37.0952252084681;-8.02340719579007;2;5;165;0;0
IP000340;IP000340;Agolada;CP;38.9564989599916;-8.56998787782779;3;2;165;0;0
IP000341;IP000341;Fatela-Penamacor;CP;40.1492476059492;-7.41038543267131;4;7;165;0;0
IP000342;IP000342;Alcains;CP;39.9199664885253;-7.43614877824965;5;4;165;0;0
IP000343;IP000343;Silvalde;CP;40.9904320291399;-8.64075552811306;6;1;165;0;0
IP000344;IP000344;Salir do Porto;CP;39.4923855254404;-9.14722050751689;7;5;165;0;0
IP000345;IP000345;Parque das Cidades;CP;37.0802000084195;-7.98485796117799;0;2;165;0;0
IP000346;IP000346;Pero Negro;CP;38.9888387279668;-9.19738711241661;1;3;165;0;0
IP000347;IP000347;Castelejo;CP;40.4080262610715;-8.08434958725338;2;3;165;0;0
IP000348;IP000348;Águeda;CP;40.5774916828854;-8.44823145867377;3;1;165;0;0
IP000349;IP000349;Mortágua;CP;40.3908529657665;-8.24117300911953;4;7;165;0;0
IP000350;IP000350;Figueira da Foz;CP;40.1484239906851;-8.84729287316934;5;4;165;0;0
IP000351;IP000351;Barcelos;CP;41.5366366913358;-8.6090469540773;6;1;165;0;0
IP000352;IP000352;Monte dos Lobos;CP;40.4082056358991;-8.26454073842059;7;6;165;0;0
IP000353;IP000353;Estômbar-Lagoa;CP;37.1434246692645;-8.48548841905341;0;6;165;0;0
IP000354;IP000354;Trofa;CP;41.3346398193172;-8.54787412146319;1;6;165;0;0
IP000356;IP000356;Palmilheira;CP;41.2012153499808;-8.55658093700791;3;6;165;0;0
IP000357;IP000357;Cavaco;CP;40.9395651945746;-8.53743499545479;4;2;165;0;0
IP000358;IP000358;Famalicão da Nazaré;CP;39.5316060962748;-9.0857167394779;5;0;165;0;0
IP000359;IP000359;Aguieira;CP;40.613226181099;-8.45309917181823;6;1;165;0;0
IP000360;IP000360;Valongo;CP;41.1882604222285;-8.48736993663092;7;6;165;0;0
IP000361;IP000361;Pego;CP;40.3658615755446;-8.38986132743783;0;4;165;0;0
IP000362;IP000362;Praia do Ribatejo;CP;39.4671819312182;-8.34763495363456;1;2;165;0;0
IP000363;IP000363;Marujal;CP;40.1403559516334;-8.67627214755412;2;1;165;0;0
IP000364;IP000364;Entrecampos;CP;38.7448818591252;-9.14717985917273;3;6;165;0;0
IP000365;IP000365;Viana;CP;38.3523782092763;-8.04238690506948;4;1;165;0;0
IP000366;IP000366;Pegões;CP;38.6622891178001;-8.61906116227839;5;3;165;0;0
IP000367;IP000367;Mercês;CP;38.7922787120617;-9.32969152653327;6;4;165;0;0
IP000368;IP000368;Garvão;CP;37.7104550494143;-8.34833053938931;7;5;165;0;0
IP000369;IP000369;Reboleira;CP;38.7508533671288;-9.22259957570761;0;1;165;0;0
IP000370;IP000370;Marinhais;CP;39.0485612005515;-8.68712570999973;1;2;165;0;0
IP000371;IP000371;Muge;CP;39.0868321837895;-8.72054781602635;2;6;165;0;0
IP000372;IP000372;Canal-Caveira;CP;38.1365442010854;-8.48975840033378;3;0;165;0;0
IP000373;IP000373;Vendas Novas;CP;38.6794177453828;-8.45440123509738;4;0;165;0;0
IP000374;IP000374;São Pedro do Estoril;CP;38.6954101680822;-9.37188288945556;5;1;165;0;0
IP000375;IP000375;Cascais;CP;38.7007954471714;-9.41819051014658;6;5;165;0;0
IP000376;IP000376;Estoril;CP;38.7032383823842;-9.39872419438764;7;6;165;0;0
IP000377;IP000377;São João do Estoril;CP;38.7012950890739;-9.38612244094831;0;3;165;0;0
IP000378;IP000378;Paço de Arcos;CP;38.6971079633417;-9.29053558652308;1;6;165;0;0
IP000379;IP000379;Caxias;CP;38.6987443466418;-9.27438851397477;2;0;165;0;0
IP000380;IP000380;Crato;CP;39.2694714793935;-7.63527045718452;3;0;165;0;0
IP000381;IP000381;Fogueteiro;CP;38.6098991819583;-9.10155738737477;4;6;165;0;0
IP000382;IP000382;Foros de Amora;CP;38.620999066389;-9.12937392244549;5;3;165;0;0
IP000383;IP000383;Pragal;CP;38.666169436029;-9.17957348287404;6;4;165;0;0
IP000384;IP000384;Alvito-A;CP;38.7093891634285;-9.17703160336696;7;2;165;0;0
IP000385;IP000385;Fuseta-A;CP;37.0535355053214;-7.74973933849789;0;3;165;0;0
IP000386;IP000386;Cacela;CP;37.1763855908813;-7.53811255935274;1;7;165;0;0
IP000387;IP000387;Durrães;CP;41.6391377949195;-8.66748923524443;2;1;165;0;0
IP000388;IP000388;Póvoa;CP;38.8595621451435;-9.0637871693887;3;0;165;0;0
IP000389;IP000389;Portimão;CP;37.1446556094026;-8.53744243216819;4;7;165;0;0
IP000390;IP000390;Caíde;CP;41.2525562237009;-8.22681261431769;5;2;165;0;0
IP000391;IP000391;Albergaria dos Doze;CP;39.793618897448;-8.58929752788126;6;1;165;0;0
IP000392;IP000392;Vizela;CP;41.3790750332966;-8.31238636636133;7;5;165;0;0
IP000393;IP000393;Mexilhoeira Grande;CP;37.1541543933531;-8.60964444333403;0;2;165;0;0
IP000394;IP000394;Messines-Alte;CP;37.2553585224686;-8.29053887613783;1;6;165;0;0
IP000395;IP000395;São Marcos;CP;37.3532607210778;-8.37151436010153;2;4;165;0;0
IP000396;IP000396;Santa Clara-Sabóia;CP;37.4958320268162;-8.48140687082057;3;5;165;0;0
IP000397;IP000397;Luzianes;CP;37.5913883772438;-8.48850147507553;4;7;165;0;0
IP000398;IP000398;Lagos;CP;37.1085299135397;-8.6715932692458;5;2;165;0;0
IP000399;IP000399;Castro Marim;CP;37.1967736495772;-7.48387767161241;6;2;165;0;0
IP000400;IP000400;Alvarães;CP;41.6484626241451;-8.73990357316994;7;2;165;0;0
IP000401;IP000401;Grândola Norte;CP;38.2421448177623;-8.54175091448631;0;6;165;0;0
IP000402;IP000402;Loulé;CP;37.1043657062315;-8.05834914133166;1;6;165;0;0
IP000403;IP000403;Conceição;CP;37.1443531946194;-7.60558934742157;2;3;165;0;0
IP000404;IP000404;Moledo do Minho;CP;41.8479495744032;-8.86429685355795;3;2;165;0;0
IP000405;IP000405;Válega;CP;40.8336059954471;-8.60111836343209;4;2;165;0;0
IP000406;IP000406;Bifurcação de Torre Vã;CP;37.838722176477;-8.37047720004215;5;3;165;0;0
IP000407;IP000407;Alvalade;CP;37.9368854748103;-8.38318689914046;6;1;165;0;0
IP000408;IP000408;Carregado;CP;39.0054325100947;-8.95367138284234;7;0;165;0;0
IP000409;IP000409;Figueiredo;CP;40.798680199413;-8.4890910619716;0;2;165;0;0
IP000410;IP000410;Vale de Guizo;CP;38.3035681371178;-8.52347262965386;1;6;165;0;0
IP000411;IP000411;Ovar;CP;40.8640023641796;-8.61666324820669;2;6;165;0;0
IP000412;IP000412;Miramar;CP;41.0678228007866;-8.64944935259581;3;2;165;0;0
IP000413;IP000413;Pinheiro;CP;38.474107498208;-8.67943817344902;4;7;165;0;0
IP000414;IP000414;Monte Gordo;CP;37.1900673939331;-7.44836121147179;5;0;165;0;0
IP000415;IP000415;Soudos - Vila Nova;CP;39.542239239334;-8.47201197846927;6;0;165;0;0
IP000416;IP000416;Albufeira - Ferreiras;CP;37.1287433358218;-8.23310960441566;7;4;165;0;0
IP000417;IP000417;Vale da Rosa;CP;38.5251570357857;-8.82051127476934;0;4;165;0;0
IP000418;IP000418;Mourisca-Sado;CP;38.5349549977228;-8.81443579524995;1;6;165;0;0
IP000419;IP000419;Eirol;CP;40.6094204465803;-8.53172644647247;2;7;165;0;0
IP000420;IP000420;Cachofarra;CP;38.512280570682;-8.8543962864524;3;5;165;0;0
IP000421;IP000421;Praça do Quebedo;CP;38.5249344384401;-8.88647322002929;4;7;165;0;0
IP000422;IP000422;Vila Real de Stº António;CP;37.1997791337799;-7.42143476211309;5;0;165;0;0
IP000423;IP000423;Palmela - A;CP;38.5718790983788;-8.87282156823503;6;1;165;0;0
IP000424;IP000424;Palmela;CP;38.5769258531776;-8.87389837139533;7;6;165;0;0
IP000425;IP000425;Praias-Sado-A;CP;38.5179561728093;-8.83812047273417;0;5;165;0;0
IP000426;IP000426;Porto Rei;CP;41.1218799862451;-7.91071365331559;1;2;165;0;0
IP000427;IP000427;Venda do Alcaide;CP;38.6057283232251;-8.88824028798096;2;5;165;0;0
IP000428;IP000428;Braço de Prata;CP;38.7456280806796;-9.1032484767546;3;1;165;0;0
IP000429;IP000429;Águas de Moura;CP;38.5732835767748;-8.74744161741378;4;2;165;0;0
IP000430;IP000430;Corroios;CP;38.6363811752302;-9.15157013850142;5;0;165;0;0
IP000431;IP000431;Âncora Praia;CP;41.8132413490504;-8.8626502346647;6;2;165;0;0
IP000432;IP000432;Santa Cruz/Damaia;CP;38.7469299270323;-9.2131678241085;7;0;165;0;0
IP000433;IP000433;Lisboa Rossio;CP;38.7142329996253;-9.14146069978776;0;5;165;0;0
IP000434;IP000434;Santa Cita;CP;39.5528779936813;-8.3931153693915;1;3;165;0;0
IP000435;IP000435;Louriçal;CP;40.0162541842195;-8.8154086608388;2;5;165;0;0
IP000436;IP000436;Ameal-Sul;CP;40.1877494643038;-8.57036862309318;3;4;165;0;0
IP000437;IP000437;Freineda;CP;40.5932565965689;-6.90444956901403;4;7;165;0;0
IP000438;IP000438;Baraçal;CP;40.6774155351612;-7.32788264447778;5;4;165;0;0
IP000439;IP000439;Celorico da Beira;CP;40.6651989982851;-7.38255768148477;6;7;165;0;0
IP000440;IP000440;Papízios;CP;40.4205039270126;-8.04970152043935;7;2;165;0;0
IP000441;IP000441;Mourisca do Vouga;CP;40.6053740835841;-8.46002606859568;0;1;165;0;0
IP000442;IP000442;Bobadela Norte (Inserção C.Mer. Bodadela lado Alverca);CP;38.8318583976565;-9.08431956312819;1;7;165;0;0
IP000443;IP000443;Cacia;CP;40.6848205812432;-8.59820642103838;2;7;165;0;0
IP000444;IP000444;Sacavém;CP;38.7958839878929;-9.09963574063224;3;2;165;0;0
IP000445;IP000445;Reguengo - Vale da Pedra - Pontével;CP;39.0992534780861;-8.7938457340926;4;7;165;0;0
IP000446;IP000446;Esqueiro;CP;41.9093836244324;-8.79281573887164;5;0;165;0;0
IP000447;IP000447;Cabanões;CP;40.5872619080651;-8.49804069255707;6;1;165;0;0
IP000448;IP000448;Azurva;CP;40.6399129641713;-8.59183534459881;7;5;165;0;0
IP000449;IP000449;Leixões;CP;41.1900558017116;-8.68473600047706;0;7;165;0;0
IP000450;IP000450;Louro;CP;41.4369643469107;-8.53817628693448;1;6;165;0;0
IP000451;IP000451;Eixo;CP;40.6310260187679;-8.56815017250196;2;6;165;0;0
IP000452;IP000452;Bustelo;CP;41.2352680211281;-8.27489863441119;3;2;165;0;0
IP000453;IP000453;Vale de Santarém;CP;39.1884227414928;-8.72384657795085;4;7;165;0;0
IP000455;IP000455;Silvalde-Vouga;CP;40.9888426752134;-8.63031399312813;6;4;165;0;0
IP000456;IP000456;Aregos;CP;41.1063792294166;-8.00740014662388;7;5;165;0;0
IP000457;IP000457;Espadaneira;CP;40.2089818050757;-8.47092793777084;0;3;165;0;0
IP000458;IP000458;Esgueira;CP;40.641526013555;-8.61827134124268;1;4;165;0;0
IP000459;IP000459;Travagem;CP;41.2283328325223;-8.55172016529636;2;5;165;0;0
IP000460;IP000460;Marinha Grande;CP;39.736803629799;-8.9261927500412;3;1;165;0;0
IP000461;IP000461;Canelas;CP;40.7164378373965;-8.5640193338757;4;3;165;0;0
IP000462;IP000462;Litém;CP;39.8379306937218;-8.5931030777957;5;2;165;0;0
IP000463;IP000463;Sampaio-Oleiros;CP;40.9840065599201;-8.59333436775377;6;5;165;0;0
IP000464;IP000464;São João de Loure;CP;40.6222897215866;-8.5481693096392;7;0;165;0;0
IP000465;IP000465;Carreira;CP;41.4869356294768;-8.56410407478969;0;3;165;0;0
IP000466;IP000466;Santarém;CP;39.2421012934568;-8.67523681591629;1;4;165;0;0
IP000467;IP000467;Fungalvaz;CP;39.6164623308968;-8.49501044431861;2;3;165;0;0
IP000468;IP000468;Chão de Maçãs-Fátima;CP;39.6543714701566;-8.49385872636786;3;7;165;0;0
IP000469;IP000469;Mira Sintra - Meleças;CP;38.789851005812;-9.3127383408728;4;1;165;0;0
IP000470;IP000470;Barca da Amieira -Envendos;CP;39.5259748980351;-7.83501393264147;5;7;165;0;0
IP000471;IP000471;Runa;CP;39.072973221934;-9.20983775002201;6;2;165;0;0
IP000472;IP000472;Ferrão;CP;41.1618975143144;-7.61125812950463;7;5;165;0;0
IP000473;IP000473;Vila Fernando;CP;40.4977858388509;-7.14797994118536;0;5;165;0;0
IP000474;IP000474;Mafra;CP;38.8974569216757;-9.29137873170471;1;6;165;0;0
IP000475;IP000475;Castelo Mendo;CP;40.5588524188995;-6.9412059092592;2;7;165;0;0
IP000476;IP000476;Maçainhas;CP;40.3887575599487;-7.28730139510076;3;4;165;0;0
IP000477;IP000477;Malveira;CP;38.928772490934;-9.25736803457823;4;7;165;0;0
IP000478;IP000478;Rochoso;CP;40.5070582460223;-7.09057450967453;5;4;165;0;0
IP000479;IP000479;Sarnadas;CP;39.7563811892926;-7.62375233037929;6;1;165;0;0
IP000480;IP000480;Covilhã;CP;40.2774918974397;-7.49613385961673;7;6;165;0;0
IP000481;IP000481;Alegria;CP;41.1764812854369;-7.37777978967853;0;7;165;0;0
IP000482;IP000482;Livramento;CP;37.0737217647149;-7.73128168325784;1;3;165;0;0
IP000483;IP000483;Porta Nova;CP;37.133144605635;-7.64806225323454;2;4;165;0;0
IP000484;IP000484;Casa Branca;CP;38.4981570080197;-8.1582426574282;3;6;165;0;0
IP000485;IP000485;Tancos;CP;39.4612409588313;-8.39534203748144;4;2;165;0;0
IP000486;IP000486;Queluz-Belas;CP;38.7588153296333;-9.2570267097555;5;1;165;0;0
IP000487;IP000487;Reveles;CP;40.130769600232;-8.74540783977196;6;5;165;0;0
IP000488;IP000488;Vidigal;CP;38.7023171276876;-8.47846609783624;7;6;165;0;0
IP000489;IP000489;Canha;CP;38.7487281120455;-8.51041644185762;0;5;165;0;0
IP000490;IP000490;Amoreiras-Odemira;CP;37.6899734212836;-8.41438459360413;1;2;165;0;0
IP000491;IP000491;Azinheira dos Barros;CP;38.0929977039782;-8.42127336842297;2;6;165;0;0
IP000493;IP000493;Ribeira de Seiça;CP;40.0450455320006;-8.78279913869069;4;7;165;0;0
IP000494;IP000494;Fornos de Algodres;CP;40.6102763218903;-7.52695094097682;5;7;165;0;0
IP000495;IP000495;Barragem de Belver;CP;39.4819764722805;-8.00123800504807;6;0;165;0;0
IP000496;IP000496;Benespera;CP;40.4348970681777;-7.26835468424996;7;0;165;0;0
IP000497;IP000497;Monte Real;CP;39.8559944385748;-8.84768394197262;0;2;165;0;0
IP000498;IP000498;Moimenta Alcafache;CP;40.5745440087566;-7.80955693483011;1;3;165;0;0
IP000499;IP000499;Esmoriz;CP;40.9628399585936;-8.63550672693753;2;1;165;0;0
IP000500;IP000500;Godim;CP;41.1663946838202;-7.79756393835606;3;0;165;0;0
IP000501;IP000501;Miuzela;CP;40.5193363932772;-7.01326803963371;4;3;165;0;0
IP000502;IP000502;Vale de Prazeres;CP;40.1147411907699;-7.42414861650162;5;0;165;0;0
IP000503;IP000503;Óbidos;CP;39.3648950316219;-9.15907105428759;6;4;165;0;0
IP000504;IP000504;Amieira;CP;40.1041634434808;-8.75209845832386;7;6;165;0;0
IP000505;IP000505;Vila Franca das Naves;CP;40.7247718472255;-7.25817410838838;0;5;165;0;0
IP000506;IP000506;Camarão;CP;39.2276341371463;-9.1660055849098;1;0;165;0;0
IP000507;IP000507;Raquete;CP;37.9728821846564;-8.77202668562975;2;1;165;0;0
IP000508;IP000508;Tomar;CP;39.5987240111663;-8.41291071323981;3;0;165;0;0
IP000509;IP000509;Grândola;CP;38.1816437621928;-8.55459268735454;4;7;165;0;0
IP000510;IP000510;Alvega-Ortiga;CP;39.4723358526533;-8.04468580257347;5;2;165;0;0
IP000511;IP000511;Sapataria;CP;38.9687999543219;-9.19935130045562;6;7;165;0;0
IP000512;IP000512;Leiria;CP;39.7566222944253;-8.82785067803686;7;5;165;0;0
IP000513;IP000513;Arronches;CP;39.0968163273917;-7.33335938483667;0;1;165;0;0
IP000514;IP000514;Caria;CP;40.3060310051446;-7.37070910711987;1;6;165;0;0
IP000515;IP000515;Canas Felgueira;CP;40.490976392332;-7.90662566793266;2;1;165;0;0
IP000516;IP000516;Macinhata;CP;40.6533502826649;-8.45826266003779;3;4;165;0;0
IP000517;IP000517;Carvalheira - Maceda;CP;40.9245053001087;-8.62607983487529;4;0;165;0;0
IP000518;IP000518;Francelos Sul;CP;41.07594045746;-8.64877741898072;5;2;165;0;0
IP000519;IP000519;Francelos Norte;CP;41.088300432881;-8.64076965162308;6;5;165;0;0
MetroDoPorto5708;5708;Estadio do Dragão;Metro do Porto;41.160716;-8.582416;0;1;165;0;0
MetroDoPorto5703;5703;Campanhã;Metro do Porto;41.150537;-8.586245;1;4;165;0;0
MetroDoPorto5712;5712;Heroismo;Metro do Porto;41.146697;-8.592978;2;5;165;0;0
MetroDoPorto5697;5697;24 de Agosto;Metro do Porto;41.148796;-8.598349;3;7;165;0;0
MetroDoPorto5699;5699;Bolhao;Metro do Porto;41.149785;-8.605901;4;2;165;0;0
MetroDoPorto5726;5726;Trindade;Metro do Porto;41.152277;-8.609299;5;0;165;0;0
MetroDoPorto5713;5713;Lapa;Metro do Porto;41.157107;-8.616723;6;2;165;0;0
MetroDoPorto5704;5704;Carolina Michaelis;Metro do Porto;41.158585;-8.622246;7;1;165;0;0
MetroDoPorto5706;5706;Casa da Musica;Metro do Porto;41.160575;-8.628282;0;6;165;0;0
MetroDoPorto5711;5711;Francos;Metro do Porto;41.165549;-8.636347;1;0;165;0;0
MetroDoPorto5721;5721;Ramalde;Metro do Porto;41.172962;-8.641766;2;1;165;0;0
MetroDoPorto5729;5729;Via Rapida Viso;Metro do Porto;41.177255;-8.646498;3;2;165;0;0
MetroDoPorto5725;5725;Sete Bicas;Metro do Porto;41.182422;-8.652149;4;6;165;0;0
MetroDoPorto5724;5724;Senhora da Hora;Metro do Porto;41.188101;-8.654466;5;4;165;0;0
MetroDoPorto5727;5727;Vasco da Gama;Metro do Porto;41.190237;-8.661037;6;3;165;0;0
MetroDoPorto5709;5709;Estadio do Mar;Metro do Porto;41.185769;-8.661189;7;5;165;0;0
MetroDoPorto5720;5720;Hospital Pedro Hispano;Metro do Porto;41.180381;-8.666232;0;6;165;0;0
MetroDoPorto5719;5719;Parque de Real;Metro do Porto;41.179107;-8.673546;1;7;165;0;0
MetroDoPorto5701;5701;Camara de Matosinhos;Metro do Porto;41.180698;-8.681227;2;6;165;0;0
MetroDoPorto5715;5715;Matosinhos Sul;Metro do Porto;41.180171;-8.688553;3;1;165;0;0
MetroDoPorto5700;5700;Brito Capelo;Metro do Porto;41.183908;-8.691469;4;0;165;0;0
MetroDoPorto5716;5716;Mercado;Metro do Porto;41.187484;-8.693391;5;4;165;0;0
MetroDoPorto5723;5723;Senhor de Matosinhos;Metro do Porto;41.188205;-8.685123;6;2;165;0;0
MetroDoPorto5737;5737;Fonte do Cuco;Metro do Porto;41.194161;-8.655771;7;4;165;0;0
MetroDoPorto5734;5734;Custoias;Metro do Porto;41.200294;-8.655559;0;3;165;0;0
MetroDoPorto5736;5736;Esposade;Metro do Porto;41.216067;-8.654541;1;4;165;0;0
MetroDoPorto5733;5733;Crestins;Metro do Porto;41.233013;-8.656593;2;5;165;0;0
MetroDoPorto5750;5750;Verdes;Metro do Porto;41.238246;-8.658212;3;1;165;0;0
MetroDoPorto5744;5744;Pedras Rubras;Metro do Porto;41.246233;-8.661807;4;1;165;0;0
MetroDoPorto5739;5739;Lidador;Metro do Porto;41.254953;-8.668018;5;4;165;0;0
MetroDoPorto5753;5753;Vilar Pinheiro;Metro do Porto;41.270297;-8.679515;6;4;165;0;0
MetroDoPorto5743;5743;Modivas Sul;Metro do Porto;41.285251;-8.693703;7;2;165;0;0
MetroDoPorto5741;5741;Modivas Centro;Metro do Porto;41.293684;-8.699238;0;6;165;0;0
MetroDoPorto5740;5740;Mindelo;Metro do Porto;41.315077;-8.714209;1;0;165;0;0
MetroDoPorto5735;5735;Espaco Natureza;Metro do Porto;41.321222;-8.718681;2;1;165;0;0
MetroDoPorto5749;5749;Varziela;Metro do Porto;41.334225;-8.720721;3;6;165;0;0
MetroDoPorto5731;5731;Arvore;Metro do Porto;41.340402;-8.725555;4;2;165;0;0
MetroDoPorto5732;5732;Azurara;Metro do Porto;41.345965;-8.728122;5;4;165;0;0
MetroDoPorto5747;5747;Santa Clara;Metro do Porto;41.353983;-8.735826;6;1;165;0;0
MetroDoPorto5752;5752;Vila do Conde;Metro do Porto;41.359096;-8.73987;7;4;165;0;0
MetroDoPorto5730;5730;Alto de Pega;Metro do Porto;41.364643;-8.745225;0;4;165;0;0
MetroDoPorto5745;5745;Portas Fronhas;Metro do Porto;41.368953;-8.749558;1;7;165;0;0
MetroDoPorto5748;5748;Sao Bras;Metro do Porto;41.373456;-8.754122;2;5;165;0;0
MetroDoPorto5746;5746;Povoa de Varzim;Metro do Porto;41.378126;-8.758081;3;2;165;0;0
MetroDoPorto5755;5755;Candido dos Reis;Metro do Porto;41.200698;-8.649703;4;7;165;0;0
MetroDoPorto5764;5764;Pias;Metro do Porto;41.208234;-8.647122;5;1;165;0;0
MetroDoPorto5754;5754;Araujo;Metro do Porto;41.216907;-8.640978;6;4;165;0;0
MetroDoPorto5757;5757;Custio;Metro do Porto;41.222341;-8.638996;7;5;165;0;0
MetroDoPorto5763;5763;Parque da Maia;Metro do Porto;41.229019;-8.626897;0;6;165;0;0
MetroDoPorto5760;5760;Forum Maia;Metro do Porto;41.234634;-8.623937;1;3;165;0;0
MetroDoPorto5765;5765;Zona Industrial;Metro do Porto;41.243968;-8.628555;2;1;165;0;0
MetroDoPorto5762;5762;Mandim;Metro do Porto;41.253577;-8.628308;3;1;165;0;0
MetroDoPorto5756;5756;Castelo da Maia;Metro do Porto;41.262749;-8.616986;4;3;165;0;0
MetroDoPorto5761;5761;ISMAI;Metro do Porto;41.268905;-8.615387;5;2;165;0;0
MetroDoPorto5769;5769;Dom Joao II;Metro do Porto;41.119660;-8.606230;6;1;165;0;0
MetroDoPorto5774;5774;Joao de Deus;Metro do Porto;41.126058;-8.605627;7;3;165;0;0
MetroDoPorto5767;5767;Camara de Gaia;Metro do Porto;41.129666;-8.606116;0;6;165;0;0
MetroDoPorto5773;5773;Jardim do Morro;Metro do Porto;41.137639;-8.608646;1;0;165;0;0
MetroDoPorto5766;5766;Aliados;Metro do Porto;41.148581;-8.610945;2;1;165;0;0
MetroDoPorto5770;5770;Faria Guimaraes;Metro do Porto;41.157219;-8.609141;3;2;165;0;0
MetroDoPorto5775;5775;Marques;Metro do Porto;41.161123;-8.604272;4;3;165;0;0
MetroDoPorto5768;5768;Combatentes;Metro do Porto;41.165301;-8.598464;5;0;165;0;0
MetroDoPorto5777;5777;Salgueiros;Metro do Porto;41.169684;-8.598744;6;0;165;0;0
MetroDoPorto5776;5776;Polo Universitario;Metro do Porto;41.174247;-8.603607;7;1;165;0;0
MetroDoPorto5772;5772;I.P.O.;Metro do Porto;41.181253;-8.604521;0;6;165;0;0
MetroDoPorto5791;5791;Hospital de Sao Joao;Metro do Porto;41.183260;-8.602240;1;5;165;0;0
MetroDoPorto5783;5783;Botica;Metro do Porto;41.237524;-8.665208;2;0;165;0;0
MetroDoPorto5782;5782;Aeroporto;Metro do Porto;41.237077;-8.669442;3;4;165;0;0
MetroDoPorto5717;5717;Nasoni;Metro do Porto;41.170767;-8.577317;4;2;165;0;0
MetroDoPorto5718;5718;Nau Vitoria;Metro do Porto;41.174122;-8.573534;5;0;165;0;0
MetroDoPorto5714;5714;Levada;Metro do Porto;41.175758;-8.562120;6;4;165;0;0
MetroDoPorto5722;5722;Rio Tinto (Metro);Metro do Porto;41.179422;-8.560264;7;0;165;0;0
MetroDoPorto5702;5702;Campainha;Metro do Porto;41.183452;-8.553955;0;1;165;0;0
MetroDoPorto5698;5698;Baguim;Metro do Porto;41.185570;-8.545892;1;7;165;0;0
MetroDoPorto5705;5705;Carreira;Metro do Porto;41.179825;-8.543604;2;5;165;0;0
MetroDoPorto5728;5728;Venda Nova;Metro do Porto;41.175157;-8.541962;3;5;165;0;0
MetroDoPorto5710;5710;Fanzeres;Metro do Porto;41.171300;-8.542938;4;7;165;0;0
MetroDoPorto5792;5792;Santo Ovidio;Metro do Porto;41.115548;-8.606555;5;1;165;0;0
MetroDoPorto5742;5742;VC Fashion Outlet Modivas;Metro do Porto;41.300492;-8.704004;6;7;165;0;0
MetroLisboa5e2c6e4d-01d6-42be-9071-91277bd6ca22;5e2c6e4d-01d6-42be-9071-91277bd6ca22;Terreiro do Paço;Metropolitano de Lisboa;38.7071293396142;-9.13420238756193;0;3;165;0;0
MetroLisboa9f8be47b-92f2-4971-b8c8-c55b4b3b8d5a;9f8be47b-92f2-4971-b8c8-c55b4b3b8d5a;Baixa Chiado;Metropolitano de Lisboa;38.7105700699041;-9.14015060636417;1;5;165;0;0
MetroLisboa0b05ab67-07ff-4c00-b9b1-861667bf138e;0b05ab67-07ff-4c00-b9b1-861667bf138e;Rossio;Metropolitano de Lisboa;38.7140387351334;-9.13788558416029;2;0;165;0;0
MetroLisboa2346f3c9-19ee-4f2f-879b-f70b70dedfed;2346f3c9-19ee-4f2f-879b-f70b70dedfed;Restauradores;Metropolitano de Lisboa;38.7159224068044;-9.14211755877668;3;0;165;0;0
MetroLisboa06d5c55c-1aaa-46f7-8bce-27a4e3e6d0a7;06d5c55c-1aaa-46f7-8bce-27a4e3e6d0a7;Martim Moniz;Metropolitano de Lisboa;38.7177019399986;-9.13573782228017;4;0;165;0;0
MetroLisboa7ddd3ab2-2d86-42cc-9e92-ec13ebc9cffb;7ddd3ab2-2d86-42cc-9e92-ec13ebc9cffb;Avenida;Metropolitano de Lisboa;38.7194025351094;-9.14515188409429;5;4;165;0;0
MetroLisboafaebc6fb-1897-4704-9b94-15572de2d777;faebc6fb-1897-4704-9b94-15572de2d777;Rato;Metropolitano de Lisboa;38.7201575166883;-9.15468780091093;6;2;165;0;0
MetroLisboa57c1807c-56c5-490f-b7fb-4f6ca7c2af83;57c1807c-56c5-490f-b7fb-4f6ca7c2af83;Intendente;Metropolitano de Lisboa;38.7232980404134;-9.13518490808126;7;1;165;0;0
MetroLisboaa726632e-0fad-44f0-a9d8-fa3628926dbc;a726632e-0fad-44f0-a9d8-fa3628926dbc;Marquês de Pombal;Metropolitano de Lisboa;38.724638955043;-9.14974636758321;0;1;165;0;0
MetroLisboa74bfa9fd-a3f1-426c-ba2b-3f5308349d2f;74bfa9fd-a3f1-426c-ba2b-3f5308349d2f;Anjos;Metropolitano de Lisboa;38.7271578246524;-9.13480023096576;1;6;165;0;0
MetroLisboa64a1f376-23f0-4f86-8297-b6b7b8bdfdef;64a1f376-23f0-4f86-8297-b6b7b8bdfdef;Parque;Metropolitano de Lisboa;38.7289458895159;-9.15014123306272;2;0;165;0;0
MetroLisboa852fc4ce-38ac-4f8b-aa32-5c08f5cd96bb;852fc4ce-38ac-4f8b-aa32-5c08f5cd96bb;Picoas;Metropolitano de Lisboa;38.7304084282427;-9.14688282452403;3;1;165;0;0
MetroLisboa74fd557b-7c4c-4ec9-92c5-033fe588f7df;74fd557b-7c4c-4ec9-92c5-033fe588f7df;Arroios;Metropolitano de Lisboa;38.7328456373345;-9.13423033340514;4;3;165;0;0
MetroLisboa8a8a002d-1dd3-4951-bdf9-44f7a101f098;8a8a002d-1dd3-4951-bdf9-44f7a101f098;São Sebastião;Metropolitano de Lisboa;38.7343970331662;-9.15392287316945;5;2;165;0;0
MetroLisboaa94b4e93-a64b-4153-8e63-f7094f356cd5;a94b4e93-a64b-4153-8e63-f7094f356cd5;Saldanha;Metropolitano de Lisboa;38.7351689051228;-9.14528831383823;6;1;165;0;0
MetroLisboaf79175fb-1f88-4e53-90ae-df4a30c399fa;f79175fb-1f88-4e53-90ae-df4a30c399fa;Alameda;Metropolitano de Lisboa;38.7370549729502;-9.13380942489798;7;6;165;0;0
MetroLisboaec866ff9-570f-4cbb-988c-8a3c3fcaab83;ec866ff9-570f-4cbb-988c-8a3c3fcaab83;Praça de Espanha;Metropolitano de Lisboa;38.7377491106506;-9.15925422094947;0;3;165;0;0
MetroLisboadfd8a5f2-777f-4295-b12c-743135c64eec;dfd8a5f2-777f-4295-b12c-743135c64eec;Olaias;Metropolitano de Lisboa;38.7401729590514;-9.1230025209179;1;7;165;0;0
MetroLisboa4532c25e-cccb-437e-98bb-2b1fa65e501b;4532c25e-cccb-437e-98bb-2b1fa65e501b;Campo Pequeno;Metropolitano de Lisboa;38.740929476453;-9.14668409480334;2;7;165;0;0
MetroLisboaeaae00a9-cdad-4eef-9e61-04a089f48f67;eaae00a9-cdad-4eef-9e61-04a089f48f67;Jardim Zoológico;Metropolitano de Lisboa;38.741639206018;-9.16866629861376;3;6;165;0;0
MetroLisboa120ca4d0-6190-41c3-a985-d86b2856beea;120ca4d0-6190-41c3-a985-d86b2856beea;Areeiro;Metropolitano de Lisboa;38.7424454415358;-9.13345548142175;4;3;165;0;0
MetroLisboa0c879fce-c4da-4593-b949-b6bd66dd3bc4;0c879fce-c4da-4593-b949-b6bd66dd3bc4;Bela Vista;Metropolitano de Lisboa;38.7477357859286;-9.11762369396806;5;7;165;0;0
MetroLisboa0986f6e3-b0af-4eed-b6dd-cbc2f2f73a59;0986f6e3-b0af-4eed-b6dd-cbc2f2f73a59;Roma;Metropolitano de Lisboa;38.7482228024879;-9.14134526152344;6;2;165;0;0
MetroLisboa38073032-1825-4225-8bfb-9b5fedd41955;38073032-1825-4225-8bfb-9b5fedd41955;Laranjeiras;Metropolitano de Lisboa;38.7487507528713;-9.17258176533351;7;2;165;0;0
MetroLisboaa44df123-626a-4339-893a-3275535b0ed7;a44df123-626a-4339-893a-3275535b0ed7;Alto dos Moinhos;Metropolitano de Lisboa;38.7499445388444;-9.18006654807824;0;3;165;0;0
MetroLisboaa64198b4-c5a6-4ce9-906a-b89aabd27a94;a64198b4-c5a6-4ce9-906a-b89aabd27a94;Cidade Universitária;Metropolitano de Lisboa;38.7515984207662;-9.15912398203189;1;5;165;0;0
MetroLisboa72435d1a-875f-4a7d-b712-a5cd2414bf6a;72435d1a-875f-4a7d-b712-a5cd2414bf6a;Alvalade;Metropolitano de Lisboa;38.7531730686722;-9.14400029637591;2;5;165;0;0
MetroLisboa43249a8b-b075-4809-81f0-f96174374745;43249a8b-b075-4809-81f0-f96174374745;Colégio Militar;Metropolitano de Lisboa;38.753441421465;-9.18930499007435;3;2;165;0;0
MetroLisboadc994cf0-25c7-4c48-81c9-f943bf724132;dc994cf0-25c7-4c48-81c9-f943bf724132;Chelas;Metropolitano de Lisboa;38.7549149532346;-9.11393068105765;4;2;165;0;0
MetroLisboa9b61f08f-9a44-47e5-bb6f-b21a8e13dedc;9b61f08f-9a44-47e5-bb6f-b21a8e13dedc;Amadora Este;Metropolitano de Lisboa;38.7587158590108;-9.21790161747948;5;1;165;0;0
MetroLisboa1e8ff1a6-1eab-4ed4-bb24-e18e1c6459ae;1e8ff1a6-1eab-4ed4-bb24-e18e1c6459ae;Carnide;Metropolitano de Lisboa;38.759168109099;-9.19262713345253;6;5;165;0;0
MetroLisboa09d7d227-2905-436e-9630-f89511e7d09e;09d7d227-2905-436e-9630-f89511e7d09e;Campo Grande;Metropolitano de Lisboa;38.7602165259205;-9.1578896614592;7;3;165;0;0
MetroLisboa1fdafb60-38fa-4772-b5cb-97886e096fa6;1fdafb60-38fa-4772-b5cb-97886e096fa6;Telheiras;Metropolitano de Lisboa;38.7599634337851;-9.16644430726784;0;1;165;0;0
MetroLisboa19b135d1-9e87-4aed-8dea-50a275ae5181;19b135d1-9e87-4aed-8dea-50a275ae5181;Olivais;Metropolitano de Lisboa;38.7609221401764;-9.11176892689733;1;0;165;0;0
MetroLisboa0752db57-f11d-4bef-9729-8b2346fcba98;0752db57-f11d-4bef-9729-8b2346fcba98;Alfornelos;Metropolitano de Lisboa;38.7605071106029;-9.20447747862651;2;4;165;0;0
MetroLisboafdfa7548-b9e4-4a30-b2dc-f4d1463aecfd;fdfa7548-b9e4-4a30-b2dc-f4d1463aecfd;Pontinha;Metropolitano de Lisboa;38.7622502213567;-9.19686363917219;3;6;165;0;0
MetroLisboa9ee18c77-a189-40d3-9529-f9d7d6a0d9c6;9ee18c77-a189-40d3-9529-f9d7d6a0d9c6;Cabo Ruivo;Metropolitano de Lisboa;38.7629641453917;-9.10511478609739;4;6;165;0;0
MetroLisboa7ffe5d28-ba93-4603-94ca-bc4f71bec6dc;7ffe5d28-ba93-4603-94ca-bc4f71bec6dc;Quinta das Conchas;Metropolitano de Lisboa;38.7674892706787;-9.15555480778863;5;7;165;0;0
MetroLisboa4d76ab1b-e725-437f-8337-62cb6f0f0bcc;4d76ab1b-e725-437f-8337-62cb6f0f0bcc;Oriente;Metropolitano de Lisboa;38.7679599444634;-9.0998135518355;6;5;165;0;0
MetroLisboa41c607b1-0707-4eb2-92e3-c0b8a54f2c09;41c607b1-0707-4eb2-92e3-c0b8a54f2c09;Aeroporto;Metropolitano de Lisboa;38.7683794008583;-9.12820311123166;7;0;165;0;0
MetroLisboae35efc14-fa89-4fc6-931d-f6478f506f62;e35efc14-fa89-4fc6-931d-f6478f506f62;Lumiar;Metropolitano de Lisboa;38.7732843374556;-9.159288760681;0;6;165;0;0
MetroLisboa5f24706c-0ad9-49fd-b7e2-6bb2de61d922;5f24706c-0ad9-49fd-b7e2-6bb2de61d922;Encarnação;Metropolitano de Lisboa;38.7750679264104;-9.11537495212044;1;3;165;0;0
MetroLisboab1a1071c-dc10-478e-8567-bd250d97a0c4;b1a1071c-dc10-478e-8567-bd250d97a0c4;Moscavide;Metropolitano de Lisboa;38.7749214790169;-9.10300158883893;2;3;165;0;0
MetroLisboa5cd4e0d7-4b55-483e-8d3d-4ccf8da4bea7;5cd4e0d7-4b55-483e-8d3d-4ccf8da4bea7;Ameixoeira;Metropolitano de Lisboa;38.7795364143671;-9.15952318236053;3;5;165;0;0
MetroLisboa10a68b65-a7f3-4f70-b4d2-d730d879473d;10a68b65-a7f3-4f70-b4d2-d730d879473d;Senhor Roubado;Metropolitano de Lisboa;38.785776294755;-9.17189570290375;4;2;165;0;0
MetroLisboa3c41f59f-59ea-4727-a502-ec6760471edd;3c41f59f-59ea-4727-a502-ec6760471edd;Odivelas;Metropolitano de Lisboa;38.7935139056005;-9.17319799147843;5;0;165;0;0
