idGare;latitude;longitude
43077;48.95456256277917;2.302305082030494
43077;48.95582939392718;2.3019910195900777
43536;48.8921233638325;2.2372135364577135
43536;48.89218707644951;2.237018056395014
42288;48.85343696230164;2.368736572626169
42288;48.85343942756841;2.3695135681565254
42288;48.852009030520556;2.36867458439179
42311;48.87184879466127;2.3765936840968225
42311;48.87228310892801;2.37673072170184
415851;48.857477982529346;2.3515775629949967
415851;48.85745183174312;2.3510084614060265
43493;48.84595066575015;2.355050264434754
43493;48.846151122181325;2.354917983707404
44139;48.84524756545478;2.261623492404886
44139;48.84505817231375;2.2617451249636717
43511;48.87376998959543;2.31445603617697
43511;48.873733165607064;2.314743542030632
43969;48.91196489788089;2.3339248904797145
43969;48.91320209515785;2.334663150119759
58716;48.85193594203498;2.340613006406504
58716;48.852300763094235;2.3397277815930964
42237;48.86993903518653;2.332592489355912
42237;48.87130850300574;2.331493987087091
42237;48.87048333292661;2.3311863468516525
44617;48.86702678847436;2.364247995104706
44617;48.86782709972698;2.3637404371950392
44617;48.86778030055016;2.3629287001561123
44617;48.86799910892294;2.3650748610827645
44617;48.867600880102444;2.3627573800027633
43138;48.8762727026041;2.3580579070747385
43138;48.87612635294891;2.358047505360746
43138;48.8759910648072;2.357880771925327
42151;48.92078596906289;2.410598616469426
42151;48.92078596906289;2.410598616469426
44057;48.822182658556564;2.3585513482022042
44057;48.82142042957708;2.3590551543843183
44962;48.863065020217945;2.2862431693282357
44962;48.863610937645674;2.2875801625296517
44513;48.81976126757109;2.3640154621825227
44513;48.819453686993754;2.3651909325792806
42835;48.834292980473194;2.33285230996089
42835;48.83345085821352;2.331740130985349
58759;48.87481054112289;2.2958012223518693
58759;48.87514981972761;2.295904904713175
58759;48.87474865067991;2.2955602562131467
44191;48.847579367477074;2.3955545121706874
44191;48.84894464506383;2.3958794351856887
44191;48.84737487872935;2.3954619948327402
44191;48.848474285974376;2.395062305425881
44514;48.8946243340091;2.3142338462894254
44514;48.89425226223873;2.313772157405782
44514;48.89498081072532;2.312791961501292
42587;48.856942736159496;2.348147481005499
42587;48.859287325170946;2.345803056189527
42587;48.85763141070005;2.3480365654004016
42587;48.859589655582816;2.346478183587595
42587;48.8597186619952;2.346768285736699
43566;48.84957521390955;2.298625127144874
43566;48.848741665717824;2.2989309117480614
43566;48.84957521390955;2.298625127144874
44372;48.88399982489613;2.32853013989038
44372;48.8838045280338;2.3272434105874065
44901;48.88428415025653;2.365821546282089
44901;48.88479825198408;2.36958085557783
44901;48.88432566304799;2.3673720385654686
43310;48.87125654594185;2.34456106066273
43310;48.87125654594185;2.34456106066273
45357;48.83629530154249;2.278330259866024
45357;48.83612298019267;2.2781191783109924
44642;48.87219090864884;2.3388571594538052
44642;48.87169298457071;2.338463081008744
44859;48.93805733112318;2.3607924922797126
44859;48.93677678991262;2.3593662963605984
43407;48.86038127919816;2.3148907300588806
43407;48.86002845820203;2.3139151192031537
43425;48.88162402899078;2.3702590567553905
43425;48.883193321300105;2.371933128614294
43425;48.88246524557207;2.370157961739611
44909;48.86940219665552;2.3538187935928794
44909;48.869628863778516;2.354468813108209
44909;48.86940219665552;2.3538187935928794
45056;48.881094427166275;2.3147210047461946
45056;48.881094427166275;2.3147210047461946
45100;48.870590478011124;2.3484911310789895
45100;48.870590478011124;2.3484911310789895
43197;48.93526614581904;2.3478624077555326
43197;48.93615562725767;2.3464709021070975
42230;48.86532271167806;2.356729869173701
42230;48.86558647849898;2.356736756794993
42531;48.86760214522151;2.3138941304816147
42531;48.8679053448971;2.3135455499467414
45676;48.86681836985009;2.3220828486761693
45676;48.86628580458389;2.3229434122435415
45676;48.86616711494919;2.323175680856618
44138;48.84789565020843;2.2640820307462217
44138;48.84793480789207;2.2642187756877292
43898;48.869633173024916;2.326272274027749
43898;48.87023324339993;2.3251635468278975
43898;48.87066702089795;2.3257526352867255
44273;48.842871275006345;2.3124475130659863
44273;48.84267681998372;2.3128127748369023
44310;48.86312321464208;2.3858824493261475
44310;48.86218374787729;2.3878359564536575
44396;48.87694984811022;2.3929839648173936
44396;48.8768063892129;2.3930560919606623
44371;48.83143363013256;2.355643643033711
44371;48.8309272410005;2.356121938797104
44371;48.830972672988366;2.3555802740779104
43238;48.84378130573586;2.3243970123857944
43238;48.842102207208605;2.3212785627446273
43238;48.84373548931853;2.3243530411579663
43238;48.84232743772649;2.320984834266813
44345;48.88224953318808;2.3371645394451463
44345;48.88222543392857;2.3382334685046176
44528;48.84694815185174;2.409551429787372
44528;48.847393890496086;2.40965605640417
43072;48.84236008246694;2.3655817027477433
43072;48.842436797924776;2.365184811993381
43153;48.84586897868619;2.373774422563834
43153;48.843486761806766;2.3739225903167545
44533;48.87790843816008;2.284431219916768
44533;48.87793268655634;2.282976188020842
43065;49.00468746180567;2.57058948552452
43065;49.004725624495876;2.571294844435935
58566;48.87371340670775;2.3276954096301736
58566;48.873513389595466;2.3275430817269713
42280;48.88380394240113;2.3506129993253224
42280;48.8834180885266;2.349674832582202
45229;48.83944542837951;2.3961828864526327
45229;48.83954964556868;2.3957032894363937
44075;48.89143955488239;2.349627158227453
44075;48.89146500033268;2.3498154532183615
44236;48.86234803084025;2.3364964609424774
44236;48.86282967190577;2.3368784003341996
45193;48.86496414577929;2.3679014148417363
45193;48.8650190090373;2.368011378256503
45314;48.83896428042835;2.3307541920862156
45314;48.83896428042835;2.3307541920862156
44600;48.86673355595668;2.352829461254394
44600;48.8664963437902;2.3513589155329915
44637;48.847128722240626;2.3870252420986313
44637;48.847179910069585;2.385243715115072
49515;48.832676871877865;2.288069457597242
49515;48.83187246749725;2.287207137822909
58566;48.87515128791023;2.324380555428912
58566;48.87571908982334;2.324224580938853
58566;48.87567210708072;2.3278422352596215
58566;48.87542071665263;2.32547637444705
42874;48.84698910613954;2.3170052357372453
42874;48.84705255542817;2.3164243520508925
59332;48.95931814416915;2.3420538013870744
59332;48.96000579243069;2.3423685974925013
43240;49.009756452138376;2.5612326952251063
43240;49.01000186615113;2.5605588439018763
43233;48.87979369411629;2.355791907531139
43233;48.880195487135886;2.3576332046800537
43055;48.86516343488149;2.3987465934425916
43055;48.86497810787772;2.396912847086626
44828;48.851031751239304;2.3261023128241907
44828;48.85176205249548;2.326822568897497
44529;48.87711051176337;2.40672924554309
44529;48.87717481930548;2.406480156998486
45232;48.840001388648794;2.3795540112141405
45232;48.84038874809587;2.3799112714543984
47746;48.78669993585199;2.2544627619612347
47746;48.78721089683679;2.253169144661627
42589;48.87280447590615;2.3344562913768514
42589;48.873252746484354;2.3339466825286297
43026;48.869438881659114;2.3086074935262557
43026;48.86869984735294;2.309505157337887
44579;48.86590673959417;2.3341895419682497
44579;48.86573786666654;2.3344377148655506
43823;48.88094656356074;2.3649934724001813
43823;48.881192119070995;2.364378741179748
44095;48.93859447585233;2.3558452667806034
44095;48.93894788361666;2.356334439358093
43197;48.93445554506132;2.3456043781962905
